[+] Containers:
 |- [+] Container: /Game/Scenes/MapaTestAI
 |   |- [+] ActorDescs:
 |   |   |- Guid:0F35580549E568313602C8A694B1C9A0 BaseClass: NativeClass:/Script/Engine.ExponentialHeightFog Name:ExponentialHeightFog_0 Label:ExponentialHeightFog SpatiallyLoaded:0 Bounds:IsValid=true, Min=(X=-5600.000 Y=-50.000 Z=-6850.000), Max=(X=-5600.000 Y=-50.000 Z=-6850.000) RuntimeGrid:None EditorOnly:0 RuntimeOnly:0 HLODRelevant:0 ListedInSceneOutliner:1 IsMainWorldOnly:0 FolderPath:Lighting FolderGuid:963EC3EB4002CCE9759E2EBA541A873A
 |   |   |- Guid:25FB89324DF7BC79CF1B5CBA229A0797 BaseClass: NativeClass:/Script/Engine.VolumetricCloud Name:VolumetricCloud_0 Label:VolumetricCloud SpatiallyLoaded:0 Bounds:IsValid=true, Min=(X=0.000 Y=0.000 Z=820.000), Max=(X=0.000 Y=0.000 Z=820.000) RuntimeGrid:None EditorOnly:0 RuntimeOnly:0 HLODRelevant:0 ListedInSceneOutliner:1 IsMainWorldOnly:0 FolderPath:Lighting FolderGuid:963EC3EB4002CCE9759E2EBA541A873A
 |   |   |- Guid:2DA1E32A46076423341D70BF1E775A50 BaseClass: NativeClass:/Script/Engine.StaticMeshActor Name:StaticMeshActor_UAID_A4AE111137DC5EFB00_1110535423 Label:SM_SkySphere SpatiallyLoaded:0 Bounds:IsValid=true, Min=(X=-1638400.000 Y=-1638400.000 Z=-1638400.000), Max=(X=1638400.000 Y=1638400.000 Z=1638400.000) RuntimeGrid:None EditorOnly:0 RuntimeOnly:0 HLODRelevant:1 ListedInSceneOutliner:1 IsMainWorldOnly:0 FolderPath:Lighting FolderGuid:963EC3EB4002CCE9759E2EBA541A873A
 |   |   |- Guid:4179ADCC4E54A60DC7E78FA860E8BA1D BaseClass: NativeClass:/Script/Engine.StaticMeshActor Name:StaticMeshActor_5 Label:SM_Cube2 SpatiallyLoaded:1 Bounds:IsValid=true, Min=(X=0.000 Y=0.000 Z=0.000), Max=(X=9200.000 Y=100.000 Z=400.000) RuntimeGrid:None EditorOnly:0 RuntimeOnly:0 HLODRelevant:1 ListedInSceneOutliner:1 IsMainWorldOnly:0 FolderPath:Playground FolderGuid:C73F09FC4215536B1DCE2A9E0A830C70
 |   |   |- Guid:5D654E1B4317EBAE7980F0AF53C1C038 BaseClass: NativeClass:/Script/Engine.WorldDataLayers Name:WorldDataLayers Label:WorldDataLayers SpatiallyLoaded:0 Bounds:Invalid RuntimeGrid:None EditorOnly:0 RuntimeOnly:0 HLODRelevant:0 ListedInSceneOutliner:1 IsMainWorldOnly:1
 |   |   |- Guid:5ECC1FB44C600B1A9535F0B025A6E6FA BaseClass: NativeClass:/Script/Engine.StaticMeshActor Name:StaticMeshActor_1 Label:SM_Cube SpatiallyLoaded:1 Bounds:IsValid=true, Min=(X=0.000 Y=0.000 Z=-50.000), Max=(X=9300.000 Y=9300.000 Z=0.000) RuntimeGrid:None EditorOnly:0 RuntimeOnly:0 HLODRelevant:1 ListedInSceneOutliner:1 IsMainWorldOnly:0 FolderPath:Playground FolderGuid:C73F09FC4215536B1DCE2A9E0A830C70
 |   |   |- Guid:6B6248E142D39AB9847AA79A94971377 BaseClass: NativeClass:/Script/Engine.StaticMeshActor Name:StaticMeshActor_0 Label:SM_Cube5 SpatiallyLoaded:1 Bounds:IsValid=true, Min=(X=-0.000 Y=100.000 Z=0.000), Max=(X=100.000 Y=9300.000 Z=400.000) RuntimeGrid:None EditorOnly:0 RuntimeOnly:0 HLODRelevant:1 ListedInSceneOutliner:1 IsMainWorldOnly:0 FolderPath:Playground FolderGuid:C73F09FC4215536B1DCE2A9E0A830C70
 |   |   |- Guid:762A0C424CBDDC39AA7FAAA9BD608497 BaseClass: NativeClass:/Script/NavigationSystem.NavMeshBoundsVolume Name:NavMeshBoundsVolume_UAID_04421AEA3B5E1BC601_1666063002 Label:NavMeshBoundsVolume SpatiallyLoaded:0 Bounds:IsValid=true, Min=(X=-335.000 Y=-470.000 Z=-100.000), Max=(X=9345.000 Y=9670.000 Z=100.000) RuntimeGrid:None EditorOnly:0 RuntimeOnly:0 HLODRelevant:0 ListedInSceneOutliner:1 IsMainWorldOnly:0
 |   |   |- Guid:86F979B542105F58A465B195273065EE BaseClass: NativeClass:/Script/Engine.StaticMeshActor Name:StaticMeshActor_UAID_04421AEA3B5EA8C701_1803497871 Label:SM_Cube3 SpatiallyLoaded:1 Bounds:IsValid=true, Min=(X=100.000 Y=9200.000 Z=0.000), Max=(X=9300.000 Y=9300.000 Z=400.000) RuntimeGrid:None EditorOnly:0 RuntimeOnly:0 HLODRelevant:1 ListedInSceneOutliner:1 IsMainWorldOnly:0 FolderPath:Playground FolderGuid:C73F09FC4215536B1DCE2A9E0A830C70
 |   |   |- Guid:900A0F6D463FCA26D3945EB0D51DC82A BaseClass: NativeClass:/Script/NavigationSystem.RecastNavMesh Name:RecastNavMesh_UAID_04421AEA3B5E1BC601-Default Label:RecastNavMesh-Default SpatiallyLoaded:0 Bounds:IsValid=true, Min=(X=0.000 Y=0.000 Z=0.000), Max=(X=0.000 Y=0.000 Z=0.000) RuntimeGrid:None EditorOnly:0 RuntimeOnly:0 HLODRelevant:0 ListedInSceneOutliner:1 IsMainWorldOnly:0
 |   |   |- Guid:A0BD5C1B414BBB01E6B0FE9E30C07FBF BaseClass: NativeClass:/Script/Engine.PostProcessVolume Name:PostProcessVolume_0 Label:PostProcessVolume SpatiallyLoaded:0 Bounds:IsValid=true, Min=(X=0.000 Y=0.000 Z=400.000), Max=(X=200.000 Y=200.000 Z=600.000) RuntimeGrid:None EditorOnly:0 RuntimeOnly:0 HLODRelevant:0 ListedInSceneOutliner:1 IsMainWorldOnly:0 FolderPath:Lighting FolderGuid:963EC3EB4002CCE9759E2EBA541A873A
 |   |   |- Guid:AC69FACE4FFEB78C4006B298E15E9252 BaseClass: NativeClass:/Script/Engine.SkyAtmosphere Name:SkyAtmosphere_0 Label:SkyAtmosphere SpatiallyLoaded:0 Bounds:IsValid=true, Min=(X=0.000 Y=0.000 Z=1020.000), Max=(X=0.000 Y=0.000 Z=1020.000) RuntimeGrid:None EditorOnly:0 RuntimeOnly:0 HLODRelevant:0 ListedInSceneOutliner:1 IsMainWorldOnly:0 FolderPath:Lighting FolderGuid:963EC3EB4002CCE9759E2EBA541A873A
 |   |   |- Guid:B6CFB1224548835D82F192A71E962536 BaseClass: NativeClass:/Script/Engine.DirectionalLight Name:DirectionalLight_0 Label:DirectionalLight SpatiallyLoaded:0 Bounds:IsValid=true, Min=(X=-4398046511104.000 Y=-4398046511104.000 Z=-4398046511104.000), Max=(X=4398046511104.000 Y=4398046511104.000 Z=4398046511104.000) RuntimeGrid:None EditorOnly:0 RuntimeOnly:0 HLODRelevant:0 ListedInSceneOutliner:1 IsMainWorldOnly:0 FolderPath:Lighting FolderGuid:963EC3EB4002CCE9759E2EBA541A873A
 |   |   |- Guid:BAC876924ABD5346D3C92EA955431D97 BaseClass:/Game/Blueprints/Fish/BP_OrcinusTest.BP_OrcinusTest_C NativeClass:/Script/Engine.Character Name:BP_OrcinusTest_C_UAID_581122D0578578C701_1496502428 Label:BP_OrcinusTest SpatiallyLoaded:1 Bounds:IsValid=true, Min=(X=3116.920 Y=2943.081 Z=954.599), Max=(X=4148.213 Y=3446.919 Z=1485.695) RuntimeGrid:None EditorOnly:0 RuntimeOnly:0 HLODRelevant:0 ListedInSceneOutliner:1 IsMainWorldOnly:0
 |   |   |- Guid:CC740C3A40133A0745109694BEE54483 BaseClass: NativeClass:/Script/NavigationSystem.NavModifierVolume Name:NavModifierVolume_UAID_04421AEA3B5E1BC601_1620988001 Label:NavModifierVolume SpatiallyLoaded:1 Bounds:IsValid=true, Min=(X=2140.000 Y=2765.000 Z=-220.000), Max=(X=4460.000 Y=4985.000 Z=420.000) RuntimeGrid:None EditorOnly:0 RuntimeOnly:0 HLODRelevant:0 ListedInSceneOutliner:1 IsMainWorldOnly:0
 |   |   |- Guid:CFA90B4C410D60FD954E45BC564572EF BaseClass: NativeClass:/Script/Engine.TextRenderActor Name:TextRenderActor_1 Label:TextRenderActor SpatiallyLoaded:1 Bounds:IsValid=true, Min=(X=-0.100 Y=1100.000 Z=65.013), Max=(X=-0.100 Y=2392.308 Z=215.013) RuntimeGrid:None EditorOnly:0 RuntimeOnly:0 HLODRelevant:0 ListedInSceneOutliner:1 IsMainWorldOnly:0
 |   |   |- Guid:D2004D2E4473669FAB785FA9B731CA54 BaseClass: NativeClass:/Script/Engine.SkyLight Name:SkyLight_1 Label:SkyLight SpatiallyLoaded:0 Bounds:IsValid=true, Min=(X=0.000 Y=0.000 Z=690.000), Max=(X=0.000 Y=0.000 Z=690.000) RuntimeGrid:None EditorOnly:0 RuntimeOnly:0 HLODRelevant:0 ListedInSceneOutliner:1 IsMainWorldOnly:0 FolderPath:Lighting FolderGuid:963EC3EB4002CCE9759E2EBA541A873A
 |   |   |- Guid:E23124354B67D807BD70AAA7088E4741 BaseClass: NativeClass:/Script/Engine.StaticMeshActor Name:StaticMeshActor_4 Label:SM_Cube6 SpatiallyLoaded:1 Bounds:IsValid=true, Min=(X=9200.000 Y=0.000 Z=0.000), Max=(X=9300.000 Y=9200.000 Z=400.000) RuntimeGrid:None EditorOnly:0 RuntimeOnly:0 HLODRelevant:1 ListedInSceneOutliner:1 IsMainWorldOnly:0 FolderPath:Playground FolderGuid:C73F09FC4215536B1DCE2A9E0A830C70
 |   |   |- Guid:F4B9B84141E1235548FA24976FD4DBC4 BaseClass: NativeClass:/Script/Engine.PlayerStart Name:PlayerStart_0 Label:PlayerStart SpatiallyLoaded:0 Bounds:IsValid=true, Min=(X=910.000 Y=2400.000 Z=0.013), Max=(X=990.000 Y=2480.000 Z=184.013) RuntimeGrid:None EditorOnly:0 RuntimeOnly:0 HLODRelevant:0 ListedInSceneOutliner:1 IsMainWorldOnly:0
 |   |- [+] Clusters:
 |   |   |- [+] [  0]
 |   |   |   |- Guid:0F35580549E568313602C8A694B1C9A0 BaseClass: NativeClass:/Script/Engine.ExponentialHeightFog Name:ExponentialHeightFog_0 Label:ExponentialHeightFog SpatiallyLoaded:0 Bounds:IsValid=true, Min=(X=-5600.000 Y=-50.000 Z=-6850.000), Max=(X=-5600.000 Y=-50.000 Z=-6850.000) RuntimeGrid:None EditorOnly:0 RuntimeOnly:0 HLODRelevant:0 ListedInSceneOutliner:1 IsMainWorldOnly:0 FolderPath:Lighting FolderGuid:963EC3EB4002CCE9759E2EBA541A873A
 |   |   |- [+] [  1]
 |   |   |   |- Guid:25FB89324DF7BC79CF1B5CBA229A0797 BaseClass: NativeClass:/Script/Engine.VolumetricCloud Name:VolumetricCloud_0 Label:VolumetricCloud SpatiallyLoaded:0 Bounds:IsValid=true, Min=(X=0.000 Y=0.000 Z=820.000), Max=(X=0.000 Y=0.000 Z=820.000) RuntimeGrid:None EditorOnly:0 RuntimeOnly:0 HLODRelevant:0 ListedInSceneOutliner:1 IsMainWorldOnly:0 FolderPath:Lighting FolderGuid:963EC3EB4002CCE9759E2EBA541A873A
 |   |   |- [+] [  2]
 |   |   |   |- Guid:2DA1E32A46076423341D70BF1E775A50 BaseClass: NativeClass:/Script/Engine.StaticMeshActor Name:StaticMeshActor_UAID_A4AE111137DC5EFB00_1110535423 Label:SM_SkySphere SpatiallyLoaded:0 Bounds:IsValid=true, Min=(X=-1638400.000 Y=-1638400.000 Z=-1638400.000), Max=(X=1638400.000 Y=1638400.000 Z=1638400.000) RuntimeGrid:None EditorOnly:0 RuntimeOnly:0 HLODRelevant:1 ListedInSceneOutliner:1 IsMainWorldOnly:0 FolderPath:Lighting FolderGuid:963EC3EB4002CCE9759E2EBA541A873A
 |   |   |- [+] [  3]
 |   |   |   |- Guid:4179ADCC4E54A60DC7E78FA860E8BA1D BaseClass: NativeClass:/Script/Engine.StaticMeshActor Name:StaticMeshActor_5 Label:SM_Cube2 SpatiallyLoaded:1 Bounds:IsValid=true, Min=(X=0.000 Y=0.000 Z=0.000), Max=(X=9200.000 Y=100.000 Z=400.000) RuntimeGrid:None EditorOnly:0 RuntimeOnly:0 HLODRelevant:1 ListedInSceneOutliner:1 IsMainWorldOnly:0 FolderPath:Playground FolderGuid:C73F09FC4215536B1DCE2A9E0A830C70
 |   |   |- [+] [  4]
 |   |   |   |- Guid:5D654E1B4317EBAE7980F0AF53C1C038 BaseClass: NativeClass:/Script/Engine.WorldDataLayers Name:WorldDataLayers Label:WorldDataLayers SpatiallyLoaded:0 Bounds:Invalid RuntimeGrid:None EditorOnly:0 RuntimeOnly:0 HLODRelevant:0 ListedInSceneOutliner:1 IsMainWorldOnly:1
 |   |   |- [+] [  5]
 |   |   |   |- Guid:5ECC1FB44C600B1A9535F0B025A6E6FA BaseClass: NativeClass:/Script/Engine.StaticMeshActor Name:StaticMeshActor_1 Label:SM_Cube SpatiallyLoaded:1 Bounds:IsValid=true, Min=(X=0.000 Y=0.000 Z=-50.000), Max=(X=9300.000 Y=9300.000 Z=0.000) RuntimeGrid:None EditorOnly:0 RuntimeOnly:0 HLODRelevant:1 ListedInSceneOutliner:1 IsMainWorldOnly:0 FolderPath:Playground FolderGuid:C73F09FC4215536B1DCE2A9E0A830C70
 |   |   |- [+] [  6]
 |   |   |   |- Guid:6B6248E142D39AB9847AA79A94971377 BaseClass: NativeClass:/Script/Engine.StaticMeshActor Name:StaticMeshActor_0 Label:SM_Cube5 SpatiallyLoaded:1 Bounds:IsValid=true, Min=(X=-0.000 Y=100.000 Z=0.000), Max=(X=100.000 Y=9300.000 Z=400.000) RuntimeGrid:None EditorOnly:0 RuntimeOnly:0 HLODRelevant:1 ListedInSceneOutliner:1 IsMainWorldOnly:0 FolderPath:Playground FolderGuid:C73F09FC4215536B1DCE2A9E0A830C70
 |   |   |- [+] [  7]
 |   |   |   |- Guid:762A0C424CBDDC39AA7FAAA9BD608497 BaseClass: NativeClass:/Script/NavigationSystem.NavMeshBoundsVolume Name:NavMeshBoundsVolume_UAID_04421AEA3B5E1BC601_1666063002 Label:NavMeshBoundsVolume SpatiallyLoaded:0 Bounds:IsValid=true, Min=(X=-335.000 Y=-470.000 Z=-100.000), Max=(X=9345.000 Y=9670.000 Z=100.000) RuntimeGrid:None EditorOnly:0 RuntimeOnly:0 HLODRelevant:0 ListedInSceneOutliner:1 IsMainWorldOnly:0
 |   |   |- [+] [  8]
 |   |   |   |- Guid:86F979B542105F58A465B195273065EE BaseClass: NativeClass:/Script/Engine.StaticMeshActor Name:StaticMeshActor_UAID_04421AEA3B5EA8C701_1803497871 Label:SM_Cube3 SpatiallyLoaded:1 Bounds:IsValid=true, Min=(X=100.000 Y=9200.000 Z=0.000), Max=(X=9300.000 Y=9300.000 Z=400.000) RuntimeGrid:None EditorOnly:0 RuntimeOnly:0 HLODRelevant:1 ListedInSceneOutliner:1 IsMainWorldOnly:0 FolderPath:Playground FolderGuid:C73F09FC4215536B1DCE2A9E0A830C70
 |   |   |- [+] [  9]
 |   |   |   |- Guid:900A0F6D463FCA26D3945EB0D51DC82A BaseClass: NativeClass:/Script/NavigationSystem.RecastNavMesh Name:RecastNavMesh_UAID_04421AEA3B5E1BC601-Default Label:RecastNavMesh-Default SpatiallyLoaded:0 Bounds:IsValid=true, Min=(X=0.000 Y=0.000 Z=0.000), Max=(X=0.000 Y=0.000 Z=0.000) RuntimeGrid:None EditorOnly:0 RuntimeOnly:0 HLODRelevant:0 ListedInSceneOutliner:1 IsMainWorldOnly:0
 |   |   |- [+] [ 10]
 |   |   |   |- Guid:A0BD5C1B414BBB01E6B0FE9E30C07FBF BaseClass: NativeClass:/Script/Engine.PostProcessVolume Name:PostProcessVolume_0 Label:PostProcessVolume SpatiallyLoaded:0 Bounds:IsValid=true, Min=(X=0.000 Y=0.000 Z=400.000), Max=(X=200.000 Y=200.000 Z=600.000) RuntimeGrid:None EditorOnly:0 RuntimeOnly:0 HLODRelevant:0 ListedInSceneOutliner:1 IsMainWorldOnly:0 FolderPath:Lighting FolderGuid:963EC3EB4002CCE9759E2EBA541A873A
 |   |   |- [+] [ 11]
 |   |   |   |- Guid:AC69FACE4FFEB78C4006B298E15E9252 BaseClass: NativeClass:/Script/Engine.SkyAtmosphere Name:SkyAtmosphere_0 Label:SkyAtmosphere SpatiallyLoaded:0 Bounds:IsValid=true, Min=(X=0.000 Y=0.000 Z=1020.000), Max=(X=0.000 Y=0.000 Z=1020.000) RuntimeGrid:None EditorOnly:0 RuntimeOnly:0 HLODRelevant:0 ListedInSceneOutliner:1 IsMainWorldOnly:0 FolderPath:Lighting FolderGuid:963EC3EB4002CCE9759E2EBA541A873A
 |   |   |- [+] [ 12]
 |   |   |   |- Guid:B6CFB1224548835D82F192A71E962536 BaseClass: NativeClass:/Script/Engine.DirectionalLight Name:DirectionalLight_0 Label:DirectionalLight SpatiallyLoaded:0 Bounds:IsValid=true, Min=(X=-4398046511104.000 Y=-4398046511104.000 Z=-4398046511104.000), Max=(X=4398046511104.000 Y=4398046511104.000 Z=4398046511104.000) RuntimeGrid:None EditorOnly:0 RuntimeOnly:0 HLODRelevant:0 ListedInSceneOutliner:1 IsMainWorldOnly:0 FolderPath:Lighting FolderGuid:963EC3EB4002CCE9759E2EBA541A873A
 |   |   |- [+] [ 13]
 |   |   |   |- Guid:BAC876924ABD5346D3C92EA955431D97 BaseClass:/Game/Blueprints/Fish/BP_OrcinusTest.BP_OrcinusTest_C NativeClass:/Script/Engine.Character Name:BP_OrcinusTest_C_UAID_581122D0578578C701_1496502428 Label:BP_OrcinusTest SpatiallyLoaded:1 Bounds:IsValid=true, Min=(X=3116.920 Y=2943.081 Z=954.599), Max=(X=4148.213 Y=3446.919 Z=1485.695) RuntimeGrid:None EditorOnly:0 RuntimeOnly:0 HLODRelevant:0 ListedInSceneOutliner:1 IsMainWorldOnly:0
 |   |   |- [+] [ 14]
 |   |   |   |- Guid:CC740C3A40133A0745109694BEE54483 BaseClass: NativeClass:/Script/NavigationSystem.NavModifierVolume Name:NavModifierVolume_UAID_04421AEA3B5E1BC601_1620988001 Label:NavModifierVolume SpatiallyLoaded:1 Bounds:IsValid=true, Min=(X=2140.000 Y=2765.000 Z=-220.000), Max=(X=4460.000 Y=4985.000 Z=420.000) RuntimeGrid:None EditorOnly:0 RuntimeOnly:0 HLODRelevant:0 ListedInSceneOutliner:1 IsMainWorldOnly:0
 |   |   |- [+] [ 15]
 |   |   |   |- Guid:CFA90B4C410D60FD954E45BC564572EF BaseClass: NativeClass:/Script/Engine.TextRenderActor Name:TextRenderActor_1 Label:TextRenderActor SpatiallyLoaded:1 Bounds:IsValid=true, Min=(X=-0.100 Y=1100.000 Z=65.013), Max=(X=-0.100 Y=2392.308 Z=215.013) RuntimeGrid:None EditorOnly:0 RuntimeOnly:0 HLODRelevant:0 ListedInSceneOutliner:1 IsMainWorldOnly:0
 |   |   |- [+] [ 16]
 |   |   |   |- Guid:D2004D2E4473669FAB785FA9B731CA54 BaseClass: NativeClass:/Script/Engine.SkyLight Name:SkyLight_1 Label:SkyLight SpatiallyLoaded:0 Bounds:IsValid=true, Min=(X=0.000 Y=0.000 Z=690.000), Max=(X=0.000 Y=0.000 Z=690.000) RuntimeGrid:None EditorOnly:0 RuntimeOnly:0 HLODRelevant:0 ListedInSceneOutliner:1 IsMainWorldOnly:0 FolderPath:Lighting FolderGuid:963EC3EB4002CCE9759E2EBA541A873A
 |   |   |- [+] [ 17]
 |   |   |   |- Guid:E23124354B67D807BD70AAA7088E4741 BaseClass: NativeClass:/Script/Engine.StaticMeshActor Name:StaticMeshActor_4 Label:SM_Cube6 SpatiallyLoaded:1 Bounds:IsValid=true, Min=(X=9200.000 Y=0.000 Z=0.000), Max=(X=9300.000 Y=9200.000 Z=400.000) RuntimeGrid:None EditorOnly:0 RuntimeOnly:0 HLODRelevant:1 ListedInSceneOutliner:1 IsMainWorldOnly:0 FolderPath:Playground FolderGuid:C73F09FC4215536B1DCE2A9E0A830C70
 |   |   |- [+] [ 18]
 |   |   |   |- Guid:F4B9B84141E1235548FA24976FD4DBC4 BaseClass: NativeClass:/Script/Engine.PlayerStart Name:PlayerStart_0 Label:PlayerStart SpatiallyLoaded:0 Bounds:IsValid=true, Min=(X=910.000 Y=2400.000 Z=0.013), Max=(X=990.000 Y=2480.000 Z=184.013) RuntimeGrid:None EditorOnly:0 RuntimeOnly:0 HLODRelevant:0 ListedInSceneOutliner:1 IsMainWorldOnly:0
 |- ContainerInstances:
 |- [+] MainContainer:
 |   |-        ID: 00000000000000000000000000000000
 |   |-  ParentID: 00000000000000000000000000000000
 |   |-    Bounds: IsValid=false, Min=(X=0.000 Y=0.000 Z=0.000), Max=(X=0.000 Y=0.000 Z=0.000)
 |   |- Transform: 0.000000,0.000000,0.000000|0.000000,0.000000,-0.000000|1.000000,1.000000,1.000000
 |   |- Container: /Game/Scenes/MapaTestAI
----------------------------------------------------------------------------------------------------------------
MapaTestAI - Persistent Level
----------------------------------------------------------------------------------------------------------------
[+] Content of MapaTestAI Persistent Level
 |- Always loaded Actor Count: 26 
 |- Actor Path: /Game/Scenes/MapaTestAI.MapaTestAI:PersistentLevel.AbstractNavData-Default
 |- Actor Package: /Game/Scenes/MapaTestAI
 |- Actor Path: /Game/Scenes/MapaTestAI.MapaTestAI:PersistentLevel.BP_OrcinusTest_C_UAID_581122D0578578C701_1496502428
 |- Actor Package: /Game/__ExternalActors__/Scenes/MapaTestAI/7/IT/JB83B0QA6Z3WDG69ZEW15E
 |- Actor Path: /Game/Scenes/MapaTestAI.MapaTestAI:PersistentLevel.Brush_0
 |- Actor Package: /Game/Scenes/MapaTestAI
 |- Actor Path: /Game/Scenes/MapaTestAI.MapaTestAI:PersistentLevel.DefaultPhysicsVolume_0
 |- Actor Package: /Game/Scenes/MapaTestAI
 |- Actor Path: /Game/Scenes/MapaTestAI.MapaTestAI:PersistentLevel.DirectionalLight_0
 |- Actor Package: /Game/__ExternalActors__/Scenes/MapaTestAI/C/PZ/QU6HUW8I6S52O8ND8B678G
 |- Actor Path: /Game/Scenes/MapaTestAI.MapaTestAI:PersistentLevel.ExponentialHeightFog_0
 |- Actor Package: /Game/__ExternalActors__/Scenes/MapaTestAI/4/XX/NV5964EOYBU8CF0LSWQJDK
 |- Actor Path: /Game/Scenes/MapaTestAI.MapaTestAI:PersistentLevel.GameplayDebuggerPlayerManager_0
 |- Actor Package: /Game/Scenes/MapaTestAI
 |- Actor Path: /Game/Scenes/MapaTestAI.MapaTestAI:PersistentLevel.MapaTestAI_C_0
 |- Actor Package: /Game/Scenes/MapaTestAI
 |- Actor Path: /Game/Scenes/MapaTestAI.MapaTestAI:PersistentLevel.NavMeshBoundsVolume_UAID_04421AEA3B5E1BC601_1666063002
 |- Actor Package: /Game/__ExternalActors__/Scenes/MapaTestAI/C/MA/AI4NXCRZ4L3X9H0ZYJMZ8U
 |- Actor Path: /Game/Scenes/MapaTestAI.MapaTestAI:PersistentLevel.NavModifierVolume_UAID_04421AEA3B5E1BC601_1620988001
 |- Actor Package: /Game/__ExternalActors__/Scenes/MapaTestAI/A/HG/H1WOYVI5G12M1PIKEQSH1L
 |- Actor Path: /Game/Scenes/MapaTestAI.MapaTestAI:PersistentLevel.PlayerStart_0
 |- Actor Package: /Game/__ExternalActors__/Scenes/MapaTestAI/5/6D/XCU86YZXHGX1NMRBLZCAJV
 |- Actor Path: /Game/Scenes/MapaTestAI.MapaTestAI:PersistentLevel.PostProcessVolume_0
 |- Actor Package: /Game/__ExternalActors__/Scenes/MapaTestAI/4/0K/Y50PFWVWM3IM3J35NTTEGW
 |- Actor Path: /Game/Scenes/MapaTestAI.MapaTestAI:PersistentLevel.RecastNavMesh_UAID_04421AEA3B5E1BC601-Default
 |- Actor Package: /Game/__ExternalActors__/Scenes/MapaTestAI/D/EC/0YZJUWWEA2KE2ICGQ6IATI
 |- Actor Path: /Game/Scenes/MapaTestAI.MapaTestAI:PersistentLevel.SkyAtmosphere_0
 |- Actor Package: /Game/__ExternalActors__/Scenes/MapaTestAI/6/S9/Q6L6BNMD98YE2BG4LSO1PM
 |- Actor Path: /Game/Scenes/MapaTestAI.MapaTestAI:PersistentLevel.SkyLight_1
 |- Actor Package: /Game/__ExternalActors__/Scenes/MapaTestAI/A/MO/BFV3UCO39UGDO7B63319BB
 |- Actor Path: /Game/Scenes/MapaTestAI.MapaTestAI:PersistentLevel.StaticMeshActor_0
 |- Actor Package: /Game/__ExternalActors__/Scenes/MapaTestAI/4/VZ/S8GFYF45Q5VAJDE7NS67I1
 |- Actor Path: /Game/Scenes/MapaTestAI.MapaTestAI:PersistentLevel.StaticMeshActor_1
 |- Actor Package: /Game/__ExternalActors__/Scenes/MapaTestAI/3/VX/8NUYL88RMG7O64PN56RQKX
 |- Actor Path: /Game/Scenes/MapaTestAI.MapaTestAI:PersistentLevel.StaticMeshActor_4
 |- Actor Package: /Game/__ExternalActors__/Scenes/MapaTestAI/1/BC/EXNFG1TI722HELTCQGPAIV
 |- Actor Path: /Game/Scenes/MapaTestAI.MapaTestAI:PersistentLevel.StaticMeshActor_5
 |- Actor Package: /Game/__ExternalActors__/Scenes/MapaTestAI/D/OC/3ZIQVSTB28Z8RUU2XQV7JP
 |- Actor Path: /Game/Scenes/MapaTestAI.MapaTestAI:PersistentLevel.StaticMeshActor_UAID_04421AEA3B5EA8C701_1803497871
 |- Actor Package: /Game/__ExternalActors__/Scenes/MapaTestAI/8/EZ/SFY4UIMYGRO72N47RK4YKT
 |- Actor Path: /Game/Scenes/MapaTestAI.MapaTestAI:PersistentLevel.StaticMeshActor_UAID_A4AE111137DC5EFB00_1110535423
 |- Actor Package: /Game/__ExternalActors__/Scenes/MapaTestAI/2/IP/02M0CLRQ3IW7BIL3YJZ3JA
 |- Actor Path: /Game/Scenes/MapaTestAI.MapaTestAI:PersistentLevel.TextRenderActor_1
 |- Actor Package: /Game/__ExternalActors__/Scenes/MapaTestAI/9/JF/KN8PURL0VC4422KSZ7X6Q4
 |- Actor Path: /Game/Scenes/MapaTestAI.MapaTestAI:PersistentLevel.VolumetricCloud_0
 |- Actor Package: /Game/__ExternalActors__/Scenes/MapaTestAI/8/9X/A71XLO7ZZG6RMB9PHTL6FE
 |- Actor Path: /Game/Scenes/MapaTestAI.MapaTestAI:PersistentLevel.WorldDataLayers
 |- Actor Package: /Game/__ExternalActors__/Scenes/MapaTestAI/1/FU/CGADM62YHG544XLUP4TXV8
 |- Actor Path: /Game/Scenes/MapaTestAI.MapaTestAI:PersistentLevel.WorldInfo_0
 |- Actor Package: /Game/Scenes/MapaTestAI
 |- Actor Path: /Game/Scenes/MapaTestAI.MapaTestAI:PersistentLevel.WorldPartitionMiniMap_0
 |- Actor Package: /Game/__ExternalActors__/Scenes/MapaTestAI/2/CY/V41SS9P42WERDIU34CELLM

----------------------------------------------------------------------------------------------------------------
MapaTestAI - Runtime Spatial Hash - Streaming Grid - MainGrid
----------------------------------------------------------------------------------------------------------------
            Origin: X=0.000 Y=0.000 Z=0.000
         Cell Size: 12800
      World Bounds: IsValid=false, Min=(X=0.000 Y=0.000 Z=0.000), Max=(X=0.000 Y=0.000 Z=0.000)
     Loading Range: 25600.00
Block Slow Loading: No
 ClientOnlyVisible: No
            Origin: X=0.000 Y=0.000 Z=0.000

[+] Grid Levels: 1
 |- Level  0: Cell Count    0 | Cell Size   12800 | Actor Count    0 (0.0%)

[+] Content of Grid Level 0

