[+] Containers:
 |- [+] Container: /Game/Scenes/Mapapuzle
 |   |- [+] ActorDescs:
 |   |   |- Guid:026A69A84D05331E13397B855AC173FC BaseClass:/Game/Blueprints/BP_BotonMano.BP_BotonMano_C NativeClass:/Script/Engine.Actor Name:BP_BotonMano_C_UAID_04421AEA3B5EAFB601_1316598151 Label:BP_BotonMano SpatiallyLoaded:1 Bounds:IsValid=true, Min=(X=2415.000 Y=6865.000 Z=-80.000), Max=(X=2575.000 Y=7143.400 Z=103.000) RuntimeGrid:None EditorOnly:0 RuntimeOnly:0 HLODRelevant:0 ListedInSceneOutliner:1 IsMainWorldOnly:0
 |   |   |- Guid:030882E54241920B2A2F769F17F5A1E9 BaseClass: NativeClass:/Script/Engine.SkyAtmosphere Name:SkyAtmosphere_0 Label:SkyAtmosphere SpatiallyLoaded:0 Bounds:IsValid=true, Min=(X=0.000 Y=0.000 Z=1020.000), Max=(X=0.000 Y=0.000 Z=1020.000) RuntimeGrid:None EditorOnly:0 RuntimeOnly:0 HLODRelevant:0 ListedInSceneOutliner:1 IsMainWorldOnly:0 FolderPath:Lighting FolderGuid:963EC3EB4002CCE9759E2EBA541A873A
 |   |   |- Guid:039B64B643BD106AC7525C9FF450BBE4 BaseClass:/Game/Blueprints/BP_Boton.BP_Boton_C NativeClass:/Script/Engine.Actor Name:BP_Boton_C_UAID_04421AEA3B5E7DB401_1627592241 Label:BP_Boton3 SpatiallyLoaded:1 Bounds:IsValid=true, Min=(X=1390.000 Y=3170.000 Z=-1.250), Max=(X=1490.000 Y=3270.000 Z=72.000) RuntimeGrid:None EditorOnly:0 RuntimeOnly:0 HLODRelevant:0 ListedInSceneOutliner:1 IsMainWorldOnly:0
 |   |   |- Guid:07C7B6ED488D2C14FC0C5ABD00C73C39 BaseClass: NativeClass:/Script/Engine.StaticMeshActor Name:StaticMeshActor_6 Label:SM_Cube3 SpatiallyLoaded:1 Bounds:IsValid=true, Min=(X=0.000 Y=3400.000 Z=0.000), Max=(X=1500.000 Y=3500.000 Z=400.000) RuntimeGrid:None EditorOnly:0 RuntimeOnly:0 HLODRelevant:1 ListedInSceneOutliner:1 IsMainWorldOnly:0 FolderPath:Playground FolderGuid:C73F09FC4215536B1DCE2A9E0A830C70
 |   |   |- Guid:2179326A463DDB8155834AB88A6D6391 BaseClass:/Game/Blueprints/BP_BotonTintado.BP_BotonTintado_C NativeClass:/Script/Engine.Actor Name:BP_BotonTintado_C_UAID_04421AEA3B5E7FBF01_1194292214 Label:BP_BotonTintado3 SpatiallyLoaded:1 Bounds:IsValid=true, Min=(X=525.000 Y=5525.000 Z=-0.781), Max=(X=665.000 Y=5665.000 Z=67.000) RuntimeGrid:None EditorOnly:0 RuntimeOnly:0 HLODRelevant:0 ListedInSceneOutliner:1 IsMainWorldOnly:0
 |   |   |- Guid:2184F1094ACB5EE210EAF0951E23ACF1 BaseClass:/Game/Blueprints/BP_Tintator.BP_Tintator_C NativeClass:/Script/Engine.Actor Name:BP_Tintator_C_UAID_04421AEA3B5E4EBD01_2021016471 Label:BP_Tintator SpatiallyLoaded:1 Bounds:IsValid=true, Min=(X=2520.000 Y=4830.000 Z=-2.500), Max=(X=2680.000 Y=4990.000 Z=247.500) RuntimeGrid:None EditorOnly:0 RuntimeOnly:0 HLODRelevant:0 ListedInSceneOutliner:1 IsMainWorldOnly:0
 |   |   |- Guid:226B1D3A4E37C648A2694C9438CA7CE9 BaseClass:/Game/Blueprints/BP_Puerta.BP_Puerta_C NativeClass:/Script/Engine.Actor Name:BP_Puerta_C_UAID_04421AEA3B5E7EBF01_2058048034 Label:BP_Puerta2 SpatiallyLoaded:1 Bounds:IsValid=true, Min=(X=1319.000 Y=5025.000 Z=-128.000), Max=(X=2169.000 Y=5985.000 Z=528.000) RuntimeGrid:None EditorOnly:0 RuntimeOnly:0 HLODRelevant:0 ListedInSceneOutliner:1 IsMainWorldOnly:0
 |   |   |- Guid:2393F1214D9AAE614B236D98EBEF6627 BaseClass:/Game/Blueprints/BP_Tintator.BP_Tintator_C NativeClass:/Script/Engine.Actor Name:BP_Tintator_C_UAID_04421AEA3B5E7FBF01_1338490222 Label:BP_Tintator2 SpatiallyLoaded:1 Bounds:IsValid=true, Min=(X=2520.000 Y=5430.000 Z=-2.500), Max=(X=2680.000 Y=5590.000 Z=247.500) RuntimeGrid:None EditorOnly:0 RuntimeOnly:0 HLODRelevant:0 ListedInSceneOutliner:1 IsMainWorldOnly:0
 |   |   |- Guid:24145E7C49CCFA4EB5A2B4A45B0E7AC6 BaseClass: NativeClass:/Script/Engine.TextRenderActor Name:TextRenderActor_1 Label:TextRenderActor SpatiallyLoaded:1 Bounds:IsValid=true, Min=(X=-0.100 Y=1100.000 Z=65.013), Max=(X=-0.100 Y=2392.308 Z=215.013) RuntimeGrid:None EditorOnly:0 RuntimeOnly:0 HLODRelevant:0 ListedInSceneOutliner:1 IsMainWorldOnly:0
 |   |   |- Guid:264D621148DD7EAFEA7CDD9433ADDF4C BaseClass: NativeClass:/Script/Engine.StaticMeshActor Name:StaticMeshActor_5 Label:SM_Cube2 SpatiallyLoaded:1 Bounds:IsValid=true, Min=(X=0.000 Y=0.000 Z=0.000), Max=(X=3000.000 Y=100.000 Z=400.000) RuntimeGrid:None EditorOnly:0 RuntimeOnly:0 HLODRelevant:1 ListedInSceneOutliner:1 IsMainWorldOnly:0 FolderPath:Playground FolderGuid:C73F09FC4215536B1DCE2A9E0A830C70
 |   |   |- Guid:2A753CA7447A99E35CA553AC70D57E6C BaseClass: NativeClass:/Script/Engine.WorldDataLayers Name:WorldDataLayers Label:WorldDataLayers SpatiallyLoaded:0 Bounds:Invalid RuntimeGrid:None EditorOnly:0 RuntimeOnly:0 HLODRelevant:0 ListedInSceneOutliner:1 IsMainWorldOnly:1
 |   |   |- Guid:44C2D2584BA0112751E50C9B675D8E9A BaseClass: NativeClass:/Script/Engine.VolumetricCloud Name:VolumetricCloud_0 Label:VolumetricCloud SpatiallyLoaded:0 Bounds:IsValid=true, Min=(X=0.000 Y=0.000 Z=820.000), Max=(X=0.000 Y=0.000 Z=820.000) RuntimeGrid:None EditorOnly:0 RuntimeOnly:0 HLODRelevant:0 ListedInSceneOutliner:1 IsMainWorldOnly:0 FolderPath:Lighting FolderGuid:963EC3EB4002CCE9759E2EBA541A873A
 |   |   |- Guid:5D19A6204E5779DA95861F8A9C2453B7 BaseClass: NativeClass:/Script/Engine.StaticMeshActor Name:StaticMeshActor_UAID_04421AEA3B5E7EBF01_2038289032 Label:SM_Cube15 SpatiallyLoaded:1 Bounds:IsValid=true, Min=(X=1800.000 Y=5810.000 Z=0.000), Max=(X=3000.000 Y=5910.000 Z=400.000) RuntimeGrid:None EditorOnly:0 RuntimeOnly:0 HLODRelevant:1 ListedInSceneOutliner:1 IsMainWorldOnly:0 FolderPath:Playground FolderGuid:C73F09FC4215536B1DCE2A9E0A830C70
 |   |   |- Guid:61DCB5FB493A509E6F74F9A12092DE4F BaseClass: NativeClass:/Script/Engine.StaticMeshActor Name:StaticMeshActor_UAID_A4AE111137DC5EFB00_1110535423 Label:SM_SkySphere SpatiallyLoaded:0 Bounds:IsValid=true, Min=(X=-1638400.000 Y=-1638400.000 Z=-1638400.000), Max=(X=1638400.000 Y=1638400.000 Z=1638400.000) RuntimeGrid:None EditorOnly:0 RuntimeOnly:0 HLODRelevant:1 ListedInSceneOutliner:1 IsMainWorldOnly:0 FolderPath:Lighting FolderGuid:963EC3EB4002CCE9759E2EBA541A873A
 |   |   |- Guid:677999FF40B4050CF8F870A68EA04735 BaseClass: NativeClass:/Script/Engine.DirectionalLight Name:DirectionalLight_0 Label:DirectionalLight SpatiallyLoaded:0 Bounds:IsValid=true, Min=(X=-4398046511104.000 Y=-4398046511104.000 Z=-4398046511104.000), Max=(X=4398046511104.000 Y=4398046511104.000 Z=4398046511104.000) RuntimeGrid:None EditorOnly:0 RuntimeOnly:0 HLODRelevant:0 ListedInSceneOutliner:1 IsMainWorldOnly:0 FolderPath:Lighting FolderGuid:963EC3EB4002CCE9759E2EBA541A873A
 |   |   |- Guid:67FB186B40B1A7E668CEE9885751CC47 BaseClass:/Game/Blueprints/BP_Puerta.BP_Puerta_C NativeClass:/Script/Engine.Actor Name:BP_Puerta_C_UAID_04421AEA3B5E7FBF01_1145833212 Label:BP_Puerta3 SpatiallyLoaded:1 Bounds:IsValid=true, Min=(X=1020.000 Y=5029.000 Z=-128.000), Max=(X=1980.000 Y=5879.000 Z=528.000) RuntimeGrid:None EditorOnly:0 RuntimeOnly:0 HLODRelevant:0 ListedInSceneOutliner:1 IsMainWorldOnly:0
 |   |   |- Guid:7178BAAE401C2B7248156FB05C90C068 BaseClass:/Game/Blueprints/BP_Puerta.BP_Puerta_C NativeClass:/Script/Engine.Actor Name:BP_Puerta_C_UAID_04421AEA3B5E7FBF01_1303802219 Label:BP_Puerta4 SpatiallyLoaded:1 Bounds:IsValid=true, Min=(X=1020.000 Y=7489.000 Z=-128.000), Max=(X=1980.000 Y=8339.000 Z=528.000) RuntimeGrid:None EditorOnly:0 RuntimeOnly:0 HLODRelevant:0 ListedInSceneOutliner:1 IsMainWorldOnly:0
 |   |   |- Guid:71CE009945C273D5330A7C9599105DAB BaseClass: NativeClass:/Script/Engine.StaticMeshActor Name:StaticMeshActor_UAID_04421AEA3B5E7FBF01_1297655217 Label:SM_Cube17 SpatiallyLoaded:1 Bounds:IsValid=true, Min=(X=1800.000 Y=8280.000 Z=0.000), Max=(X=3000.000 Y=8380.000 Z=400.000) RuntimeGrid:None EditorOnly:0 RuntimeOnly:0 HLODRelevant:1 ListedInSceneOutliner:1 IsMainWorldOnly:0 FolderPath:Playground FolderGuid:C73F09FC4215536B1DCE2A9E0A830C70
 |   |   |- Guid:73A57E244DAA7CE975836D9D2492BF68 BaseClass:/Game/Blueprints/BP_Boton.BP_Boton_C NativeClass:/Script/Engine.Actor Name:BP_Boton_C_UAID_04421AEA3B5E7FBF01_1322418221 Label:BP_Boton6 SpatiallyLoaded:1 Bounds:IsValid=true, Min=(X=1845.000 Y=8050.000 Z=-1.250), Max=(X=1945.000 Y=8150.000 Z=72.000) RuntimeGrid:None EditorOnly:0 RuntimeOnly:0 HLODRelevant:0 ListedInSceneOutliner:1 IsMainWorldOnly:0
 |   |   |- Guid:7D1FCD984C73E7D1A9E9C6B157761E2D BaseClass: NativeClass:/Script/Engine.StaticMeshActor Name:StaticMeshActor_0 Label:SM_Cube5 SpatiallyLoaded:1 Bounds:IsValid=true, Min=(X=-0.000 Y=100.000 Z=0.000), Max=(X=100.000 Y=9250.000 Z=400.000) RuntimeGrid:None EditorOnly:0 RuntimeOnly:0 HLODRelevant:1 ListedInSceneOutliner:1 IsMainWorldOnly:0 FolderPath:Playground FolderGuid:C73F09FC4215536B1DCE2A9E0A830C70
 |   |   |- Guid:7E3BBBCB4D2E7A71FE262FA9C7A559DB BaseClass: NativeClass:/Script/Engine.StaticMeshActor Name:StaticMeshActor_UAID_04421AEA3B5E7FBF01_1114921211 Label:SM_Cube16 SpatiallyLoaded:1 Bounds:IsValid=true, Min=(X=2100.000 Y=5100.000 Z=0.000), Max=(X=3000.000 Y=5200.000 Z=400.000) RuntimeGrid:None EditorOnly:0 RuntimeOnly:0 HLODRelevant:1 ListedInSceneOutliner:1 IsMainWorldOnly:0 FolderPath:Playground FolderGuid:C73F09FC4215536B1DCE2A9E0A830C70
 |   |   |- Guid:8C98D73C49FE69610812C8B262FB6168 BaseClass: NativeClass:/Script/Engine.SkyLight Name:SkyLight_1 Label:SkyLight SpatiallyLoaded:0 Bounds:IsValid=true, Min=(X=0.000 Y=0.000 Z=690.000), Max=(X=0.000 Y=0.000 Z=690.000) RuntimeGrid:None EditorOnly:0 RuntimeOnly:0 HLODRelevant:0 ListedInSceneOutliner:1 IsMainWorldOnly:0 FolderPath:Lighting FolderGuid:963EC3EB4002CCE9759E2EBA541A873A
 |   |   |- Guid:968F9AA6474A0884B560B49FCED1D830 BaseClass:/Game/Blueprints/BP_Cubito.BP_Cubito_C NativeClass:/Script/Engine.StaticMeshActor Name:BP_Cubito_C_UAID_04421AEA3B5E81B401_1454935949 Label:BP_Cubito SpatiallyLoaded:1 Bounds:IsValid=true, Min=(X=1035.000 Y=4600.000 Z=0.013), Max=(X=1135.000 Y=4700.000 Z=100.013) RuntimeGrid:None EditorOnly:0 RuntimeOnly:0 HLODRelevant:0 ListedInSceneOutliner:1 IsMainWorldOnly:0
 |   |   |- Guid:96F9BFC94FA305D3B486B59748CC1D59 BaseClass: NativeClass:/Script/Engine.StaticMeshActor Name:StaticMeshActor_1 Label:SM_Cube SpatiallyLoaded:1 Bounds:IsValid=true, Min=(X=0.000 Y=0.000 Z=-50.000), Max=(X=3000.000 Y=9310.000 Z=0.000) RuntimeGrid:None EditorOnly:0 RuntimeOnly:0 HLODRelevant:1 ListedInSceneOutliner:1 IsMainWorldOnly:0 FolderPath:Playground FolderGuid:C73F09FC4215536B1DCE2A9E0A830C70
 |   |   |- Guid:A512AAE04DAFE3285FAF599344CB19EA BaseClass:/Game/Blueprints/BP_TrampaVelocidad.BP_TrampaVelocidad_C NativeClass:/Script/Engine.Actor Name:BP_TrampaVelocidad_C_UAID_04421AEA3B5E1BBB01_1542668383 Label:BP_TrampaVelocidad SpatiallyLoaded:1 Bounds:IsValid=true, Min=(X=1000.000 Y=1200.000 Z=0.050), Max=(X=1300.000 Y=1500.000 Z=67.050) RuntimeGrid:None EditorOnly:0 RuntimeOnly:0 HLODRelevant:0 ListedInSceneOutliner:1 IsMainWorldOnly:0
 |   |   |- Guid:A796C42A4DB92CAEE36301B2320B3615 BaseClass:/Game/Blueprints/BP_Boton.BP_Boton_C NativeClass:/Script/Engine.Actor Name:BP_Boton_C_UAID_04421AEA3B5E7FBF01_1209838215 Label:BP_Boton4 SpatiallyLoaded:1 Bounds:IsValid=true, Min=(X=2150.000 Y=4900.000 Z=-1.250), Max=(X=2250.000 Y=5000.000 Z=72.000) RuntimeGrid:None EditorOnly:0 RuntimeOnly:0 HLODRelevant:0 ListedInSceneOutliner:1 IsMainWorldOnly:0
 |   |   |- Guid:AAC2377D4DC31741356057A1B4692B15 BaseClass: NativeClass:/Script/Engine.PostProcessVolume Name:PostProcessVolume_0 Label:PostProcessVolume SpatiallyLoaded:0 Bounds:IsValid=true, Min=(X=0.000 Y=0.000 Z=400.000), Max=(X=200.000 Y=200.000 Z=600.000) RuntimeGrid:None EditorOnly:0 RuntimeOnly:0 HLODRelevant:0 ListedInSceneOutliner:1 IsMainWorldOnly:0 FolderPath:Lighting FolderGuid:963EC3EB4002CCE9759E2EBA541A873A
 |   |   |- Guid:B08F7C974F8D7711BA68FD853DC8BF62 BaseClass: NativeClass:/Script/Engine.StaticMeshActor Name:StaticMeshActor_UAID_04421AEA3B5E7EBF01_2051333033 Label:SM_Cube4 SpatiallyLoaded:1 Bounds:IsValid=true, Min=(X=0.000 Y=5810.000 Z=0.000), Max=(X=1200.000 Y=5910.000 Z=400.000) RuntimeGrid:None EditorOnly:0 RuntimeOnly:0 HLODRelevant:1 ListedInSceneOutliner:1 IsMainWorldOnly:0 FolderPath:Playground FolderGuid:C73F09FC4215536B1DCE2A9E0A830C70
 |   |   |- Guid:BC9D92584370C47A23837A87CD04B890 BaseClass: NativeClass:/Script/Engine.StaticMeshActor Name:StaticMeshActor_UAID_04421AEA3B5E16B001_1833886887 Label:SM_Cube14 SpatiallyLoaded:1 Bounds:IsValid=true, Min=(X=2100.000 Y=3400.000 Z=0.000), Max=(X=3000.000 Y=3500.000 Z=400.000) RuntimeGrid:None EditorOnly:0 RuntimeOnly:0 HLODRelevant:1 ListedInSceneOutliner:1 IsMainWorldOnly:0 FolderPath:Playground FolderGuid:C73F09FC4215536B1DCE2A9E0A830C70
 |   |   |- Guid:C3A344DB4B2F4384FEF26DBAF96FE35D BaseClass:/Game/Blueprints/BP_Dispensador.BP_Dispensador_C NativeClass:/Script/Engine.Actor Name:BP_Dispensador_C_UAID_04421AEA3B5E7FBF01_1263108216 Label:BP_Dispensador SpatiallyLoaded:1 Bounds:IsValid=true, Min=(X=1960.000 Y=7340.000 Z=660.000), Max=(X=2325.000 Y=7590.000 Z=820.000) RuntimeGrid:None EditorOnly:0 RuntimeOnly:0 HLODRelevant:0 ListedInSceneOutliner:1 IsMainWorldOnly:0
 |   |   |- Guid:C565E1054EA3313A342FEDBE3CE85529 BaseClass: NativeClass:/Script/Engine.ExponentialHeightFog Name:ExponentialHeightFog_0 Label:ExponentialHeightFog SpatiallyLoaded:0 Bounds:IsValid=true, Min=(X=-5600.000 Y=-50.000 Z=-6850.000), Max=(X=-5600.000 Y=-50.000 Z=-6850.000) RuntimeGrid:None EditorOnly:0 RuntimeOnly:0 HLODRelevant:0 ListedInSceneOutliner:1 IsMainWorldOnly:0 FolderPath:Lighting FolderGuid:963EC3EB4002CCE9759E2EBA541A873A
 |   |   |- Guid:CA064CED48BF1DC8569DA9BCD75A8274 BaseClass: NativeClass:/Script/Engine.StaticMeshActor Name:StaticMeshActor_UAID_04421AEA3B5E7FBF01_1297656218 Label:SM_Cube7 SpatiallyLoaded:1 Bounds:IsValid=true, Min=(X=0.000 Y=8280.000 Z=0.000), Max=(X=1200.000 Y=8380.000 Z=400.000) RuntimeGrid:None EditorOnly:0 RuntimeOnly:0 HLODRelevant:1 ListedInSceneOutliner:1 IsMainWorldOnly:0 FolderPath:Playground FolderGuid:C73F09FC4215536B1DCE2A9E0A830C70
 |   |   |- Guid:CD5EA5D541FD18632F8383A0DB7A277C BaseClass:/Game/Blueprints/BP_Puerta.BP_Puerta_C NativeClass:/Script/Engine.Actor Name:BP_Puerta_C_UAID_04421AEA3B5E7EB401_1956649418 Label:BP_Puerta SpatiallyLoaded:1 Bounds:IsValid=true, Min=(X=1320.000 Y=2634.000 Z=-128.000), Max=(X=2280.000 Y=3484.000 Z=528.000) RuntimeGrid:None EditorOnly:0 RuntimeOnly:0 HLODRelevant:0 ListedInSceneOutliner:1 IsMainWorldOnly:0
 |   |   |- Guid:D967312C420FE5771540119224ECBC31 BaseClass:/Game/Blueprints/BP_Boton.BP_Boton_C NativeClass:/Script/Engine.Actor Name:BP_Boton_C_UAID_04421AEA3B5E7FBF01_1314265220 Label:BP_Boton5 SpatiallyLoaded:1 Bounds:IsValid=true, Min=(X=1050.000 Y=8050.000 Z=-1.250), Max=(X=1150.000 Y=8150.000 Z=72.000) RuntimeGrid:None EditorOnly:0 RuntimeOnly:0 HLODRelevant:0 ListedInSceneOutliner:1 IsMainWorldOnly:0
 |   |   |- Guid:DE1D08C042B724BF23B835B0E6C80F2E BaseClass: NativeClass:/Script/Engine.PlayerStart Name:PlayerStart_0 Label:PlayerStart SpatiallyLoaded:0 Bounds:IsValid=true, Min=(X=910.000 Y=2400.000 Z=0.013), Max=(X=990.000 Y=2480.000 Z=184.013) RuntimeGrid:None EditorOnly:0 RuntimeOnly:0 HLODRelevant:0 ListedInSceneOutliner:1 IsMainWorldOnly:0
 |   |   |- Guid:DFA1F69D4DFCB0CFF296E09DAB6DD13B BaseClass:/Game/Blueprints/BP_BotonTintado.BP_BotonTintado_C NativeClass:/Script/Engine.Actor Name:BP_BotonTintado_C_UAID_04421AEA3B5E7CBF01_1546613679 Label:BP_BotonTintado SpatiallyLoaded:1 Bounds:IsValid=true, Min=(X=285.000 Y=1720.000 Z=-0.781), Max=(X=425.000 Y=1860.000 Z=67.000) RuntimeGrid:None EditorOnly:0 RuntimeOnly:0 HLODRelevant:0 ListedInSceneOutliner:1 IsMainWorldOnly:0
 |   |   |- Guid:F32182BC4032C0375022398208E4EE88 BaseClass:/Game/Blueprints/BP_BotonTintado.BP_BotonTintado_C NativeClass:/Script/Engine.Actor Name:BP_BotonTintado_C_UAID_04421AEA3B5E7FBF01_1190697213 Label:BP_BotonTintado2 SpatiallyLoaded:1 Bounds:IsValid=true, Min=(X=835.000 Y=5530.000 Z=-0.781), Max=(X=975.000 Y=5670.000 Z=67.000) RuntimeGrid:None EditorOnly:0 RuntimeOnly:0 HLODRelevant:0 ListedInSceneOutliner:1 IsMainWorldOnly:0
 |   |   |- Guid:FBD32A21442F095BF65034B52D1D1FEA BaseClass: NativeClass:/Script/Engine.StaticMeshActor Name:StaticMeshActor_4 Label:SM_Cube6 SpatiallyLoaded:1 Bounds:IsValid=true, Min=(X=2900.000 Y=100.000 Z=0.000), Max=(X=3000.000 Y=9290.000 Z=400.000) RuntimeGrid:None EditorOnly:0 RuntimeOnly:0 HLODRelevant:1 ListedInSceneOutliner:1 IsMainWorldOnly:0 FolderPath:Playground FolderGuid:C73F09FC4215536B1DCE2A9E0A830C70
 |   |- [+] Clusters:
 |   |   |- [+] [  0]
 |   |   |   |- Guid:026A69A84D05331E13397B855AC173FC BaseClass:/Game/Blueprints/BP_BotonMano.BP_BotonMano_C NativeClass:/Script/Engine.Actor Name:BP_BotonMano_C_UAID_04421AEA3B5EAFB601_1316598151 Label:BP_BotonMano SpatiallyLoaded:1 Bounds:IsValid=true, Min=(X=2415.000 Y=6865.000 Z=-80.000), Max=(X=2575.000 Y=7143.400 Z=103.000) RuntimeGrid:None EditorOnly:0 RuntimeOnly:0 HLODRelevant:0 ListedInSceneOutliner:1 IsMainWorldOnly:0
 |   |   |- [+] [  1]
 |   |   |   |- Guid:030882E54241920B2A2F769F17F5A1E9 BaseClass: NativeClass:/Script/Engine.SkyAtmosphere Name:SkyAtmosphere_0 Label:SkyAtmosphere SpatiallyLoaded:0 Bounds:IsValid=true, Min=(X=0.000 Y=0.000 Z=1020.000), Max=(X=0.000 Y=0.000 Z=1020.000) RuntimeGrid:None EditorOnly:0 RuntimeOnly:0 HLODRelevant:0 ListedInSceneOutliner:1 IsMainWorldOnly:0 FolderPath:Lighting FolderGuid:963EC3EB4002CCE9759E2EBA541A873A
 |   |   |- [+] [  2]
 |   |   |   |- Guid:039B64B643BD106AC7525C9FF450BBE4 BaseClass:/Game/Blueprints/BP_Boton.BP_Boton_C NativeClass:/Script/Engine.Actor Name:BP_Boton_C_UAID_04421AEA3B5E7DB401_1627592241 Label:BP_Boton3 SpatiallyLoaded:1 Bounds:IsValid=true, Min=(X=1390.000 Y=3170.000 Z=-1.250), Max=(X=1490.000 Y=3270.000 Z=72.000) RuntimeGrid:None EditorOnly:0 RuntimeOnly:0 HLODRelevant:0 ListedInSceneOutliner:1 IsMainWorldOnly:0
 |   |   |- [+] [  3]
 |   |   |   |- Guid:07C7B6ED488D2C14FC0C5ABD00C73C39 BaseClass: NativeClass:/Script/Engine.StaticMeshActor Name:StaticMeshActor_6 Label:SM_Cube3 SpatiallyLoaded:1 Bounds:IsValid=true, Min=(X=0.000 Y=3400.000 Z=0.000), Max=(X=1500.000 Y=3500.000 Z=400.000) RuntimeGrid:None EditorOnly:0 RuntimeOnly:0 HLODRelevant:1 ListedInSceneOutliner:1 IsMainWorldOnly:0 FolderPath:Playground FolderGuid:C73F09FC4215536B1DCE2A9E0A830C70
 |   |   |- [+] [  4]
 |   |   |   |- Guid:2179326A463DDB8155834AB88A6D6391 BaseClass:/Game/Blueprints/BP_BotonTintado.BP_BotonTintado_C NativeClass:/Script/Engine.Actor Name:BP_BotonTintado_C_UAID_04421AEA3B5E7FBF01_1194292214 Label:BP_BotonTintado3 SpatiallyLoaded:1 Bounds:IsValid=true, Min=(X=525.000 Y=5525.000 Z=-0.781), Max=(X=665.000 Y=5665.000 Z=67.000) RuntimeGrid:None EditorOnly:0 RuntimeOnly:0 HLODRelevant:0 ListedInSceneOutliner:1 IsMainWorldOnly:0
 |   |   |- [+] [  5]
 |   |   |   |- Guid:2184F1094ACB5EE210EAF0951E23ACF1 BaseClass:/Game/Blueprints/BP_Tintator.BP_Tintator_C NativeClass:/Script/Engine.Actor Name:BP_Tintator_C_UAID_04421AEA3B5E4EBD01_2021016471 Label:BP_Tintator SpatiallyLoaded:1 Bounds:IsValid=true, Min=(X=2520.000 Y=4830.000 Z=-2.500), Max=(X=2680.000 Y=4990.000 Z=247.500) RuntimeGrid:None EditorOnly:0 RuntimeOnly:0 HLODRelevant:0 ListedInSceneOutliner:1 IsMainWorldOnly:0
 |   |   |- [+] [  6]
 |   |   |   |- Guid:226B1D3A4E37C648A2694C9438CA7CE9 BaseClass:/Game/Blueprints/BP_Puerta.BP_Puerta_C NativeClass:/Script/Engine.Actor Name:BP_Puerta_C_UAID_04421AEA3B5E7EBF01_2058048034 Label:BP_Puerta2 SpatiallyLoaded:1 Bounds:IsValid=true, Min=(X=1319.000 Y=5025.000 Z=-128.000), Max=(X=2169.000 Y=5985.000 Z=528.000) RuntimeGrid:None EditorOnly:0 RuntimeOnly:0 HLODRelevant:0 ListedInSceneOutliner:1 IsMainWorldOnly:0
 |   |   |- [+] [  7]
 |   |   |   |- Guid:2393F1214D9AAE614B236D98EBEF6627 BaseClass:/Game/Blueprints/BP_Tintator.BP_Tintator_C NativeClass:/Script/Engine.Actor Name:BP_Tintator_C_UAID_04421AEA3B5E7FBF01_1338490222 Label:BP_Tintator2 SpatiallyLoaded:1 Bounds:IsValid=true, Min=(X=2520.000 Y=5430.000 Z=-2.500), Max=(X=2680.000 Y=5590.000 Z=247.500) RuntimeGrid:None EditorOnly:0 RuntimeOnly:0 HLODRelevant:0 ListedInSceneOutliner:1 IsMainWorldOnly:0
 |   |   |- [+] [  8]
 |   |   |   |- Guid:24145E7C49CCFA4EB5A2B4A45B0E7AC6 BaseClass: NativeClass:/Script/Engine.TextRenderActor Name:TextRenderActor_1 Label:TextRenderActor SpatiallyLoaded:1 Bounds:IsValid=true, Min=(X=-0.100 Y=1100.000 Z=65.013), Max=(X=-0.100 Y=2392.308 Z=215.013) RuntimeGrid:None EditorOnly:0 RuntimeOnly:0 HLODRelevant:0 ListedInSceneOutliner:1 IsMainWorldOnly:0
 |   |   |- [+] [  9]
 |   |   |   |- Guid:264D621148DD7EAFEA7CDD9433ADDF4C BaseClass: NativeClass:/Script/Engine.StaticMeshActor Name:StaticMeshActor_5 Label:SM_Cube2 SpatiallyLoaded:1 Bounds:IsValid=true, Min=(X=0.000 Y=0.000 Z=0.000), Max=(X=3000.000 Y=100.000 Z=400.000) RuntimeGrid:None EditorOnly:0 RuntimeOnly:0 HLODRelevant:1 ListedInSceneOutliner:1 IsMainWorldOnly:0 FolderPath:Playground FolderGuid:C73F09FC4215536B1DCE2A9E0A830C70
 |   |   |- [+] [ 10]
 |   |   |   |- Guid:2A753CA7447A99E35CA553AC70D57E6C BaseClass: NativeClass:/Script/Engine.WorldDataLayers Name:WorldDataLayers Label:WorldDataLayers SpatiallyLoaded:0 Bounds:Invalid RuntimeGrid:None EditorOnly:0 RuntimeOnly:0 HLODRelevant:0 ListedInSceneOutliner:1 IsMainWorldOnly:1
 |   |   |- [+] [ 11]
 |   |   |   |- Guid:44C2D2584BA0112751E50C9B675D8E9A BaseClass: NativeClass:/Script/Engine.VolumetricCloud Name:VolumetricCloud_0 Label:VolumetricCloud SpatiallyLoaded:0 Bounds:IsValid=true, Min=(X=0.000 Y=0.000 Z=820.000), Max=(X=0.000 Y=0.000 Z=820.000) RuntimeGrid:None EditorOnly:0 RuntimeOnly:0 HLODRelevant:0 ListedInSceneOutliner:1 IsMainWorldOnly:0 FolderPath:Lighting FolderGuid:963EC3EB4002CCE9759E2EBA541A873A
 |   |   |- [+] [ 12]
 |   |   |   |- Guid:5D19A6204E5779DA95861F8A9C2453B7 BaseClass: NativeClass:/Script/Engine.StaticMeshActor Name:StaticMeshActor_UAID_04421AEA3B5E7EBF01_2038289032 Label:SM_Cube15 SpatiallyLoaded:1 Bounds:IsValid=true, Min=(X=1800.000 Y=5810.000 Z=0.000), Max=(X=3000.000 Y=5910.000 Z=400.000) RuntimeGrid:None EditorOnly:0 RuntimeOnly:0 HLODRelevant:1 ListedInSceneOutliner:1 IsMainWorldOnly:0 FolderPath:Playground FolderGuid:C73F09FC4215536B1DCE2A9E0A830C70
 |   |   |- [+] [ 13]
 |   |   |   |- Guid:61DCB5FB493A509E6F74F9A12092DE4F BaseClass: NativeClass:/Script/Engine.StaticMeshActor Name:StaticMeshActor_UAID_A4AE111137DC5EFB00_1110535423 Label:SM_SkySphere SpatiallyLoaded:0 Bounds:IsValid=true, Min=(X=-1638400.000 Y=-1638400.000 Z=-1638400.000), Max=(X=1638400.000 Y=1638400.000 Z=1638400.000) RuntimeGrid:None EditorOnly:0 RuntimeOnly:0 HLODRelevant:1 ListedInSceneOutliner:1 IsMainWorldOnly:0 FolderPath:Lighting FolderGuid:963EC3EB4002CCE9759E2EBA541A873A
 |   |   |- [+] [ 14]
 |   |   |   |- Guid:677999FF40B4050CF8F870A68EA04735 BaseClass: NativeClass:/Script/Engine.DirectionalLight Name:DirectionalLight_0 Label:DirectionalLight SpatiallyLoaded:0 Bounds:IsValid=true, Min=(X=-4398046511104.000 Y=-4398046511104.000 Z=-4398046511104.000), Max=(X=4398046511104.000 Y=4398046511104.000 Z=4398046511104.000) RuntimeGrid:None EditorOnly:0 RuntimeOnly:0 HLODRelevant:0 ListedInSceneOutliner:1 IsMainWorldOnly:0 FolderPath:Lighting FolderGuid:963EC3EB4002CCE9759E2EBA541A873A
 |   |   |- [+] [ 15]
 |   |   |   |- Guid:67FB186B40B1A7E668CEE9885751CC47 BaseClass:/Game/Blueprints/BP_Puerta.BP_Puerta_C NativeClass:/Script/Engine.Actor Name:BP_Puerta_C_UAID_04421AEA3B5E7FBF01_1145833212 Label:BP_Puerta3 SpatiallyLoaded:1 Bounds:IsValid=true, Min=(X=1020.000 Y=5029.000 Z=-128.000), Max=(X=1980.000 Y=5879.000 Z=528.000) RuntimeGrid:None EditorOnly:0 RuntimeOnly:0 HLODRelevant:0 ListedInSceneOutliner:1 IsMainWorldOnly:0
 |   |   |- [+] [ 16]
 |   |   |   |- Guid:7178BAAE401C2B7248156FB05C90C068 BaseClass:/Game/Blueprints/BP_Puerta.BP_Puerta_C NativeClass:/Script/Engine.Actor Name:BP_Puerta_C_UAID_04421AEA3B5E7FBF01_1303802219 Label:BP_Puerta4 SpatiallyLoaded:1 Bounds:IsValid=true, Min=(X=1020.000 Y=7489.000 Z=-128.000), Max=(X=1980.000 Y=8339.000 Z=528.000) RuntimeGrid:None EditorOnly:0 RuntimeOnly:0 HLODRelevant:0 ListedInSceneOutliner:1 IsMainWorldOnly:0
 |   |   |- [+] [ 17]
 |   |   |   |- Guid:71CE009945C273D5330A7C9599105DAB BaseClass: NativeClass:/Script/Engine.StaticMeshActor Name:StaticMeshActor_UAID_04421AEA3B5E7FBF01_1297655217 Label:SM_Cube17 SpatiallyLoaded:1 Bounds:IsValid=true, Min=(X=1800.000 Y=8280.000 Z=0.000), Max=(X=3000.000 Y=8380.000 Z=400.000) RuntimeGrid:None EditorOnly:0 RuntimeOnly:0 HLODRelevant:1 ListedInSceneOutliner:1 IsMainWorldOnly:0 FolderPath:Playground FolderGuid:C73F09FC4215536B1DCE2A9E0A830C70
 |   |   |- [+] [ 18]
 |   |   |   |- Guid:73A57E244DAA7CE975836D9D2492BF68 BaseClass:/Game/Blueprints/BP_Boton.BP_Boton_C NativeClass:/Script/Engine.Actor Name:BP_Boton_C_UAID_04421AEA3B5E7FBF01_1322418221 Label:BP_Boton6 SpatiallyLoaded:1 Bounds:IsValid=true, Min=(X=1845.000 Y=8050.000 Z=-1.250), Max=(X=1945.000 Y=8150.000 Z=72.000) RuntimeGrid:None EditorOnly:0 RuntimeOnly:0 HLODRelevant:0 ListedInSceneOutliner:1 IsMainWorldOnly:0
 |   |   |- [+] [ 19]
 |   |   |   |- Guid:7D1FCD984C73E7D1A9E9C6B157761E2D BaseClass: NativeClass:/Script/Engine.StaticMeshActor Name:StaticMeshActor_0 Label:SM_Cube5 SpatiallyLoaded:1 Bounds:IsValid=true, Min=(X=-0.000 Y=100.000 Z=0.000), Max=(X=100.000 Y=9250.000 Z=400.000) RuntimeGrid:None EditorOnly:0 RuntimeOnly:0 HLODRelevant:1 ListedInSceneOutliner:1 IsMainWorldOnly:0 FolderPath:Playground FolderGuid:C73F09FC4215536B1DCE2A9E0A830C70
 |   |   |- [+] [ 20]
 |   |   |   |- Guid:7E3BBBCB4D2E7A71FE262FA9C7A559DB BaseClass: NativeClass:/Script/Engine.StaticMeshActor Name:StaticMeshActor_UAID_04421AEA3B5E7FBF01_1114921211 Label:SM_Cube16 SpatiallyLoaded:1 Bounds:IsValid=true, Min=(X=2100.000 Y=5100.000 Z=0.000), Max=(X=3000.000 Y=5200.000 Z=400.000) RuntimeGrid:None EditorOnly:0 RuntimeOnly:0 HLODRelevant:1 ListedInSceneOutliner:1 IsMainWorldOnly:0 FolderPath:Playground FolderGuid:C73F09FC4215536B1DCE2A9E0A830C70
 |   |   |- [+] [ 21]
 |   |   |   |- Guid:8C98D73C49FE69610812C8B262FB6168 BaseClass: NativeClass:/Script/Engine.SkyLight Name:SkyLight_1 Label:SkyLight SpatiallyLoaded:0 Bounds:IsValid=true, Min=(X=0.000 Y=0.000 Z=690.000), Max=(X=0.000 Y=0.000 Z=690.000) RuntimeGrid:None EditorOnly:0 RuntimeOnly:0 HLODRelevant:0 ListedInSceneOutliner:1 IsMainWorldOnly:0 FolderPath:Lighting FolderGuid:963EC3EB4002CCE9759E2EBA541A873A
 |   |   |- [+] [ 22]
 |   |   |   |- Guid:968F9AA6474A0884B560B49FCED1D830 BaseClass:/Game/Blueprints/BP_Cubito.BP_Cubito_C NativeClass:/Script/Engine.StaticMeshActor Name:BP_Cubito_C_UAID_04421AEA3B5E81B401_1454935949 Label:BP_Cubito SpatiallyLoaded:1 Bounds:IsValid=true, Min=(X=1035.000 Y=4600.000 Z=0.013), Max=(X=1135.000 Y=4700.000 Z=100.013) RuntimeGrid:None EditorOnly:0 RuntimeOnly:0 HLODRelevant:0 ListedInSceneOutliner:1 IsMainWorldOnly:0
 |   |   |- [+] [ 23]
 |   |   |   |- Guid:96F9BFC94FA305D3B486B59748CC1D59 BaseClass: NativeClass:/Script/Engine.StaticMeshActor Name:StaticMeshActor_1 Label:SM_Cube SpatiallyLoaded:1 Bounds:IsValid=true, Min=(X=0.000 Y=0.000 Z=-50.000), Max=(X=3000.000 Y=9310.000 Z=0.000) RuntimeGrid:None EditorOnly:0 RuntimeOnly:0 HLODRelevant:1 ListedInSceneOutliner:1 IsMainWorldOnly:0 FolderPath:Playground FolderGuid:C73F09FC4215536B1DCE2A9E0A830C70
 |   |   |- [+] [ 24]
 |   |   |   |- Guid:A512AAE04DAFE3285FAF599344CB19EA BaseClass:/Game/Blueprints/BP_TrampaVelocidad.BP_TrampaVelocidad_C NativeClass:/Script/Engine.Actor Name:BP_TrampaVelocidad_C_UAID_04421AEA3B5E1BBB01_1542668383 Label:BP_TrampaVelocidad SpatiallyLoaded:1 Bounds:IsValid=true, Min=(X=1000.000 Y=1200.000 Z=0.050), Max=(X=1300.000 Y=1500.000 Z=67.050) RuntimeGrid:None EditorOnly:0 RuntimeOnly:0 HLODRelevant:0 ListedInSceneOutliner:1 IsMainWorldOnly:0
 |   |   |- [+] [ 25]
 |   |   |   |- Guid:A796C42A4DB92CAEE36301B2320B3615 BaseClass:/Game/Blueprints/BP_Boton.BP_Boton_C NativeClass:/Script/Engine.Actor Name:BP_Boton_C_UAID_04421AEA3B5E7FBF01_1209838215 Label:BP_Boton4 SpatiallyLoaded:1 Bounds:IsValid=true, Min=(X=2150.000 Y=4900.000 Z=-1.250), Max=(X=2250.000 Y=5000.000 Z=72.000) RuntimeGrid:None EditorOnly:0 RuntimeOnly:0 HLODRelevant:0 ListedInSceneOutliner:1 IsMainWorldOnly:0
 |   |   |- [+] [ 26]
 |   |   |   |- Guid:AAC2377D4DC31741356057A1B4692B15 BaseClass: NativeClass:/Script/Engine.PostProcessVolume Name:PostProcessVolume_0 Label:PostProcessVolume SpatiallyLoaded:0 Bounds:IsValid=true, Min=(X=0.000 Y=0.000 Z=400.000), Max=(X=200.000 Y=200.000 Z=600.000) RuntimeGrid:None EditorOnly:0 RuntimeOnly:0 HLODRelevant:0 ListedInSceneOutliner:1 IsMainWorldOnly:0 FolderPath:Lighting FolderGuid:963EC3EB4002CCE9759E2EBA541A873A
 |   |   |- [+] [ 27]
 |   |   |   |- Guid:B08F7C974F8D7711BA68FD853DC8BF62 BaseClass: NativeClass:/Script/Engine.StaticMeshActor Name:StaticMeshActor_UAID_04421AEA3B5E7EBF01_2051333033 Label:SM_Cube4 SpatiallyLoaded:1 Bounds:IsValid=true, Min=(X=0.000 Y=5810.000 Z=0.000), Max=(X=1200.000 Y=5910.000 Z=400.000) RuntimeGrid:None EditorOnly:0 RuntimeOnly:0 HLODRelevant:1 ListedInSceneOutliner:1 IsMainWorldOnly:0 FolderPath:Playground FolderGuid:C73F09FC4215536B1DCE2A9E0A830C70
 |   |   |- [+] [ 28]
 |   |   |   |- Guid:BC9D92584370C47A23837A87CD04B890 BaseClass: NativeClass:/Script/Engine.StaticMeshActor Name:StaticMeshActor_UAID_04421AEA3B5E16B001_1833886887 Label:SM_Cube14 SpatiallyLoaded:1 Bounds:IsValid=true, Min=(X=2100.000 Y=3400.000 Z=0.000), Max=(X=3000.000 Y=3500.000 Z=400.000) RuntimeGrid:None EditorOnly:0 RuntimeOnly:0 HLODRelevant:1 ListedInSceneOutliner:1 IsMainWorldOnly:0 FolderPath:Playground FolderGuid:C73F09FC4215536B1DCE2A9E0A830C70
 |   |   |- [+] [ 29]
 |   |   |   |- Guid:C3A344DB4B2F4384FEF26DBAF96FE35D BaseClass:/Game/Blueprints/BP_Dispensador.BP_Dispensador_C NativeClass:/Script/Engine.Actor Name:BP_Dispensador_C_UAID_04421AEA3B5E7FBF01_1263108216 Label:BP_Dispensador SpatiallyLoaded:1 Bounds:IsValid=true, Min=(X=1960.000 Y=7340.000 Z=660.000), Max=(X=2325.000 Y=7590.000 Z=820.000) RuntimeGrid:None EditorOnly:0 RuntimeOnly:0 HLODRelevant:0 ListedInSceneOutliner:1 IsMainWorldOnly:0
 |   |   |- [+] [ 30]
 |   |   |   |- Guid:C565E1054EA3313A342FEDBE3CE85529 BaseClass: NativeClass:/Script/Engine.ExponentialHeightFog Name:ExponentialHeightFog_0 Label:ExponentialHeightFog SpatiallyLoaded:0 Bounds:IsValid=true, Min=(X=-5600.000 Y=-50.000 Z=-6850.000), Max=(X=-5600.000 Y=-50.000 Z=-6850.000) RuntimeGrid:None EditorOnly:0 RuntimeOnly:0 HLODRelevant:0 ListedInSceneOutliner:1 IsMainWorldOnly:0 FolderPath:Lighting FolderGuid:963EC3EB4002CCE9759E2EBA541A873A
 |   |   |- [+] [ 31]
 |   |   |   |- Guid:CA064CED48BF1DC8569DA9BCD75A8274 BaseClass: NativeClass:/Script/Engine.StaticMeshActor Name:StaticMeshActor_UAID_04421AEA3B5E7FBF01_1297656218 Label:SM_Cube7 SpatiallyLoaded:1 Bounds:IsValid=true, Min=(X=0.000 Y=8280.000 Z=0.000), Max=(X=1200.000 Y=8380.000 Z=400.000) RuntimeGrid:None EditorOnly:0 RuntimeOnly:0 HLODRelevant:1 ListedInSceneOutliner:1 IsMainWorldOnly:0 FolderPath:Playground FolderGuid:C73F09FC4215536B1DCE2A9E0A830C70
 |   |   |- [+] [ 32]
 |   |   |   |- Guid:CD5EA5D541FD18632F8383A0DB7A277C BaseClass:/Game/Blueprints/BP_Puerta.BP_Puerta_C NativeClass:/Script/Engine.Actor Name:BP_Puerta_C_UAID_04421AEA3B5E7EB401_1956649418 Label:BP_Puerta SpatiallyLoaded:1 Bounds:IsValid=true, Min=(X=1320.000 Y=2634.000 Z=-128.000), Max=(X=2280.000 Y=3484.000 Z=528.000) RuntimeGrid:None EditorOnly:0 RuntimeOnly:0 HLODRelevant:0 ListedInSceneOutliner:1 IsMainWorldOnly:0
 |   |   |- [+] [ 33]
 |   |   |   |- Guid:D967312C420FE5771540119224ECBC31 BaseClass:/Game/Blueprints/BP_Boton.BP_Boton_C NativeClass:/Script/Engine.Actor Name:BP_Boton_C_UAID_04421AEA3B5E7FBF01_1314265220 Label:BP_Boton5 SpatiallyLoaded:1 Bounds:IsValid=true, Min=(X=1050.000 Y=8050.000 Z=-1.250), Max=(X=1150.000 Y=8150.000 Z=72.000) RuntimeGrid:None EditorOnly:0 RuntimeOnly:0 HLODRelevant:0 ListedInSceneOutliner:1 IsMainWorldOnly:0
 |   |   |- [+] [ 34]
 |   |   |   |- Guid:DE1D08C042B724BF23B835B0E6C80F2E BaseClass: NativeClass:/Script/Engine.PlayerStart Name:PlayerStart_0 Label:PlayerStart SpatiallyLoaded:0 Bounds:IsValid=true, Min=(X=910.000 Y=2400.000 Z=0.013), Max=(X=990.000 Y=2480.000 Z=184.013) RuntimeGrid:None EditorOnly:0 RuntimeOnly:0 HLODRelevant:0 ListedInSceneOutliner:1 IsMainWorldOnly:0
 |   |   |- [+] [ 35]
 |   |   |   |- Guid:DFA1F69D4DFCB0CFF296E09DAB6DD13B BaseClass:/Game/Blueprints/BP_BotonTintado.BP_BotonTintado_C NativeClass:/Script/Engine.Actor Name:BP_BotonTintado_C_UAID_04421AEA3B5E7CBF01_1546613679 Label:BP_BotonTintado SpatiallyLoaded:1 Bounds:IsValid=true, Min=(X=285.000 Y=1720.000 Z=-0.781), Max=(X=425.000 Y=1860.000 Z=67.000) RuntimeGrid:None EditorOnly:0 RuntimeOnly:0 HLODRelevant:0 ListedInSceneOutliner:1 IsMainWorldOnly:0
 |   |   |- [+] [ 36]
 |   |   |   |- Guid:F32182BC4032C0375022398208E4EE88 BaseClass:/Game/Blueprints/BP_BotonTintado.BP_BotonTintado_C NativeClass:/Script/Engine.Actor Name:BP_BotonTintado_C_UAID_04421AEA3B5E7FBF01_1190697213 Label:BP_BotonTintado2 SpatiallyLoaded:1 Bounds:IsValid=true, Min=(X=835.000 Y=5530.000 Z=-0.781), Max=(X=975.000 Y=5670.000 Z=67.000) RuntimeGrid:None EditorOnly:0 RuntimeOnly:0 HLODRelevant:0 ListedInSceneOutliner:1 IsMainWorldOnly:0
 |   |   |- [+] [ 37]
 |   |   |   |- Guid:FBD32A21442F095BF65034B52D1D1FEA BaseClass: NativeClass:/Script/Engine.StaticMeshActor Name:StaticMeshActor_4 Label:SM_Cube6 SpatiallyLoaded:1 Bounds:IsValid=true, Min=(X=2900.000 Y=100.000 Z=0.000), Max=(X=3000.000 Y=9290.000 Z=400.000) RuntimeGrid:None EditorOnly:0 RuntimeOnly:0 HLODRelevant:1 ListedInSceneOutliner:1 IsMainWorldOnly:0 FolderPath:Playground FolderGuid:C73F09FC4215536B1DCE2A9E0A830C70
 |- ContainerInstances:
 |- [+] MainContainer:
 |   |-        ID: 00000000000000000000000000000000
 |   |-  ParentID: 00000000000000000000000000000000
 |   |-    Bounds: IsValid=false, Min=(X=0.000 Y=0.000 Z=0.000), Max=(X=0.000 Y=0.000 Z=0.000)
 |   |- Transform: 0.000000,0.000000,0.000000|0.000000,0.000000,-0.000000|1.000000,1.000000,1.000000
 |   |- Container: /Game/Scenes/Mapapuzle
----------------------------------------------------------------------------------------------------------------
Mapapuzle - Persistent Level
----------------------------------------------------------------------------------------------------------------
[+] Content of Mapapuzle Persistent Level
 |- Always loaded Actor Count: 43 
 |- Actor Path: /Game/Scenes/Mapapuzle.Mapapuzle:PersistentLevel.BP_Boton_C_UAID_04421AEA3B5E7DB401_1627592241
 |- Actor Package: /Game/__ExternalActors__/Scenes/Mapapuzle/3/B1/WIG54O9B2MAIJ8FEUG6X2D
 |- Actor Path: /Game/Scenes/Mapapuzle.Mapapuzle:PersistentLevel.BP_Boton_C_UAID_04421AEA3B5E7FBF01_1209838215
 |- Actor Package: /Game/__ExternalActors__/Scenes/Mapapuzle/5/58/WG0E06YPXRJBASXE7IKB2D
 |- Actor Path: /Game/Scenes/Mapapuzle.Mapapuzle:PersistentLevel.BP_Boton_C_UAID_04421AEA3B5E7FBF01_1314265220
 |- Actor Package: /Game/__ExternalActors__/Scenes/Mapapuzle/3/N4/GFHVYZA3UZVM2HQNC786UW
 |- Actor Path: /Game/Scenes/Mapapuzle.Mapapuzle:PersistentLevel.BP_Boton_C_UAID_04421AEA3B5E7FBF01_1322418221
 |- Actor Package: /Game/__ExternalActors__/Scenes/Mapapuzle/0/BI/9QK4TXR00FMHTG133BM96H
 |- Actor Path: /Game/Scenes/Mapapuzle.Mapapuzle:PersistentLevel.BP_BotonMano_C_UAID_04421AEA3B5EAFB601_1316598151
 |- Actor Package: /Game/__ExternalActors__/Scenes/Mapapuzle/B/V2/0D0OSGC02P5GNCIYNN9V8H
 |- Actor Path: /Game/Scenes/Mapapuzle.Mapapuzle:PersistentLevel.BP_BotonTintado_C_UAID_04421AEA3B5E7CBF01_1546613679
 |- Actor Package: /Game/__ExternalActors__/Scenes/Mapapuzle/4/YC/YNACCP2G41ZDF1BNH2T8T4
 |- Actor Path: /Game/Scenes/Mapapuzle.Mapapuzle:PersistentLevel.BP_BotonTintado_C_UAID_04421AEA3B5E7FBF01_1190697213
 |- Actor Package: /Game/__ExternalActors__/Scenes/Mapapuzle/3/GQ/TCXOILVA3SNAJ326EK82LW
 |- Actor Path: /Game/Scenes/Mapapuzle.Mapapuzle:PersistentLevel.BP_BotonTintado_C_UAID_04421AEA3B5E7FBF01_1194292214
 |- Actor Package: /Game/__ExternalActors__/Scenes/Mapapuzle/3/G1/N93UK0IABAYM4DB1DCRO30
 |- Actor Path: /Game/Scenes/Mapapuzle.Mapapuzle:PersistentLevel.BP_Cubito_C_UAID_04421AEA3B5E81B401_1454935949
 |- Actor Package: /Game/__ExternalActors__/Scenes/Mapapuzle/C/21/ZIDWRLR2SRUTK6J16TLMI4
 |- Actor Path: /Game/Scenes/Mapapuzle.Mapapuzle:PersistentLevel.BP_Dispensador_C_UAID_04421AEA3B5E7FBF01_1263108216
 |- Actor Package: /Game/__ExternalActors__/Scenes/Mapapuzle/C/PD/40OI8WG58GW6DMBF6LO6B6
 |- Actor Path: /Game/Scenes/Mapapuzle.Mapapuzle:PersistentLevel.BP_Puerta_C_UAID_04421AEA3B5E7EB401_1956649418
 |- Actor Package: /Game/__ExternalActors__/Scenes/Mapapuzle/E/7E/C58VKHP71QS5550BWW44VT
 |- Actor Path: /Game/Scenes/Mapapuzle.Mapapuzle:PersistentLevel.BP_Puerta_C_UAID_04421AEA3B5E7EBF01_2058048034
 |- Actor Package: /Game/__ExternalActors__/Scenes/Mapapuzle/8/OZ/57UGRPY9WYODUCCXUQVMAM
 |- Actor Path: /Game/Scenes/Mapapuzle.Mapapuzle:PersistentLevel.BP_Puerta_C_UAID_04421AEA3B5E7FBF01_1145833212
 |- Actor Package: /Game/__ExternalActors__/Scenes/Mapapuzle/E/9G/NXQMODM0C0M8031CTTLFS1
 |- Actor Path: /Game/Scenes/Mapapuzle.Mapapuzle:PersistentLevel.BP_Puerta_C_UAID_04421AEA3B5E7FBF01_1303802219
 |- Actor Package: /Game/__ExternalActors__/Scenes/Mapapuzle/9/3T/M9A9JNU7A30MZLKFJNN6V7
 |- Actor Path: /Game/Scenes/Mapapuzle.Mapapuzle:PersistentLevel.BP_Tintator_C_UAID_04421AEA3B5E4EBD01_2021016471
 |- Actor Package: /Game/__ExternalActors__/Scenes/Mapapuzle/2/OB/QW4ZLFO9PS86F12NP2QLM5
 |- Actor Path: /Game/Scenes/Mapapuzle.Mapapuzle:PersistentLevel.BP_Tintator_C_UAID_04421AEA3B5E7FBF01_1338490222
 |- Actor Package: /Game/__ExternalActors__/Scenes/Mapapuzle/5/TR/8G7ZSZ0KTAKA69G1DFTF1A
 |- Actor Path: /Game/Scenes/Mapapuzle.Mapapuzle:PersistentLevel.BP_TrampaVelocidad_C_UAID_04421AEA3B5E1BBB01_1542668383
 |- Actor Package: /Game/__ExternalActors__/Scenes/Mapapuzle/4/EI/EWCYOMMXPWVW3TBTOIIPOU
 |- Actor Path: /Game/Scenes/Mapapuzle.Mapapuzle:PersistentLevel.Brush_0
 |- Actor Package: /Game/Scenes/Mapapuzle
 |- Actor Path: /Game/Scenes/Mapapuzle.Mapapuzle:PersistentLevel.DefaultPhysicsVolume_0
 |- Actor Package: /Game/Scenes/Mapapuzle
 |- Actor Path: /Game/Scenes/Mapapuzle.Mapapuzle:PersistentLevel.DirectionalLight_0
 |- Actor Package: /Game/__ExternalActors__/Scenes/Mapapuzle/A/U7/49VK3ZTVVZAPUKRIVJBJSL
 |- Actor Path: /Game/Scenes/Mapapuzle.Mapapuzle:PersistentLevel.ExponentialHeightFog_0
 |- Actor Package: /Game/__ExternalActors__/Scenes/Mapapuzle/C/HO/JSM72R9RVZSV2N79JB5WWY
 |- Actor Path: /Game/Scenes/Mapapuzle.Mapapuzle:PersistentLevel.Mapapuzle_C_11
 |- Actor Package: /Game/Scenes/Mapapuzle
 |- Actor Path: /Game/Scenes/Mapapuzle.Mapapuzle:PersistentLevel.PlayerStart_0
 |- Actor Package: /Game/__ExternalActors__/Scenes/Mapapuzle/5/14/FNK40NSXWBQMPI6TATCYGM
 |- Actor Path: /Game/Scenes/Mapapuzle.Mapapuzle:PersistentLevel.PostProcessVolume_0
 |- Actor Package: /Game/__ExternalActors__/Scenes/Mapapuzle/1/DC/TTJ01CIEUU00N873CRTBTJ
 |- Actor Path: /Game/Scenes/Mapapuzle.Mapapuzle:PersistentLevel.SkyAtmosphere_0
 |- Actor Package: /Game/__ExternalActors__/Scenes/Mapapuzle/A/F5/9V39203FS4C2E9I5J26BZJ
 |- Actor Path: /Game/Scenes/Mapapuzle.Mapapuzle:PersistentLevel.SkyLight_1
 |- Actor Package: /Game/__ExternalActors__/Scenes/Mapapuzle/7/7N/X5RXTRVYXPZVK3L3E2AG1N
 |- Actor Path: /Game/Scenes/Mapapuzle.Mapapuzle:PersistentLevel.StaticMeshActor_0
 |- Actor Package: /Game/__ExternalActors__/Scenes/Mapapuzle/5/HO/M80HX5G4PFY6BSLVKA0008
 |- Actor Path: /Game/Scenes/Mapapuzle.Mapapuzle:PersistentLevel.StaticMeshActor_1
 |- Actor Package: /Game/__ExternalActors__/Scenes/Mapapuzle/3/XC/MWTMTIDVLJS50APK8X9BR6
 |- Actor Path: /Game/Scenes/Mapapuzle.Mapapuzle:PersistentLevel.StaticMeshActor_4
 |- Actor Package: /Game/__ExternalActors__/Scenes/Mapapuzle/5/JB/E3FU0DO26YX37X7Y1MMXM8
 |- Actor Path: /Game/Scenes/Mapapuzle.Mapapuzle:PersistentLevel.StaticMeshActor_5
 |- Actor Package: /Game/__ExternalActors__/Scenes/Mapapuzle/9/JG/YVUBL6ZJUCV50AA1VLJ3D6
 |- Actor Path: /Game/Scenes/Mapapuzle.Mapapuzle:PersistentLevel.StaticMeshActor_6
 |- Actor Package: /Game/__ExternalActors__/Scenes/Mapapuzle/2/1M/NM0IXT2OJIPPH534YRY6I4
 |- Actor Path: /Game/Scenes/Mapapuzle.Mapapuzle:PersistentLevel.StaticMeshActor_UAID_04421AEA3B5E16B001_1833886887
 |- Actor Package: /Game/__ExternalActors__/Scenes/Mapapuzle/8/C9/O11MZJPJSFFLWTPQSQAP16
 |- Actor Path: /Game/Scenes/Mapapuzle.Mapapuzle:PersistentLevel.StaticMeshActor_UAID_04421AEA3B5E7EBF01_2038289032
 |- Actor Package: /Game/__ExternalActors__/Scenes/Mapapuzle/5/75/WJE7CPKFR57ES3V1LQB60Z
 |- Actor Path: /Game/Scenes/Mapapuzle.Mapapuzle:PersistentLevel.StaticMeshActor_UAID_04421AEA3B5E7EBF01_2051333033
 |- Actor Package: /Game/__ExternalActors__/Scenes/Mapapuzle/2/IW/SR7E02T9ZBV5OY3XN92JJ4
 |- Actor Path: /Game/Scenes/Mapapuzle.Mapapuzle:PersistentLevel.StaticMeshActor_UAID_04421AEA3B5E7FBF01_1114921211
 |- Actor Package: /Game/__ExternalActors__/Scenes/Mapapuzle/1/XV/Y8OTLKOCSA1U6RZHJ9MK5V
 |- Actor Path: /Game/Scenes/Mapapuzle.Mapapuzle:PersistentLevel.StaticMeshActor_UAID_04421AEA3B5E7FBF01_1297655217
 |- Actor Package: /Game/__ExternalActors__/Scenes/Mapapuzle/0/5M/SXZ419GV3Q8F3KWFBXUCGK
 |- Actor Path: /Game/Scenes/Mapapuzle.Mapapuzle:PersistentLevel.StaticMeshActor_UAID_04421AEA3B5E7FBF01_1297656218
 |- Actor Package: /Game/__ExternalActors__/Scenes/Mapapuzle/0/85/KXUT8VWKPKQ74GXXBL497M
 |- Actor Path: /Game/Scenes/Mapapuzle.Mapapuzle:PersistentLevel.StaticMeshActor_UAID_A4AE111137DC5EFB00_1110535423
 |- Actor Package: /Game/__ExternalActors__/Scenes/Mapapuzle/8/J2/G2620FJ86NBWX2D2BFOAGZ
 |- Actor Path: /Game/Scenes/Mapapuzle.Mapapuzle:PersistentLevel.TextRenderActor_1
 |- Actor Package: /Game/__ExternalActors__/Scenes/Mapapuzle/F/0O/QYCVYKW6S1NH1D8Z3HEW37
 |- Actor Path: /Game/Scenes/Mapapuzle.Mapapuzle:PersistentLevel.VolumetricCloud_0
 |- Actor Package: /Game/__ExternalActors__/Scenes/Mapapuzle/5/QE/043VDVW1LOAYRT37XCQJ27
 |- Actor Path: /Game/Scenes/Mapapuzle.Mapapuzle:PersistentLevel.WorldDataLayers
 |- Actor Package: /Game/__ExternalActors__/Scenes/Mapapuzle/9/8B/HBWWDS4723SLY884N2DNW6
 |- Actor Path: /Game/Scenes/Mapapuzle.Mapapuzle:PersistentLevel.WorldInfo_0
 |- Actor Package: /Game/Scenes/Mapapuzle
 |- Actor Path: /Game/Scenes/Mapapuzle.Mapapuzle:PersistentLevel.WorldPartitionMiniMap_0
 |- Actor Package: /Game/__ExternalActors__/Scenes/Mapapuzle/C/S8/KFQ43Z3IAX3D9MLIKBEGVH

----------------------------------------------------------------------------------------------------------------
Mapapuzle - Runtime Spatial Hash - Streaming Grid - MainGrid
----------------------------------------------------------------------------------------------------------------
            Origin: X=0.000 Y=0.000 Z=0.000
         Cell Size: 12800
      World Bounds: IsValid=false, Min=(X=0.000 Y=0.000 Z=0.000), Max=(X=0.000 Y=0.000 Z=0.000)
     Loading Range: 25600.00
Block Slow Loading: No
 ClientOnlyVisible: No
            Origin: X=0.000 Y=0.000 Z=0.000

[+] Grid Levels: 1
 |- Level  0: Cell Count    0 | Cell Size   12800 | Actor Count    0 (0.0%)

[+] Content of Grid Level 0

