[+] Containers:
 |- [+] Container: /Game/Scenes/EjercicioT2
 |   |- [+] ActorDescs:
 |   |   |- Guid:045EE35A492AC7EC1BA1F594F819B483 BaseClass:/Game/Blueprints/BP_Dispensador.BP_Dispensador_C NativeClass:/Script/Engine.Actor Name:BP_Dispensador_C_UAID_04421AEA3B5E7FBF01_1263108216 Label:BP_Dispensador SpatiallyLoaded:1 Bounds:IsValid=true, Min=(X=1960.000 Y=7340.000 Z=660.000), Max=(X=2325.000 Y=7590.000 Z=820.000) RuntimeGrid:None EditorOnly:0 RuntimeOnly:0 HLODRelevant:0 ListedInSceneOutliner:1 IsMainWorldOnly:0
 |   |   |- Guid:047AFB4B4732F2F4EF3E089C95E18E3C BaseClass: NativeClass:/Script/Engine.DirectionalLight Name:DirectionalLight_0 Label:DirectionalLight SpatiallyLoaded:0 Bounds:IsValid=true, Min=(X=-4398046511104.000 Y=-4398046511104.000 Z=-4398046511104.000), Max=(X=4398046511104.000 Y=4398046511104.000 Z=4398046511104.000) RuntimeGrid:None EditorOnly:0 RuntimeOnly:0 HLODRelevant:0 ListedInSceneOutliner:1 IsMainWorldOnly:0 FolderPath:Lighting FolderGuid:963EC3EB4002CCE9759E2EBA541A873A
 |   |   |- Guid:06D1D3A34C5225FAEE8077AB948A3D26 BaseClass: NativeClass:/Script/Engine.SkyAtmosphere Name:SkyAtmosphere_0 Label:SkyAtmosphere SpatiallyLoaded:0 Bounds:IsValid=true, Min=(X=0.000 Y=0.000 Z=1020.000), Max=(X=0.000 Y=0.000 Z=1020.000) RuntimeGrid:None EditorOnly:0 RuntimeOnly:0 HLODRelevant:0 ListedInSceneOutliner:1 IsMainWorldOnly:0 FolderPath:Lighting FolderGuid:963EC3EB4002CCE9759E2EBA541A873A
 |   |   |- Guid:140B16FE4298A7BB13BC7D813C32B7C7 BaseClass:/Game/Blueprints/BP_Puerta.BP_Puerta_C NativeClass:/Script/Engine.Actor Name:BP_Puerta_C_UAID_04421AEA3B5E7EB401_1956649418 Label:BP_Puerta SpatiallyLoaded:1 Bounds:IsValid=true, Min=(X=1320.000 Y=2634.000 Z=-128.000), Max=(X=2280.000 Y=3484.000 Z=528.000) RuntimeGrid:None EditorOnly:0 RuntimeOnly:0 HLODRelevant:0 ListedInSceneOutliner:1 IsMainWorldOnly:0
 |   |   |- Guid:20F6150E4DDC9F94F0E4B28816ED6D7D BaseClass:/Game/Blueprints/BP_Puerta.BP_Puerta_C NativeClass:/Script/Engine.Actor Name:BP_Puerta_C_UAID_04421AEA3B5E7FBF01_1145833212 Label:BP_Puerta3 SpatiallyLoaded:1 Bounds:IsValid=true, Min=(X=1020.000 Y=5029.000 Z=-128.000), Max=(X=1980.000 Y=5879.000 Z=528.000) RuntimeGrid:None EditorOnly:0 RuntimeOnly:0 HLODRelevant:0 ListedInSceneOutliner:1 IsMainWorldOnly:0
 |   |   |- Guid:246E86B1451039CB5DA0A4A0ED56E184 BaseClass: NativeClass:/Script/Engine.StaticMeshActor Name:StaticMeshActor_UAID_04421AEA3B5E7FBF01_1297655217 Label:SM_Cube17 SpatiallyLoaded:1 Bounds:IsValid=true, Min=(X=1800.000 Y=8280.000 Z=0.000), Max=(X=3000.000 Y=8380.000 Z=400.000) RuntimeGrid:None EditorOnly:0 RuntimeOnly:0 HLODRelevant:1 ListedInSceneOutliner:1 IsMainWorldOnly:0 FolderPath:Playground FolderGuid:C73F09FC4215536B1DCE2A9E0A830C70
 |   |   |- Guid:287A72E94ED9BE93B759A3BBD082A0F3 BaseClass: NativeClass:/Script/Engine.StaticMeshActor Name:StaticMeshActor_UAID_04421AEA3B5E7EBF01_2038289032 Label:SM_Cube15 SpatiallyLoaded:1 Bounds:IsValid=true, Min=(X=1800.000 Y=5810.000 Z=0.000), Max=(X=3000.000 Y=5910.000 Z=400.000) RuntimeGrid:None EditorOnly:0 RuntimeOnly:0 HLODRelevant:1 ListedInSceneOutliner:1 IsMainWorldOnly:0 FolderPath:Playground FolderGuid:C73F09FC4215536B1DCE2A9E0A830C70
 |   |   |- Guid:29A313414D8EAE4E85CD09B2CE11071D BaseClass: NativeClass:/Script/Engine.StaticMeshActor Name:StaticMeshActor_6 Label:SM_Cube3 SpatiallyLoaded:1 Bounds:IsValid=true, Min=(X=0.000 Y=3400.000 Z=0.000), Max=(X=1500.000 Y=3500.000 Z=400.000) RuntimeGrid:None EditorOnly:0 RuntimeOnly:0 HLODRelevant:1 ListedInSceneOutliner:1 IsMainWorldOnly:0 FolderPath:Playground FolderGuid:C73F09FC4215536B1DCE2A9E0A830C70
 |   |   |- Guid:36B54AE54F0826FE78E98092F48AB90C BaseClass: NativeClass:/Script/Engine.StaticMeshActor Name:StaticMeshActor_1 Label:SM_Cube SpatiallyLoaded:1 Bounds:IsValid=true, Min=(X=0.000 Y=0.000 Z=-50.000), Max=(X=3000.000 Y=9310.000 Z=0.000) RuntimeGrid:None EditorOnly:0 RuntimeOnly:0 HLODRelevant:1 ListedInSceneOutliner:1 IsMainWorldOnly:0 FolderPath:Playground FolderGuid:C73F09FC4215536B1DCE2A9E0A830C70
 |   |   |- Guid:4D49EDE74D9CA8D735ABBC928EA431ED BaseClass: NativeClass:/Script/Engine.StaticMeshActor Name:StaticMeshActor_UAID_04421AEA3B5E16B001_1833886887 Label:SM_Cube14 SpatiallyLoaded:1 Bounds:IsValid=true, Min=(X=2100.000 Y=3400.000 Z=0.000), Max=(X=3000.000 Y=3500.000 Z=400.000) RuntimeGrid:None EditorOnly:0 RuntimeOnly:0 HLODRelevant:1 ListedInSceneOutliner:1 IsMainWorldOnly:0 FolderPath:Playground FolderGuid:C73F09FC4215536B1DCE2A9E0A830C70
 |   |   |- Guid:543E38DC483B2E6CF717F692ED3373A4 BaseClass:/Game/Blueprints/BP_Boton.BP_Boton_C NativeClass:/Script/Engine.Actor Name:BP_Boton_C_UAID_04421AEA3B5E7FBF01_1322418221 Label:BP_Boton6 SpatiallyLoaded:1 Bounds:IsValid=true, Min=(X=1845.000 Y=8050.000 Z=-1.250), Max=(X=1945.000 Y=8150.000 Z=72.000) RuntimeGrid:None EditorOnly:0 RuntimeOnly:0 HLODRelevant:0 ListedInSceneOutliner:1 IsMainWorldOnly:0
 |   |   |- Guid:54846C8E4B5451E1A2C0CCB974493C96 BaseClass: NativeClass:/Script/Engine.WorldDataLayers Name:WorldDataLayers Label:WorldDataLayers SpatiallyLoaded:0 Bounds:Invalid RuntimeGrid:None EditorOnly:0 RuntimeOnly:0 HLODRelevant:0 ListedInSceneOutliner:1 IsMainWorldOnly:1
 |   |   |- Guid:58CFB9EA47976333C98284BB4B594A17 BaseClass: NativeClass:/Script/Engine.StaticMeshActor Name:StaticMeshActor_UAID_04421AEA3B5E7FBF01_1297656218 Label:SM_Cube7 SpatiallyLoaded:1 Bounds:IsValid=true, Min=(X=0.000 Y=8280.000 Z=0.000), Max=(X=1200.000 Y=8380.000 Z=400.000) RuntimeGrid:None EditorOnly:0 RuntimeOnly:0 HLODRelevant:1 ListedInSceneOutliner:1 IsMainWorldOnly:0 FolderPath:Playground FolderGuid:C73F09FC4215536B1DCE2A9E0A830C70
 |   |   |- Guid:5903859D49A3F47CE3903DA6117A6E03 BaseClass:/Game/Blueprints/BP_BotonMano.BP_BotonMano_C NativeClass:/Script/Engine.Actor Name:BP_BotonMano_C_UAID_04421AEA3B5EAFB601_1316598151 Label:BP_BotonMano SpatiallyLoaded:1 Bounds:IsValid=true, Min=(X=2415.000 Y=6865.000 Z=-80.000), Max=(X=2575.000 Y=7143.400 Z=103.000) RuntimeGrid:None EditorOnly:0 RuntimeOnly:0 HLODRelevant:0 ListedInSceneOutliner:1 IsMainWorldOnly:0
 |   |   |- Guid:5AC2E85C43EB41F109D52F8F6ABB4AB7 BaseClass: NativeClass:/Script/Engine.VolumetricCloud Name:VolumetricCloud_0 Label:VolumetricCloud SpatiallyLoaded:0 Bounds:IsValid=true, Min=(X=0.000 Y=0.000 Z=820.000), Max=(X=0.000 Y=0.000 Z=820.000) RuntimeGrid:None EditorOnly:0 RuntimeOnly:0 HLODRelevant:0 ListedInSceneOutliner:1 IsMainWorldOnly:0 FolderPath:Lighting FolderGuid:963EC3EB4002CCE9759E2EBA541A873A
 |   |   |- Guid:5C3C038D44E5CED3A898E4BCC12FE860 BaseClass: NativeClass:/Script/Engine.StaticMeshActor Name:StaticMeshActor_UAID_A4AE111137DC5EFB00_1110535423 Label:SM_SkySphere SpatiallyLoaded:0 Bounds:IsValid=true, Min=(X=-1638400.000 Y=-1638400.000 Z=-1638400.000), Max=(X=1638400.000 Y=1638400.000 Z=1638400.000) RuntimeGrid:None EditorOnly:0 RuntimeOnly:0 HLODRelevant:1 ListedInSceneOutliner:1 IsMainWorldOnly:0 FolderPath:Lighting FolderGuid:963EC3EB4002CCE9759E2EBA541A873A
 |   |   |- Guid:5FC4D6B941E71AC1B05C608729E6C08E BaseClass:/Game/Blueprints/EjercicioT2/BP_PiezaDePuzle.BP_PiezaDePuzle_C NativeClass:/Script/Engine.Actor Name:BP_PiezaDePuzle_C_UAID_04421AEA3B5E83BF01_1120116912 Label:BP_PiezaDePuzle SpatiallyLoaded:1 Bounds:IsValid=true, Min=(X=2365.600 Y=2645.600 Z=0.000), Max=(X=2634.400 Y=2914.400 Z=250.000) RuntimeGrid:None EditorOnly:0 RuntimeOnly:0 HLODRelevant:0 ListedInSceneOutliner:1 IsMainWorldOnly:0
 |   |   |- Guid:60E65E884A4DCD8AD41621B28F93F7BB BaseClass: NativeClass:/Script/Engine.StaticMeshActor Name:StaticMeshActor_4 Label:SM_Cube6 SpatiallyLoaded:1 Bounds:IsValid=true, Min=(X=2900.000 Y=100.000 Z=0.000), Max=(X=3000.000 Y=9290.000 Z=400.000) RuntimeGrid:None EditorOnly:0 RuntimeOnly:0 HLODRelevant:1 ListedInSceneOutliner:1 IsMainWorldOnly:0 FolderPath:Playground FolderGuid:C73F09FC4215536B1DCE2A9E0A830C70
 |   |   |- Guid:62B52CA542BECAC6BB4F09AD8E22D068 BaseClass: NativeClass:/Script/Engine.StaticMeshActor Name:StaticMeshActor_UAID_04421AEA3B5E7FBF01_1114921211 Label:SM_Cube16 SpatiallyLoaded:1 Bounds:IsValid=true, Min=(X=2100.000 Y=5100.000 Z=0.000), Max=(X=3000.000 Y=5200.000 Z=400.000) RuntimeGrid:None EditorOnly:0 RuntimeOnly:0 HLODRelevant:1 ListedInSceneOutliner:1 IsMainWorldOnly:0 FolderPath:Playground FolderGuid:C73F09FC4215536B1DCE2A9E0A830C70
 |   |   |- Guid:63D753114785B0159051C08C7C8812E9 BaseClass: NativeClass:/Script/Engine.TextRenderActor Name:TextRenderActor_1 Label:TextRenderActor SpatiallyLoaded:1 Bounds:IsValid=true, Min=(X=-0.100 Y=1100.000 Z=65.013), Max=(X=-0.100 Y=2392.308 Z=215.013) RuntimeGrid:None EditorOnly:0 RuntimeOnly:0 HLODRelevant:0 ListedInSceneOutliner:1 IsMainWorldOnly:0
 |   |   |- Guid:82564FA0438CB151D7D085AF91588A1C BaseClass: NativeClass:/Script/Engine.StaticMeshActor Name:StaticMeshActor_UAID_04421AEA3B5E7EBF01_2051333033 Label:SM_Cube4 SpatiallyLoaded:1 Bounds:IsValid=true, Min=(X=0.000 Y=5810.000 Z=0.000), Max=(X=1200.000 Y=5910.000 Z=400.000) RuntimeGrid:None EditorOnly:0 RuntimeOnly:0 HLODRelevant:1 ListedInSceneOutliner:1 IsMainWorldOnly:0 FolderPath:Playground FolderGuid:C73F09FC4215536B1DCE2A9E0A830C70
 |   |   |- Guid:82DC8D8041397C74B7D7479CCD59E603 BaseClass:/Game/ThirdPerson/Blueprints/BP_Tintator.BP_Tintator_C NativeClass:/Script/Engine.Actor Name:BP_Tintator_C_UAID_04421AEA3B5E4EBD01_2021016471 Label:BP_Tintator SpatiallyLoaded:1 Bounds:IsValid=true, Min=(X=2520.000 Y=4830.000 Z=-2.500), Max=(X=2680.000 Y=4990.000 Z=247.500) RuntimeGrid:None EditorOnly:0 RuntimeOnly:0 HLODRelevant:0 ListedInSceneOutliner:1 IsMainWorldOnly:0
 |   |   |- Guid:8EFB26F04C8797D54C35269BDA9624F9 BaseClass:/Game/ThirdPerson/Blueprints/BP_Tintator.BP_Tintator_C NativeClass:/Script/Engine.Actor Name:BP_Tintator_C_UAID_04421AEA3B5E7FBF01_1338490222 Label:BP_Tintator2 SpatiallyLoaded:1 Bounds:IsValid=true, Min=(X=2520.000 Y=5430.000 Z=-2.500), Max=(X=2680.000 Y=5590.000 Z=247.500) RuntimeGrid:None EditorOnly:0 RuntimeOnly:0 HLODRelevant:0 ListedInSceneOutliner:1 IsMainWorldOnly:0
 |   |   |- Guid:912F05EA4A97A221DF924B8D0E66F5A9 BaseClass:/Game/Blueprints/BP_Cubito.BP_Cubito_C NativeClass:/Script/Engine.StaticMeshActor Name:BP_Cubito_C_UAID_04421AEA3B5E81B401_1454935949 Label:BP_Cubito SpatiallyLoaded:1 Bounds:IsValid=true, Min=(X=1035.000 Y=4600.000 Z=0.013), Max=(X=1135.000 Y=4700.000 Z=100.013) RuntimeGrid:None EditorOnly:0 RuntimeOnly:0 HLODRelevant:0 ListedInSceneOutliner:1 IsMainWorldOnly:0
 |   |   |- Guid:94B91BE34AD7E4574CAEC1822397EDEE BaseClass: NativeClass:/Script/Engine.PostProcessVolume Name:PostProcessVolume_0 Label:PostProcessVolume SpatiallyLoaded:0 Bounds:IsValid=true, Min=(X=0.000 Y=0.000 Z=400.000), Max=(X=200.000 Y=200.000 Z=600.000) RuntimeGrid:None EditorOnly:0 RuntimeOnly:0 HLODRelevant:0 ListedInSceneOutliner:1 IsMainWorldOnly:0 FolderPath:Lighting FolderGuid:963EC3EB4002CCE9759E2EBA541A873A
 |   |   |- Guid:ADC081484E3D8335459E0EBD752B34F3 BaseClass: NativeClass:/Script/Engine.ExponentialHeightFog Name:ExponentialHeightFog_0 Label:ExponentialHeightFog SpatiallyLoaded:0 Bounds:IsValid=true, Min=(X=-5600.000 Y=-50.000 Z=-6850.000), Max=(X=-5600.000 Y=-50.000 Z=-6850.000) RuntimeGrid:None EditorOnly:0 RuntimeOnly:0 HLODRelevant:0 ListedInSceneOutliner:1 IsMainWorldOnly:0 FolderPath:Lighting FolderGuid:963EC3EB4002CCE9759E2EBA541A873A
 |   |   |- Guid:B0C9F02943C5B973B02F7384A618CF6D BaseClass: NativeClass:/Script/Engine.StaticMeshActor Name:StaticMeshActor_0 Label:SM_Cube5 SpatiallyLoaded:1 Bounds:IsValid=true, Min=(X=-0.000 Y=100.000 Z=0.000), Max=(X=100.000 Y=9250.000 Z=400.000) RuntimeGrid:None EditorOnly:0 RuntimeOnly:0 HLODRelevant:1 ListedInSceneOutliner:1 IsMainWorldOnly:0 FolderPath:Playground FolderGuid:C73F09FC4215536B1DCE2A9E0A830C70
 |   |   |- Guid:B5D9DC64467865A49571F3AEC8D1AE92 BaseClass:/Game/Blueprints/BP_Boton.BP_Boton_C NativeClass:/Script/Engine.Actor Name:BP_Boton_C_UAID_04421AEA3B5E7FBF01_1209838215 Label:BP_Boton4 SpatiallyLoaded:1 Bounds:IsValid=true, Min=(X=2150.000 Y=4900.000 Z=-1.250), Max=(X=2250.000 Y=5000.000 Z=72.000) RuntimeGrid:None EditorOnly:0 RuntimeOnly:0 HLODRelevant:0 ListedInSceneOutliner:1 IsMainWorldOnly:0
 |   |   |- Guid:BB90E1FD47B566A47F59F99C076D849E BaseClass:/Game/Blueprints/BP_Puerta.BP_Puerta_C NativeClass:/Script/Engine.Actor Name:BP_Puerta_C_UAID_04421AEA3B5E7FBF01_1303802219 Label:BP_Puerta4 SpatiallyLoaded:1 Bounds:IsValid=true, Min=(X=1020.000 Y=7489.000 Z=-128.000), Max=(X=1980.000 Y=8339.000 Z=528.000) RuntimeGrid:None EditorOnly:0 RuntimeOnly:0 HLODRelevant:0 ListedInSceneOutliner:1 IsMainWorldOnly:0
 |   |   |- Guid:BD9D773246E253079C645294FB07A53F BaseClass:/Game/Blueprints/BP_BotonTintado.BP_BotonTintado_C NativeClass:/Script/Engine.Actor Name:BP_BotonTintado_C_UAID_04421AEA3B5E7FBF01_1194292214 Label:BP_BotonTintado3 SpatiallyLoaded:1 Bounds:IsValid=true, Min=(X=525.000 Y=5525.000 Z=-0.781), Max=(X=665.000 Y=5665.000 Z=67.000) RuntimeGrid:None EditorOnly:0 RuntimeOnly:0 HLODRelevant:0 ListedInSceneOutliner:1 IsMainWorldOnly:0
 |   |   |- Guid:BE8BC97C4AF14504E7A2A281B2C84EB3 BaseClass:/Game/Blueprints/BP_Boton.BP_Boton_C NativeClass:/Script/Engine.Actor Name:BP_Boton_C_UAID_04421AEA3B5E7DB401_1627592241 Label:BP_Boton3 SpatiallyLoaded:1 Bounds:IsValid=true, Min=(X=1390.000 Y=3170.000 Z=-1.250), Max=(X=1490.000 Y=3270.000 Z=72.000) RuntimeGrid:None EditorOnly:0 RuntimeOnly:0 HLODRelevant:0 ListedInSceneOutliner:1 IsMainWorldOnly:0
 |   |   |- Guid:C66B076C41D1F80E59EC92819017969A BaseClass: NativeClass:/Script/Engine.StaticMeshActor Name:StaticMeshActor_5 Label:SM_Cube2 SpatiallyLoaded:1 Bounds:IsValid=true, Min=(X=0.000 Y=0.000 Z=0.000), Max=(X=3000.000 Y=100.000 Z=400.000) RuntimeGrid:None EditorOnly:0 RuntimeOnly:0 HLODRelevant:1 ListedInSceneOutliner:1 IsMainWorldOnly:0 FolderPath:Playground FolderGuid:C73F09FC4215536B1DCE2A9E0A830C70
 |   |   |- Guid:D4EA3D4247B797C238880DBECCE47611 BaseClass:/Game/Blueprints/BP_BotonTintado.BP_BotonTintado_C NativeClass:/Script/Engine.Actor Name:BP_BotonTintado_C_UAID_04421AEA3B5E7FBF01_1190697213 Label:BP_BotonTintado2 SpatiallyLoaded:1 Bounds:IsValid=true, Min=(X=835.000 Y=5530.000 Z=-0.781), Max=(X=975.000 Y=5670.000 Z=67.000) RuntimeGrid:None EditorOnly:0 RuntimeOnly:0 HLODRelevant:0 ListedInSceneOutliner:1 IsMainWorldOnly:0
 |   |   |- Guid:D7C8687A422BD1FBDDCA7DB492244784 BaseClass: NativeClass:/Script/Engine.PlayerStart Name:PlayerStart_0 Label:PlayerStart SpatiallyLoaded:0 Bounds:IsValid=true, Min=(X=910.000 Y=2400.000 Z=0.013), Max=(X=990.000 Y=2480.000 Z=184.013) RuntimeGrid:None EditorOnly:0 RuntimeOnly:0 HLODRelevant:0 ListedInSceneOutliner:1 IsMainWorldOnly:0
 |   |   |- Guid:DBB479E340C966C18C9B7487FA51CCCA BaseClass: NativeClass:/Script/Engine.SkyLight Name:SkyLight_1 Label:SkyLight SpatiallyLoaded:0 Bounds:IsValid=true, Min=(X=0.000 Y=0.000 Z=690.000), Max=(X=0.000 Y=0.000 Z=690.000) RuntimeGrid:None EditorOnly:0 RuntimeOnly:0 HLODRelevant:0 ListedInSceneOutliner:1 IsMainWorldOnly:0 FolderPath:Lighting FolderGuid:963EC3EB4002CCE9759E2EBA541A873A
 |   |   |- Guid:F325A08D4BAD73D7A73DCAA0B6EDCA65 BaseClass:/Game/Blueprints/BP_Puerta.BP_Puerta_C NativeClass:/Script/Engine.Actor Name:BP_Puerta_C_UAID_04421AEA3B5E7EBF01_2058048034 Label:BP_Puerta2 SpatiallyLoaded:1 Bounds:IsValid=true, Min=(X=1319.000 Y=5025.000 Z=-128.000), Max=(X=2169.000 Y=5985.000 Z=528.000) RuntimeGrid:None EditorOnly:0 RuntimeOnly:0 HLODRelevant:0 ListedInSceneOutliner:1 IsMainWorldOnly:0
 |   |   |- Guid:FC510A564F98EC7DF3BB00B26FDACBF9 BaseClass:/Game/Blueprints/BP_Boton.BP_Boton_C NativeClass:/Script/Engine.Actor Name:BP_Boton_C_UAID_04421AEA3B5E7FBF01_1314265220 Label:BP_Boton5 SpatiallyLoaded:1 Bounds:IsValid=true, Min=(X=1050.000 Y=8050.000 Z=-1.250), Max=(X=1150.000 Y=8150.000 Z=72.000) RuntimeGrid:None EditorOnly:0 RuntimeOnly:0 HLODRelevant:0 ListedInSceneOutliner:1 IsMainWorldOnly:0
 |   |- [+] Clusters:
 |   |   |- [+] [  0]
 |   |   |   |- Guid:045EE35A492AC7EC1BA1F594F819B483 BaseClass:/Game/Blueprints/BP_Dispensador.BP_Dispensador_C NativeClass:/Script/Engine.Actor Name:BP_Dispensador_C_UAID_04421AEA3B5E7FBF01_1263108216 Label:BP_Dispensador SpatiallyLoaded:1 Bounds:IsValid=true, Min=(X=1960.000 Y=7340.000 Z=660.000), Max=(X=2325.000 Y=7590.000 Z=820.000) RuntimeGrid:None EditorOnly:0 RuntimeOnly:0 HLODRelevant:0 ListedInSceneOutliner:1 IsMainWorldOnly:0
 |   |   |- [+] [  1]
 |   |   |   |- Guid:047AFB4B4732F2F4EF3E089C95E18E3C BaseClass: NativeClass:/Script/Engine.DirectionalLight Name:DirectionalLight_0 Label:DirectionalLight SpatiallyLoaded:0 Bounds:IsValid=true, Min=(X=-4398046511104.000 Y=-4398046511104.000 Z=-4398046511104.000), Max=(X=4398046511104.000 Y=4398046511104.000 Z=4398046511104.000) RuntimeGrid:None EditorOnly:0 RuntimeOnly:0 HLODRelevant:0 ListedInSceneOutliner:1 IsMainWorldOnly:0 FolderPath:Lighting FolderGuid:963EC3EB4002CCE9759E2EBA541A873A
 |   |   |- [+] [  2]
 |   |   |   |- Guid:06D1D3A34C5225FAEE8077AB948A3D26 BaseClass: NativeClass:/Script/Engine.SkyAtmosphere Name:SkyAtmosphere_0 Label:SkyAtmosphere SpatiallyLoaded:0 Bounds:IsValid=true, Min=(X=0.000 Y=0.000 Z=1020.000), Max=(X=0.000 Y=0.000 Z=1020.000) RuntimeGrid:None EditorOnly:0 RuntimeOnly:0 HLODRelevant:0 ListedInSceneOutliner:1 IsMainWorldOnly:0 FolderPath:Lighting FolderGuid:963EC3EB4002CCE9759E2EBA541A873A
 |   |   |- [+] [  3]
 |   |   |   |- Guid:140B16FE4298A7BB13BC7D813C32B7C7 BaseClass:/Game/Blueprints/BP_Puerta.BP_Puerta_C NativeClass:/Script/Engine.Actor Name:BP_Puerta_C_UAID_04421AEA3B5E7EB401_1956649418 Label:BP_Puerta SpatiallyLoaded:1 Bounds:IsValid=true, Min=(X=1320.000 Y=2634.000 Z=-128.000), Max=(X=2280.000 Y=3484.000 Z=528.000) RuntimeGrid:None EditorOnly:0 RuntimeOnly:0 HLODRelevant:0 ListedInSceneOutliner:1 IsMainWorldOnly:0
 |   |   |- [+] [  4]
 |   |   |   |- Guid:20F6150E4DDC9F94F0E4B28816ED6D7D BaseClass:/Game/Blueprints/BP_Puerta.BP_Puerta_C NativeClass:/Script/Engine.Actor Name:BP_Puerta_C_UAID_04421AEA3B5E7FBF01_1145833212 Label:BP_Puerta3 SpatiallyLoaded:1 Bounds:IsValid=true, Min=(X=1020.000 Y=5029.000 Z=-128.000), Max=(X=1980.000 Y=5879.000 Z=528.000) RuntimeGrid:None EditorOnly:0 RuntimeOnly:0 HLODRelevant:0 ListedInSceneOutliner:1 IsMainWorldOnly:0
 |   |   |- [+] [  5]
 |   |   |   |- Guid:246E86B1451039CB5DA0A4A0ED56E184 BaseClass: NativeClass:/Script/Engine.StaticMeshActor Name:StaticMeshActor_UAID_04421AEA3B5E7FBF01_1297655217 Label:SM_Cube17 SpatiallyLoaded:1 Bounds:IsValid=true, Min=(X=1800.000 Y=8280.000 Z=0.000), Max=(X=3000.000 Y=8380.000 Z=400.000) RuntimeGrid:None EditorOnly:0 RuntimeOnly:0 HLODRelevant:1 ListedInSceneOutliner:1 IsMainWorldOnly:0 FolderPath:Playground FolderGuid:C73F09FC4215536B1DCE2A9E0A830C70
 |   |   |- [+] [  6]
 |   |   |   |- Guid:287A72E94ED9BE93B759A3BBD082A0F3 BaseClass: NativeClass:/Script/Engine.StaticMeshActor Name:StaticMeshActor_UAID_04421AEA3B5E7EBF01_2038289032 Label:SM_Cube15 SpatiallyLoaded:1 Bounds:IsValid=true, Min=(X=1800.000 Y=5810.000 Z=0.000), Max=(X=3000.000 Y=5910.000 Z=400.000) RuntimeGrid:None EditorOnly:0 RuntimeOnly:0 HLODRelevant:1 ListedInSceneOutliner:1 IsMainWorldOnly:0 FolderPath:Playground FolderGuid:C73F09FC4215536B1DCE2A9E0A830C70
 |   |   |- [+] [  7]
 |   |   |   |- Guid:29A313414D8EAE4E85CD09B2CE11071D BaseClass: NativeClass:/Script/Engine.StaticMeshActor Name:StaticMeshActor_6 Label:SM_Cube3 SpatiallyLoaded:1 Bounds:IsValid=true, Min=(X=0.000 Y=3400.000 Z=0.000), Max=(X=1500.000 Y=3500.000 Z=400.000) RuntimeGrid:None EditorOnly:0 RuntimeOnly:0 HLODRelevant:1 ListedInSceneOutliner:1 IsMainWorldOnly:0 FolderPath:Playground FolderGuid:C73F09FC4215536B1DCE2A9E0A830C70
 |   |   |- [+] [  8]
 |   |   |   |- Guid:36B54AE54F0826FE78E98092F48AB90C BaseClass: NativeClass:/Script/Engine.StaticMeshActor Name:StaticMeshActor_1 Label:SM_Cube SpatiallyLoaded:1 Bounds:IsValid=true, Min=(X=0.000 Y=0.000 Z=-50.000), Max=(X=3000.000 Y=9310.000 Z=0.000) RuntimeGrid:None EditorOnly:0 RuntimeOnly:0 HLODRelevant:1 ListedInSceneOutliner:1 IsMainWorldOnly:0 FolderPath:Playground FolderGuid:C73F09FC4215536B1DCE2A9E0A830C70
 |   |   |- [+] [  9]
 |   |   |   |- Guid:4D49EDE74D9CA8D735ABBC928EA431ED BaseClass: NativeClass:/Script/Engine.StaticMeshActor Name:StaticMeshActor_UAID_04421AEA3B5E16B001_1833886887 Label:SM_Cube14 SpatiallyLoaded:1 Bounds:IsValid=true, Min=(X=2100.000 Y=3400.000 Z=0.000), Max=(X=3000.000 Y=3500.000 Z=400.000) RuntimeGrid:None EditorOnly:0 RuntimeOnly:0 HLODRelevant:1 ListedInSceneOutliner:1 IsMainWorldOnly:0 FolderPath:Playground FolderGuid:C73F09FC4215536B1DCE2A9E0A830C70
 |   |   |- [+] [ 10]
 |   |   |   |- Guid:543E38DC483B2E6CF717F692ED3373A4 BaseClass:/Game/Blueprints/BP_Boton.BP_Boton_C NativeClass:/Script/Engine.Actor Name:BP_Boton_C_UAID_04421AEA3B5E7FBF01_1322418221 Label:BP_Boton6 SpatiallyLoaded:1 Bounds:IsValid=true, Min=(X=1845.000 Y=8050.000 Z=-1.250), Max=(X=1945.000 Y=8150.000 Z=72.000) RuntimeGrid:None EditorOnly:0 RuntimeOnly:0 HLODRelevant:0 ListedInSceneOutliner:1 IsMainWorldOnly:0
 |   |   |- [+] [ 11]
 |   |   |   |- Guid:54846C8E4B5451E1A2C0CCB974493C96 BaseClass: NativeClass:/Script/Engine.WorldDataLayers Name:WorldDataLayers Label:WorldDataLayers SpatiallyLoaded:0 Bounds:Invalid RuntimeGrid:None EditorOnly:0 RuntimeOnly:0 HLODRelevant:0 ListedInSceneOutliner:1 IsMainWorldOnly:1
 |   |   |- [+] [ 12]
 |   |   |   |- Guid:58CFB9EA47976333C98284BB4B594A17 BaseClass: NativeClass:/Script/Engine.StaticMeshActor Name:StaticMeshActor_UAID_04421AEA3B5E7FBF01_1297656218 Label:SM_Cube7 SpatiallyLoaded:1 Bounds:IsValid=true, Min=(X=0.000 Y=8280.000 Z=0.000), Max=(X=1200.000 Y=8380.000 Z=400.000) RuntimeGrid:None EditorOnly:0 RuntimeOnly:0 HLODRelevant:1 ListedInSceneOutliner:1 IsMainWorldOnly:0 FolderPath:Playground FolderGuid:C73F09FC4215536B1DCE2A9E0A830C70
 |   |   |- [+] [ 13]
 |   |   |   |- Guid:5903859D49A3F47CE3903DA6117A6E03 BaseClass:/Game/Blueprints/BP_BotonMano.BP_BotonMano_C NativeClass:/Script/Engine.Actor Name:BP_BotonMano_C_UAID_04421AEA3B5EAFB601_1316598151 Label:BP_BotonMano SpatiallyLoaded:1 Bounds:IsValid=true, Min=(X=2415.000 Y=6865.000 Z=-80.000), Max=(X=2575.000 Y=7143.400 Z=103.000) RuntimeGrid:None EditorOnly:0 RuntimeOnly:0 HLODRelevant:0 ListedInSceneOutliner:1 IsMainWorldOnly:0
 |   |   |- [+] [ 14]
 |   |   |   |- Guid:5AC2E85C43EB41F109D52F8F6ABB4AB7 BaseClass: NativeClass:/Script/Engine.VolumetricCloud Name:VolumetricCloud_0 Label:VolumetricCloud SpatiallyLoaded:0 Bounds:IsValid=true, Min=(X=0.000 Y=0.000 Z=820.000), Max=(X=0.000 Y=0.000 Z=820.000) RuntimeGrid:None EditorOnly:0 RuntimeOnly:0 HLODRelevant:0 ListedInSceneOutliner:1 IsMainWorldOnly:0 FolderPath:Lighting FolderGuid:963EC3EB4002CCE9759E2EBA541A873A
 |   |   |- [+] [ 15]
 |   |   |   |- Guid:5C3C038D44E5CED3A898E4BCC12FE860 BaseClass: NativeClass:/Script/Engine.StaticMeshActor Name:StaticMeshActor_UAID_A4AE111137DC5EFB00_1110535423 Label:SM_SkySphere SpatiallyLoaded:0 Bounds:IsValid=true, Min=(X=-1638400.000 Y=-1638400.000 Z=-1638400.000), Max=(X=1638400.000 Y=1638400.000 Z=1638400.000) RuntimeGrid:None EditorOnly:0 RuntimeOnly:0 HLODRelevant:1 ListedInSceneOutliner:1 IsMainWorldOnly:0 FolderPath:Lighting FolderGuid:963EC3EB4002CCE9759E2EBA541A873A
 |   |   |- [+] [ 16]
 |   |   |   |- Guid:5FC4D6B941E71AC1B05C608729E6C08E BaseClass:/Game/Blueprints/EjercicioT2/BP_PiezaDePuzle.BP_PiezaDePuzle_C NativeClass:/Script/Engine.Actor Name:BP_PiezaDePuzle_C_UAID_04421AEA3B5E83BF01_1120116912 Label:BP_PiezaDePuzle SpatiallyLoaded:1 Bounds:IsValid=true, Min=(X=2365.600 Y=2645.600 Z=0.000), Max=(X=2634.400 Y=2914.400 Z=250.000) RuntimeGrid:None EditorOnly:0 RuntimeOnly:0 HLODRelevant:0 ListedInSceneOutliner:1 IsMainWorldOnly:0
 |   |   |- [+] [ 17]
 |   |   |   |- Guid:60E65E884A4DCD8AD41621B28F93F7BB BaseClass: NativeClass:/Script/Engine.StaticMeshActor Name:StaticMeshActor_4 Label:SM_Cube6 SpatiallyLoaded:1 Bounds:IsValid=true, Min=(X=2900.000 Y=100.000 Z=0.000), Max=(X=3000.000 Y=9290.000 Z=400.000) RuntimeGrid:None EditorOnly:0 RuntimeOnly:0 HLODRelevant:1 ListedInSceneOutliner:1 IsMainWorldOnly:0 FolderPath:Playground FolderGuid:C73F09FC4215536B1DCE2A9E0A830C70
 |   |   |- [+] [ 18]
 |   |   |   |- Guid:62B52CA542BECAC6BB4F09AD8E22D068 BaseClass: NativeClass:/Script/Engine.StaticMeshActor Name:StaticMeshActor_UAID_04421AEA3B5E7FBF01_1114921211 Label:SM_Cube16 SpatiallyLoaded:1 Bounds:IsValid=true, Min=(X=2100.000 Y=5100.000 Z=0.000), Max=(X=3000.000 Y=5200.000 Z=400.000) RuntimeGrid:None EditorOnly:0 RuntimeOnly:0 HLODRelevant:1 ListedInSceneOutliner:1 IsMainWorldOnly:0 FolderPath:Playground FolderGuid:C73F09FC4215536B1DCE2A9E0A830C70
 |   |   |- [+] [ 19]
 |   |   |   |- Guid:63D753114785B0159051C08C7C8812E9 BaseClass: NativeClass:/Script/Engine.TextRenderActor Name:TextRenderActor_1 Label:TextRenderActor SpatiallyLoaded:1 Bounds:IsValid=true, Min=(X=-0.100 Y=1100.000 Z=65.013), Max=(X=-0.100 Y=2392.308 Z=215.013) RuntimeGrid:None EditorOnly:0 RuntimeOnly:0 HLODRelevant:0 ListedInSceneOutliner:1 IsMainWorldOnly:0
 |   |   |- [+] [ 20]
 |   |   |   |- Guid:82564FA0438CB151D7D085AF91588A1C BaseClass: NativeClass:/Script/Engine.StaticMeshActor Name:StaticMeshActor_UAID_04421AEA3B5E7EBF01_2051333033 Label:SM_Cube4 SpatiallyLoaded:1 Bounds:IsValid=true, Min=(X=0.000 Y=5810.000 Z=0.000), Max=(X=1200.000 Y=5910.000 Z=400.000) RuntimeGrid:None EditorOnly:0 RuntimeOnly:0 HLODRelevant:1 ListedInSceneOutliner:1 IsMainWorldOnly:0 FolderPath:Playground FolderGuid:C73F09FC4215536B1DCE2A9E0A830C70
 |   |   |- [+] [ 21]
 |   |   |   |- Guid:82DC8D8041397C74B7D7479CCD59E603 BaseClass:/Game/ThirdPerson/Blueprints/BP_Tintator.BP_Tintator_C NativeClass:/Script/Engine.Actor Name:BP_Tintator_C_UAID_04421AEA3B5E4EBD01_2021016471 Label:BP_Tintator SpatiallyLoaded:1 Bounds:IsValid=true, Min=(X=2520.000 Y=4830.000 Z=-2.500), Max=(X=2680.000 Y=4990.000 Z=247.500) RuntimeGrid:None EditorOnly:0 RuntimeOnly:0 HLODRelevant:0 ListedInSceneOutliner:1 IsMainWorldOnly:0
 |   |   |- [+] [ 22]
 |   |   |   |- Guid:8EFB26F04C8797D54C35269BDA9624F9 BaseClass:/Game/ThirdPerson/Blueprints/BP_Tintator.BP_Tintator_C NativeClass:/Script/Engine.Actor Name:BP_Tintator_C_UAID_04421AEA3B5E7FBF01_1338490222 Label:BP_Tintator2 SpatiallyLoaded:1 Bounds:IsValid=true, Min=(X=2520.000 Y=5430.000 Z=-2.500), Max=(X=2680.000 Y=5590.000 Z=247.500) RuntimeGrid:None EditorOnly:0 RuntimeOnly:0 HLODRelevant:0 ListedInSceneOutliner:1 IsMainWorldOnly:0
 |   |   |- [+] [ 23]
 |   |   |   |- Guid:912F05EA4A97A221DF924B8D0E66F5A9 BaseClass:/Game/Blueprints/BP_Cubito.BP_Cubito_C NativeClass:/Script/Engine.StaticMeshActor Name:BP_Cubito_C_UAID_04421AEA3B5E81B401_1454935949 Label:BP_Cubito SpatiallyLoaded:1 Bounds:IsValid=true, Min=(X=1035.000 Y=4600.000 Z=0.013), Max=(X=1135.000 Y=4700.000 Z=100.013) RuntimeGrid:None EditorOnly:0 RuntimeOnly:0 HLODRelevant:0 ListedInSceneOutliner:1 IsMainWorldOnly:0
 |   |   |- [+] [ 24]
 |   |   |   |- Guid:94B91BE34AD7E4574CAEC1822397EDEE BaseClass: NativeClass:/Script/Engine.PostProcessVolume Name:PostProcessVolume_0 Label:PostProcessVolume SpatiallyLoaded:0 Bounds:IsValid=true, Min=(X=0.000 Y=0.000 Z=400.000), Max=(X=200.000 Y=200.000 Z=600.000) RuntimeGrid:None EditorOnly:0 RuntimeOnly:0 HLODRelevant:0 ListedInSceneOutliner:1 IsMainWorldOnly:0 FolderPath:Lighting FolderGuid:963EC3EB4002CCE9759E2EBA541A873A
 |   |   |- [+] [ 25]
 |   |   |   |- Guid:ADC081484E3D8335459E0EBD752B34F3 BaseClass: NativeClass:/Script/Engine.ExponentialHeightFog Name:ExponentialHeightFog_0 Label:ExponentialHeightFog SpatiallyLoaded:0 Bounds:IsValid=true, Min=(X=-5600.000 Y=-50.000 Z=-6850.000), Max=(X=-5600.000 Y=-50.000 Z=-6850.000) RuntimeGrid:None EditorOnly:0 RuntimeOnly:0 HLODRelevant:0 ListedInSceneOutliner:1 IsMainWorldOnly:0 FolderPath:Lighting FolderGuid:963EC3EB4002CCE9759E2EBA541A873A
 |   |   |- [+] [ 26]
 |   |   |   |- Guid:B0C9F02943C5B973B02F7384A618CF6D BaseClass: NativeClass:/Script/Engine.StaticMeshActor Name:StaticMeshActor_0 Label:SM_Cube5 SpatiallyLoaded:1 Bounds:IsValid=true, Min=(X=-0.000 Y=100.000 Z=0.000), Max=(X=100.000 Y=9250.000 Z=400.000) RuntimeGrid:None EditorOnly:0 RuntimeOnly:0 HLODRelevant:1 ListedInSceneOutliner:1 IsMainWorldOnly:0 FolderPath:Playground FolderGuid:C73F09FC4215536B1DCE2A9E0A830C70
 |   |   |- [+] [ 27]
 |   |   |   |- Guid:B5D9DC64467865A49571F3AEC8D1AE92 BaseClass:/Game/Blueprints/BP_Boton.BP_Boton_C NativeClass:/Script/Engine.Actor Name:BP_Boton_C_UAID_04421AEA3B5E7FBF01_1209838215 Label:BP_Boton4 SpatiallyLoaded:1 Bounds:IsValid=true, Min=(X=2150.000 Y=4900.000 Z=-1.250), Max=(X=2250.000 Y=5000.000 Z=72.000) RuntimeGrid:None EditorOnly:0 RuntimeOnly:0 HLODRelevant:0 ListedInSceneOutliner:1 IsMainWorldOnly:0
 |   |   |- [+] [ 28]
 |   |   |   |- Guid:BB90E1FD47B566A47F59F99C076D849E BaseClass:/Game/Blueprints/BP_Puerta.BP_Puerta_C NativeClass:/Script/Engine.Actor Name:BP_Puerta_C_UAID_04421AEA3B5E7FBF01_1303802219 Label:BP_Puerta4 SpatiallyLoaded:1 Bounds:IsValid=true, Min=(X=1020.000 Y=7489.000 Z=-128.000), Max=(X=1980.000 Y=8339.000 Z=528.000) RuntimeGrid:None EditorOnly:0 RuntimeOnly:0 HLODRelevant:0 ListedInSceneOutliner:1 IsMainWorldOnly:0
 |   |   |- [+] [ 29]
 |   |   |   |- Guid:BD9D773246E253079C645294FB07A53F BaseClass:/Game/Blueprints/BP_BotonTintado.BP_BotonTintado_C NativeClass:/Script/Engine.Actor Name:BP_BotonTintado_C_UAID_04421AEA3B5E7FBF01_1194292214 Label:BP_BotonTintado3 SpatiallyLoaded:1 Bounds:IsValid=true, Min=(X=525.000 Y=5525.000 Z=-0.781), Max=(X=665.000 Y=5665.000 Z=67.000) RuntimeGrid:None EditorOnly:0 RuntimeOnly:0 HLODRelevant:0 ListedInSceneOutliner:1 IsMainWorldOnly:0
 |   |   |- [+] [ 30]
 |   |   |   |- Guid:BE8BC97C4AF14504E7A2A281B2C84EB3 BaseClass:/Game/Blueprints/BP_Boton.BP_Boton_C NativeClass:/Script/Engine.Actor Name:BP_Boton_C_UAID_04421AEA3B5E7DB401_1627592241 Label:BP_Boton3 SpatiallyLoaded:1 Bounds:IsValid=true, Min=(X=1390.000 Y=3170.000 Z=-1.250), Max=(X=1490.000 Y=3270.000 Z=72.000) RuntimeGrid:None EditorOnly:0 RuntimeOnly:0 HLODRelevant:0 ListedInSceneOutliner:1 IsMainWorldOnly:0
 |   |   |- [+] [ 31]
 |   |   |   |- Guid:C66B076C41D1F80E59EC92819017969A BaseClass: NativeClass:/Script/Engine.StaticMeshActor Name:StaticMeshActor_5 Label:SM_Cube2 SpatiallyLoaded:1 Bounds:IsValid=true, Min=(X=0.000 Y=0.000 Z=0.000), Max=(X=3000.000 Y=100.000 Z=400.000) RuntimeGrid:None EditorOnly:0 RuntimeOnly:0 HLODRelevant:1 ListedInSceneOutliner:1 IsMainWorldOnly:0 FolderPath:Playground FolderGuid:C73F09FC4215536B1DCE2A9E0A830C70
 |   |   |- [+] [ 32]
 |   |   |   |- Guid:D4EA3D4247B797C238880DBECCE47611 BaseClass:/Game/Blueprints/BP_BotonTintado.BP_BotonTintado_C NativeClass:/Script/Engine.Actor Name:BP_BotonTintado_C_UAID_04421AEA3B5E7FBF01_1190697213 Label:BP_BotonTintado2 SpatiallyLoaded:1 Bounds:IsValid=true, Min=(X=835.000 Y=5530.000 Z=-0.781), Max=(X=975.000 Y=5670.000 Z=67.000) RuntimeGrid:None EditorOnly:0 RuntimeOnly:0 HLODRelevant:0 ListedInSceneOutliner:1 IsMainWorldOnly:0
 |   |   |- [+] [ 33]
 |   |   |   |- Guid:D7C8687A422BD1FBDDCA7DB492244784 BaseClass: NativeClass:/Script/Engine.PlayerStart Name:PlayerStart_0 Label:PlayerStart SpatiallyLoaded:0 Bounds:IsValid=true, Min=(X=910.000 Y=2400.000 Z=0.013), Max=(X=990.000 Y=2480.000 Z=184.013) RuntimeGrid:None EditorOnly:0 RuntimeOnly:0 HLODRelevant:0 ListedInSceneOutliner:1 IsMainWorldOnly:0
 |   |   |- [+] [ 34]
 |   |   |   |- Guid:DBB479E340C966C18C9B7487FA51CCCA BaseClass: NativeClass:/Script/Engine.SkyLight Name:SkyLight_1 Label:SkyLight SpatiallyLoaded:0 Bounds:IsValid=true, Min=(X=0.000 Y=0.000 Z=690.000), Max=(X=0.000 Y=0.000 Z=690.000) RuntimeGrid:None EditorOnly:0 RuntimeOnly:0 HLODRelevant:0 ListedInSceneOutliner:1 IsMainWorldOnly:0 FolderPath:Lighting FolderGuid:963EC3EB4002CCE9759E2EBA541A873A
 |   |   |- [+] [ 35]
 |   |   |   |- Guid:F325A08D4BAD73D7A73DCAA0B6EDCA65 BaseClass:/Game/Blueprints/BP_Puerta.BP_Puerta_C NativeClass:/Script/Engine.Actor Name:BP_Puerta_C_UAID_04421AEA3B5E7EBF01_2058048034 Label:BP_Puerta2 SpatiallyLoaded:1 Bounds:IsValid=true, Min=(X=1319.000 Y=5025.000 Z=-128.000), Max=(X=2169.000 Y=5985.000 Z=528.000) RuntimeGrid:None EditorOnly:0 RuntimeOnly:0 HLODRelevant:0 ListedInSceneOutliner:1 IsMainWorldOnly:0
 |   |   |- [+] [ 36]
 |   |   |   |- Guid:FC510A564F98EC7DF3BB00B26FDACBF9 BaseClass:/Game/Blueprints/BP_Boton.BP_Boton_C NativeClass:/Script/Engine.Actor Name:BP_Boton_C_UAID_04421AEA3B5E7FBF01_1314265220 Label:BP_Boton5 SpatiallyLoaded:1 Bounds:IsValid=true, Min=(X=1050.000 Y=8050.000 Z=-1.250), Max=(X=1150.000 Y=8150.000 Z=72.000) RuntimeGrid:None EditorOnly:0 RuntimeOnly:0 HLODRelevant:0 ListedInSceneOutliner:1 IsMainWorldOnly:0
 |- ContainerInstances:
 |- [+] MainContainer:
 |   |-        ID: 00000000000000000000000000000000
 |   |-  ParentID: 00000000000000000000000000000000
 |   |-    Bounds: IsValid=false, Min=(X=0.000 Y=0.000 Z=0.000), Max=(X=0.000 Y=0.000 Z=0.000)
 |   |- Transform: 0.000000,0.000000,0.000000|0.000000,0.000000,-0.000000|1.000000,1.000000,1.000000
 |   |- Container: /Game/Scenes/EjercicioT2
----------------------------------------------------------------------------------------------------------------
EjercicioT2 - Persistent Level
----------------------------------------------------------------------------------------------------------------
[+] Content of EjercicioT2 Persistent Level
 |- Always loaded Actor Count: 44 
 |- Actor Path: /Game/Scenes/EjercicioT2.EjercicioT2:PersistentLevel.AbstractNavData-Default
 |- Actor Package: /Game/Scenes/EjercicioT2
 |- Actor Path: /Game/Scenes/EjercicioT2.EjercicioT2:PersistentLevel.BP_Boton_C_UAID_04421AEA3B5E7DB401_1627592241
 |- Actor Package: /Game/__ExternalActors__/Scenes/EjercicioT2/7/23/XHR3U1JGGXPEHC3KWEPCA4
 |- Actor Path: /Game/Scenes/EjercicioT2.EjercicioT2:PersistentLevel.BP_Boton_C_UAID_04421AEA3B5E7FBF01_1209838215
 |- Actor Package: /Game/__ExternalActors__/Scenes/EjercicioT2/2/09/93HJPNEKKU6HYKHR1SWP9C
 |- Actor Path: /Game/Scenes/EjercicioT2.EjercicioT2:PersistentLevel.BP_Boton_C_UAID_04421AEA3B5E7FBF01_1314265220
 |- Actor Package: /Game/__ExternalActors__/Scenes/EjercicioT2/A/PW/RU2DVRMDP71UAHWOD4SHLM
 |- Actor Path: /Game/Scenes/EjercicioT2.EjercicioT2:PersistentLevel.BP_Boton_C_UAID_04421AEA3B5E7FBF01_1322418221
 |- Actor Package: /Game/__ExternalActors__/Scenes/EjercicioT2/B/64/P350LIEU1YBMR0B6T9BUAY
 |- Actor Path: /Game/Scenes/EjercicioT2.EjercicioT2:PersistentLevel.BP_BotonMano_C_UAID_04421AEA3B5EAFB601_1316598151
 |- Actor Package: /Game/__ExternalActors__/Scenes/EjercicioT2/1/AQ/UZ9XISW97V7ZYK4KAMCDE9
 |- Actor Path: /Game/Scenes/EjercicioT2.EjercicioT2:PersistentLevel.BP_BotonTintado_C_UAID_04421AEA3B5E7FBF01_1190697213
 |- Actor Package: /Game/__ExternalActors__/Scenes/EjercicioT2/4/MZ/QZPGX0NYMILWO5VKN6ID4B
 |- Actor Path: /Game/Scenes/EjercicioT2.EjercicioT2:PersistentLevel.BP_BotonTintado_C_UAID_04421AEA3B5E7FBF01_1194292214
 |- Actor Package: /Game/__ExternalActors__/Scenes/EjercicioT2/D/9G/39X2PQUE5GTCAX5H98UBRP
 |- Actor Path: /Game/Scenes/EjercicioT2.EjercicioT2:PersistentLevel.BP_Cubito_C_UAID_04421AEA3B5E81B401_1454935949
 |- Actor Package: /Game/__ExternalActors__/Scenes/EjercicioT2/C/UM/R13DD2P4T8TUZQV99OBA46
 |- Actor Path: /Game/Scenes/EjercicioT2.EjercicioT2:PersistentLevel.BP_Dispensador_C_UAID_04421AEA3B5E7FBF01_1263108216
 |- Actor Package: /Game/__ExternalActors__/Scenes/EjercicioT2/1/8V/EHGPJJZMULLAUD6Z8G6DAX
 |- Actor Path: /Game/Scenes/EjercicioT2.EjercicioT2:PersistentLevel.BP_PiezaDePuzle_C_UAID_04421AEA3B5E83BF01_1120116912
 |- Actor Package: /Game/__ExternalActors__/Scenes/EjercicioT2/D/TM/NAYUCGWZCI5SGCW4OE5VHT
 |- Actor Path: /Game/Scenes/EjercicioT2.EjercicioT2:PersistentLevel.BP_Puerta_C_UAID_04421AEA3B5E7EB401_1956649418
 |- Actor Package: /Game/__ExternalActors__/Scenes/EjercicioT2/2/ME/MWJF6RAJE2KBCWT0O0POYV
 |- Actor Path: /Game/Scenes/EjercicioT2.EjercicioT2:PersistentLevel.BP_Puerta_C_UAID_04421AEA3B5E7EBF01_2058048034
 |- Actor Package: /Game/__ExternalActors__/Scenes/EjercicioT2/C/L4/7QWPMC29QYS02SAKU6NHX5
 |- Actor Path: /Game/Scenes/EjercicioT2.EjercicioT2:PersistentLevel.BP_Puerta_C_UAID_04421AEA3B5E7FBF01_1145833212
 |- Actor Package: /Game/__ExternalActors__/Scenes/EjercicioT2/C/8B/B5SV51LVMEIH64MGMHWUXD
 |- Actor Path: /Game/Scenes/EjercicioT2.EjercicioT2:PersistentLevel.BP_Puerta_C_UAID_04421AEA3B5E7FBF01_1303802219
 |- Actor Package: /Game/__ExternalActors__/Scenes/EjercicioT2/E/7K/BGKETGASVF2OU81JNOBOLS
 |- Actor Path: /Game/Scenes/EjercicioT2.EjercicioT2:PersistentLevel.BP_Tintator_C_UAID_04421AEA3B5E4EBD01_2021016471
 |- Actor Package: /Game/__ExternalActors__/Scenes/EjercicioT2/6/4S/7ZP39L58A1A22QP5BZKGNY
 |- Actor Path: /Game/Scenes/EjercicioT2.EjercicioT2:PersistentLevel.BP_Tintator_C_UAID_04421AEA3B5E7FBF01_1338490222
 |- Actor Package: /Game/__ExternalActors__/Scenes/EjercicioT2/4/95/2J1Q7GKIIWYFCGNLEXI3CI
 |- Actor Path: /Game/Scenes/EjercicioT2.EjercicioT2:PersistentLevel.Brush_0
 |- Actor Package: /Game/Scenes/EjercicioT2
 |- Actor Path: /Game/Scenes/EjercicioT2.EjercicioT2:PersistentLevel.DefaultPhysicsVolume_0
 |- Actor Package: /Game/Scenes/EjercicioT2
 |- Actor Path: /Game/Scenes/EjercicioT2.EjercicioT2:PersistentLevel.DirectionalLight_0
 |- Actor Package: /Game/__ExternalActors__/Scenes/EjercicioT2/1/L4/9F75N073D1878FA8RQBYUA
 |- Actor Path: /Game/Scenes/EjercicioT2.EjercicioT2:PersistentLevel.EjercicioT2_C_11
 |- Actor Package: /Game/Scenes/EjercicioT2
 |- Actor Path: /Game/Scenes/EjercicioT2.EjercicioT2:PersistentLevel.ExponentialHeightFog_0
 |- Actor Package: /Game/__ExternalActors__/Scenes/EjercicioT2/C/KO/OJ6Y6T1U45VDLOKUR7CZ9X
 |- Actor Path: /Game/Scenes/EjercicioT2.EjercicioT2:PersistentLevel.GameplayDebuggerPlayerManager_0
 |- Actor Package: /Game/Scenes/EjercicioT2
 |- Actor Path: /Game/Scenes/EjercicioT2.EjercicioT2:PersistentLevel.PlayerStart_0
 |- Actor Package: /Game/__ExternalActors__/Scenes/EjercicioT2/2/FR/130FT9AYDWMYWO36EB8071
 |- Actor Path: /Game/Scenes/EjercicioT2.EjercicioT2:PersistentLevel.PostProcessVolume_0
 |- Actor Package: /Game/__ExternalActors__/Scenes/EjercicioT2/4/RX/7TXMC224T7HS36DEXXSR3Y
 |- Actor Path: /Game/Scenes/EjercicioT2.EjercicioT2:PersistentLevel.SkyAtmosphere_0
 |- Actor Package: /Game/__ExternalActors__/Scenes/EjercicioT2/3/NU/XTT3XZOFI43FZ9NU8UN9PR
 |- Actor Path: /Game/Scenes/EjercicioT2.EjercicioT2:PersistentLevel.SkyLight_1
 |- Actor Package: /Game/__ExternalActors__/Scenes/EjercicioT2/3/G1/Q73AT6JQP7GLKQS8ZA069Z
 |- Actor Path: /Game/Scenes/EjercicioT2.EjercicioT2:PersistentLevel.StaticMeshActor_0
 |- Actor Package: /Game/__ExternalActors__/Scenes/EjercicioT2/C/K8/O51A8AFAFIRBETOCKI1N16
 |- Actor Path: /Game/Scenes/EjercicioT2.EjercicioT2:PersistentLevel.StaticMeshActor_1
 |- Actor Package: /Game/__ExternalActors__/Scenes/EjercicioT2/B/64/FXJ1N8QKUTGW1EF9DENMDC
 |- Actor Path: /Game/Scenes/EjercicioT2.EjercicioT2:PersistentLevel.StaticMeshActor_4
 |- Actor Package: /Game/__ExternalActors__/Scenes/EjercicioT2/9/IS/B6QODVK1JGUUZ97G3Q2XFP
 |- Actor Path: /Game/Scenes/EjercicioT2.EjercicioT2:PersistentLevel.StaticMeshActor_5
 |- Actor Package: /Game/__ExternalActors__/Scenes/EjercicioT2/3/SK/E5JKBSTCY3SWIBKK5QV7SH
 |- Actor Path: /Game/Scenes/EjercicioT2.EjercicioT2:PersistentLevel.StaticMeshActor_6
 |- Actor Package: /Game/__ExternalActors__/Scenes/EjercicioT2/B/4J/MLCMG1M6ANLHSIHA2QQXK4
 |- Actor Path: /Game/Scenes/EjercicioT2.EjercicioT2:PersistentLevel.StaticMeshActor_UAID_04421AEA3B5E16B001_1833886887
 |- Actor Package: /Game/__ExternalActors__/Scenes/EjercicioT2/7/VD/MZ6RBO8WF2TE2ZXPX7E1KP
 |- Actor Path: /Game/Scenes/EjercicioT2.EjercicioT2:PersistentLevel.StaticMeshActor_UAID_04421AEA3B5E7EBF01_2038289032
 |- Actor Package: /Game/__ExternalActors__/Scenes/EjercicioT2/4/VI/JIZ29TNIBAZLH35FIRP8S0
 |- Actor Path: /Game/Scenes/EjercicioT2.EjercicioT2:PersistentLevel.StaticMeshActor_UAID_04421AEA3B5E7EBF01_2051333033
 |- Actor Package: /Game/__ExternalActors__/Scenes/EjercicioT2/6/KY/IW3ITESJMCFM2E5ZPPQF5N
 |- Actor Path: /Game/Scenes/EjercicioT2.EjercicioT2:PersistentLevel.StaticMeshActor_UAID_04421AEA3B5E7FBF01_1114921211
 |- Actor Package: /Game/__ExternalActors__/Scenes/EjercicioT2/5/99/5DNXMYNUX2K2R8EMKZMCDS
 |- Actor Path: /Game/Scenes/EjercicioT2.EjercicioT2:PersistentLevel.StaticMeshActor_UAID_04421AEA3B5E7FBF01_1297655217
 |- Actor Package: /Game/__ExternalActors__/Scenes/EjercicioT2/0/QY/3KS6JNJIRSVRBP3XDY7798
 |- Actor Path: /Game/Scenes/EjercicioT2.EjercicioT2:PersistentLevel.StaticMeshActor_UAID_04421AEA3B5E7FBF01_1297656218
 |- Actor Package: /Game/__ExternalActors__/Scenes/EjercicioT2/7/3V/PIFWENE5IK1ONSPA1BP5CH
 |- Actor Path: /Game/Scenes/EjercicioT2.EjercicioT2:PersistentLevel.StaticMeshActor_UAID_A4AE111137DC5EFB00_1110535423
 |- Actor Package: /Game/__ExternalActors__/Scenes/EjercicioT2/3/V5/LEYQXCPS9EQAXKH9JDZX09
 |- Actor Path: /Game/Scenes/EjercicioT2.EjercicioT2:PersistentLevel.TextRenderActor_1
 |- Actor Package: /Game/__ExternalActors__/Scenes/EjercicioT2/7/I0/86L7ZKTQ9CC7UK12BUEPF9
 |- Actor Path: /Game/Scenes/EjercicioT2.EjercicioT2:PersistentLevel.VolumetricCloud_0
 |- Actor Package: /Game/__ExternalActors__/Scenes/EjercicioT2/8/GZ/AQW0YERI71RH68XGMKX6NP
 |- Actor Path: /Game/Scenes/EjercicioT2.EjercicioT2:PersistentLevel.WorldDataLayers
 |- Actor Package: /Game/__ExternalActors__/Scenes/EjercicioT2/E/4K/3I38BBO76TAX2X26KHN1WP
 |- Actor Path: /Game/Scenes/EjercicioT2.EjercicioT2:PersistentLevel.WorldInfo_0
 |- Actor Package: /Game/Scenes/EjercicioT2
 |- Actor Path: /Game/Scenes/EjercicioT2.EjercicioT2:PersistentLevel.WorldPartitionMiniMap_0
 |- Actor Package: /Game/__ExternalActors__/Scenes/EjercicioT2/6/DW/C8BHZYOX6PRYWN5GJBSQOP

----------------------------------------------------------------------------------------------------------------
EjercicioT2 - Runtime Spatial Hash - Streaming Grid - MainGrid
----------------------------------------------------------------------------------------------------------------
            Origin: X=0.000 Y=0.000 Z=0.000
         Cell Size: 12800
      World Bounds: IsValid=false, Min=(X=0.000 Y=0.000 Z=0.000), Max=(X=0.000 Y=0.000 Z=0.000)
     Loading Range: 25600.00
Block Slow Loading: No
 ClientOnlyVisible: No
            Origin: X=0.000 Y=0.000 Z=0.000

[+] Grid Levels: 1
 |- Level  0: Cell Count    0 | Cell Size   12800 | Actor Count    0 (0.0%)

[+] Content of Grid Level 0

