[+] Containers:
 |- [+] Container: /Game/Scenes/EjercicioT2
 |   |- [+] ActorDescs:
 |   |   |- Guid:047AFB4B4732F2F4EF3E089C95E18E3C BaseClass: NativeClass:/Script/Engine.DirectionalLight Name:DirectionalLight_0 Label:DirectionalLight SpatiallyLoaded:0 Bounds:IsValid=true, Min=(X=-4398046511104.000 Y=-4398046511104.000 Z=-4398046511104.000), Max=(X=4398046511104.000 Y=4398046511104.000 Z=4398046511104.000) RuntimeGrid:None EditorOnly:0 RuntimeOnly:0 HLODRelevant:0 ListedInSceneOutliner:1 IsMainWorldOnly:0 FolderPath:Lighting FolderGuid:963EC3EB4002CCE9759E2EBA541A873A
 |   |   |- Guid:06D1D3A34C5225FAEE8077AB948A3D26 BaseClass: NativeClass:/Script/Engine.SkyAtmosphere Name:SkyAtmosphere_0 Label:SkyAtmosphere SpatiallyLoaded:0 Bounds:IsValid=true, Min=(X=0.000 Y=0.000 Z=1020.000), Max=(X=0.000 Y=0.000 Z=1020.000) RuntimeGrid:None EditorOnly:0 RuntimeOnly:0 HLODRelevant:0 ListedInSceneOutliner:1 IsMainWorldOnly:0 FolderPath:Lighting FolderGuid:963EC3EB4002CCE9759E2EBA541A873A
 |   |   |- Guid:140B16FE4298A7BB13BC7D813C32B7C7 BaseClass:/Game/Blueprints/BP_Puerta.BP_Puerta_C NativeClass:/Script/Engine.Actor Name:BP_Puerta_C_UAID_04421AEA3B5E7EB401_1956649418 Label:BP_Puerta SpatiallyLoaded:1 Bounds:IsValid=true, Min=(X=1320.000 Y=2634.000 Z=-128.000), Max=(X=2280.000 Y=3484.000 Z=528.000) RuntimeGrid:None EditorOnly:0 RuntimeOnly:0 HLODRelevant:0 ListedInSceneOutliner:1 IsMainWorldOnly:0
 |   |   |- Guid:266477B948B811E503664EB0E27A5902 BaseClass:/Game/Blueprints/BP_Exit.BP_Exit_C NativeClass:/Script/Engine.Actor Name:BP_Exit_C_UAID_581122D05785F6C101_1524360263 Label:BP_Exit SpatiallyLoaded:1 Bounds:IsValid=true, Min=(X=1630.000 Y=4630.000 Z=-2.118), Max=(X=1770.000 Y=4770.000 Z=171.000) RuntimeGrid:None EditorOnly:0 RuntimeOnly:0 HLODRelevant:0 ListedInSceneOutliner:1 IsMainWorldOnly:0
 |   |   |- Guid:287A72E94ED9BE93B759A3BBD082A0F3 BaseClass: NativeClass:/Script/Engine.StaticMeshActor Name:StaticMeshActor_UAID_04421AEA3B5E7EBF01_2038289032 Label:SM_Cube15 SpatiallyLoaded:1 Bounds:IsValid=true, Min=(X=-0.000 Y=5800.000 Z=0.000), Max=(X=3000.000 Y=5900.000 Z=400.000) RuntimeGrid:None EditorOnly:0 RuntimeOnly:0 HLODRelevant:1 ListedInSceneOutliner:1 IsMainWorldOnly:0 FolderPath:Playground FolderGuid:C73F09FC4215536B1DCE2A9E0A830C70
 |   |   |- Guid:29A313414D8EAE4E85CD09B2CE11071D BaseClass: NativeClass:/Script/Engine.StaticMeshActor Name:StaticMeshActor_6 Label:SM_Cube3 SpatiallyLoaded:1 Bounds:IsValid=true, Min=(X=0.000 Y=3400.000 Z=0.000), Max=(X=1500.000 Y=3500.000 Z=400.000) RuntimeGrid:None EditorOnly:0 RuntimeOnly:0 HLODRelevant:1 ListedInSceneOutliner:1 IsMainWorldOnly:0 FolderPath:Playground FolderGuid:C73F09FC4215536B1DCE2A9E0A830C70
 |   |   |- Guid:2CEE18894AA0B9DCF4C1BBB361D268EB BaseClass:/Game/Blueprints/BP_Teletransporte.BP_Teletransporte_C NativeClass:/Script/Engine.Actor Name:BP_Teletransporte_C_UAID_04421AEA3B5EB7C101_1401132180 Label:BP_Teletransporte SpatiallyLoaded:1 Bounds:IsValid=true, Min=(X=160.000 Y=120.000 Z=0.000), Max=(X=465.000 Y=280.000 Z=262.500) RuntimeGrid:None EditorOnly:0 RuntimeOnly:0 HLODRelevant:0 ListedInSceneOutliner:1 IsMainWorldOnly:0
 |   |   |- Guid:36B54AE54F0826FE78E98092F48AB90C BaseClass: NativeClass:/Script/Engine.StaticMeshActor Name:StaticMeshActor_1 Label:SM_Cube SpatiallyLoaded:1 Bounds:IsValid=true, Min=(X=0.000 Y=0.000 Z=-50.000), Max=(X=3000.000 Y=5900.000 Z=0.000) RuntimeGrid:None EditorOnly:0 RuntimeOnly:0 HLODRelevant:1 ListedInSceneOutliner:1 IsMainWorldOnly:0 FolderPath:Playground FolderGuid:C73F09FC4215536B1DCE2A9E0A830C70
 |   |   |- Guid:420D09E64144F50F976F4A93CF1E3D5F BaseClass:/Game/Blueprints/BP_Dispensador.BP_Dispensador_C NativeClass:/Script/Engine.Actor Name:BP_Dispensador_C_UAID_04421AEA3B5EB7C101_1191958178 Label:BP_Dispensador2 SpatiallyLoaded:1 Bounds:IsValid=true, Min=(X=2380.000 Y=3075.000 Z=280.000), Max=(X=2745.000 Y=3325.000 Z=440.000) RuntimeGrid:None EditorOnly:0 RuntimeOnly:0 HLODRelevant:0 ListedInSceneOutliner:1 IsMainWorldOnly:0
 |   |   |- Guid:4D49EDE74D9CA8D735ABBC928EA431ED BaseClass: NativeClass:/Script/Engine.StaticMeshActor Name:StaticMeshActor_UAID_04421AEA3B5E16B001_1833886887 Label:SM_Cube14 SpatiallyLoaded:1 Bounds:IsValid=true, Min=(X=2100.000 Y=3400.000 Z=0.000), Max=(X=3000.000 Y=3500.000 Z=400.000) RuntimeGrid:None EditorOnly:0 RuntimeOnly:0 HLODRelevant:1 ListedInSceneOutliner:1 IsMainWorldOnly:0 FolderPath:Playground FolderGuid:C73F09FC4215536B1DCE2A9E0A830C70
 |   |   |- Guid:54846C8E4B5451E1A2C0CCB974493C96 BaseClass: NativeClass:/Script/Engine.WorldDataLayers Name:WorldDataLayers Label:WorldDataLayers SpatiallyLoaded:0 Bounds:Invalid RuntimeGrid:None EditorOnly:0 RuntimeOnly:0 HLODRelevant:0 ListedInSceneOutliner:1 IsMainWorldOnly:1
 |   |   |- Guid:5AC2E85C43EB41F109D52F8F6ABB4AB7 BaseClass: NativeClass:/Script/Engine.VolumetricCloud Name:VolumetricCloud_0 Label:VolumetricCloud SpatiallyLoaded:0 Bounds:IsValid=true, Min=(X=0.000 Y=0.000 Z=820.000), Max=(X=0.000 Y=0.000 Z=820.000) RuntimeGrid:None EditorOnly:0 RuntimeOnly:0 HLODRelevant:0 ListedInSceneOutliner:1 IsMainWorldOnly:0 FolderPath:Lighting FolderGuid:963EC3EB4002CCE9759E2EBA541A873A
 |   |   |- Guid:5C3C038D44E5CED3A898E4BCC12FE860 BaseClass: NativeClass:/Script/Engine.StaticMeshActor Name:StaticMeshActor_UAID_A4AE111137DC5EFB00_1110535423 Label:SM_SkySphere SpatiallyLoaded:0 Bounds:IsValid=true, Min=(X=-1638400.000 Y=-1638400.000 Z=-1638400.000), Max=(X=1638400.000 Y=1638400.000 Z=1638400.000) RuntimeGrid:None EditorOnly:0 RuntimeOnly:0 HLODRelevant:1 ListedInSceneOutliner:1 IsMainWorldOnly:0 FolderPath:Lighting FolderGuid:963EC3EB4002CCE9759E2EBA541A873A
 |   |   |- Guid:5FC4D6B941E71AC1B05C608729E6C08E BaseClass:/Game/Blueprints/EjercicioT2/BP_PiezaDePuzle.BP_PiezaDePuzle_C NativeClass:/Script/Engine.Actor Name:BP_PiezaDePuzle_C_UAID_04421AEA3B5E83BF01_1120116912 Label:BP_PiezaDePuzle SpatiallyLoaded:1 Bounds:IsValid=true, Min=(X=2365.600 Y=2645.600 Z=0.000), Max=(X=2634.400 Y=2914.400 Z=250.000) RuntimeGrid:None EditorOnly:0 RuntimeOnly:0 HLODRelevant:0 ListedInSceneOutliner:1 IsMainWorldOnly:0
 |   |   |- Guid:60E65E884A4DCD8AD41621B28F93F7BB BaseClass: NativeClass:/Script/Engine.StaticMeshActor Name:StaticMeshActor_4 Label:SM_Cube6 SpatiallyLoaded:1 Bounds:IsValid=true, Min=(X=2900.000 Y=100.000 Z=0.000), Max=(X=3000.000 Y=5900.000 Z=400.000) RuntimeGrid:None EditorOnly:0 RuntimeOnly:0 HLODRelevant:1 ListedInSceneOutliner:1 IsMainWorldOnly:0 FolderPath:Playground FolderGuid:C73F09FC4215536B1DCE2A9E0A830C70
 |   |   |- Guid:62B52CA542BECAC6BB4F09AD8E22D068 BaseClass: NativeClass:/Script/Engine.StaticMeshActor Name:StaticMeshActor_UAID_04421AEA3B5E7FBF01_1114921211 Label:SM_Cube16 SpatiallyLoaded:1 Bounds:IsValid=true, Min=(X=2100.000 Y=700.000 Z=0.000), Max=(X=3000.000 Y=800.000 Z=400.000) RuntimeGrid:None EditorOnly:0 RuntimeOnly:0 HLODRelevant:1 ListedInSceneOutliner:1 IsMainWorldOnly:0 FolderPath:Playground FolderGuid:C73F09FC4215536B1DCE2A9E0A830C70
 |   |   |- Guid:63D753114785B0159051C08C7C8812E9 BaseClass: NativeClass:/Script/Engine.TextRenderActor Name:TextRenderActor_1 Label:TextRenderActor SpatiallyLoaded:1 Bounds:IsValid=true, Min=(X=-0.100 Y=1100.000 Z=65.013), Max=(X=-0.100 Y=2392.308 Z=215.013) RuntimeGrid:None EditorOnly:0 RuntimeOnly:0 HLODRelevant:0 ListedInSceneOutliner:1 IsMainWorldOnly:0
 |   |   |- Guid:7C5CBA824F3E0F461290E4BA0561EEB9 BaseClass:/Game/Blueprints/BP_Boton.BP_Boton_C NativeClass:/Script/Engine.Actor Name:BP_Boton_C_UAID_04421AEA3B5EB7C101_1176264177 Label:BP_Boton SpatiallyLoaded:1 Bounds:IsValid=true, Min=(X=2455.000 Y=3150.000 Z=-1.250), Max=(X=2555.000 Y=3250.000 Z=72.000) RuntimeGrid:None EditorOnly:0 RuntimeOnly:0 HLODRelevant:0 ListedInSceneOutliner:1 IsMainWorldOnly:0
 |   |   |- Guid:82DC8D8041397C74B7D7479CCD59E603 BaseClass:/Game/Blueprints/BP_Tintator.BP_Tintator_C NativeClass:/Script/Engine.Actor Name:BP_Tintator_C_UAID_04421AEA3B5E4EBD01_2021016471 Label:BP_Tintator SpatiallyLoaded:1 Bounds:IsValid=true, Min=(X=2520.000 Y=320.000 Z=-2.500), Max=(X=2680.000 Y=480.000 Z=247.500) RuntimeGrid:None EditorOnly:0 RuntimeOnly:0 HLODRelevant:0 ListedInSceneOutliner:1 IsMainWorldOnly:0
 |   |   |- Guid:8EFB26F04C8797D54C35269BDA9624F9 BaseClass:/Game/Blueprints/BP_Tintator.BP_Tintator_C NativeClass:/Script/Engine.Actor Name:BP_Tintator_C_UAID_04421AEA3B5E7FBF01_1338490222 Label:BP_Tintator2 SpatiallyLoaded:1 Bounds:IsValid=true, Min=(X=2520.000 Y=1020.000 Z=-2.500), Max=(X=2680.000 Y=1180.000 Z=247.500) RuntimeGrid:None EditorOnly:0 RuntimeOnly:0 HLODRelevant:0 ListedInSceneOutliner:1 IsMainWorldOnly:0
 |   |   |- Guid:912F05EA4A97A221DF924B8D0E66F5A9 BaseClass:/Game/Blueprints/BP_Cubito.BP_Cubito_C NativeClass:/Script/Engine.StaticMeshActor Name:BP_Cubito_C_UAID_04421AEA3B5E81B401_1454935949 Label:BP_Cubito SpatiallyLoaded:1 Bounds:IsValid=true, Min=(X=1035.000 Y=4600.000 Z=0.013), Max=(X=1135.000 Y=4700.000 Z=100.013) RuntimeGrid:None EditorOnly:0 RuntimeOnly:0 HLODRelevant:0 ListedInSceneOutliner:1 IsMainWorldOnly:0
 |   |   |- Guid:94B91BE34AD7E4574CAEC1822397EDEE BaseClass: NativeClass:/Script/Engine.PostProcessVolume Name:PostProcessVolume_0 Label:PostProcessVolume SpatiallyLoaded:0 Bounds:IsValid=true, Min=(X=0.000 Y=0.000 Z=400.000), Max=(X=200.000 Y=200.000 Z=600.000) RuntimeGrid:None EditorOnly:0 RuntimeOnly:0 HLODRelevant:0 ListedInSceneOutliner:1 IsMainWorldOnly:0 FolderPath:Lighting FolderGuid:963EC3EB4002CCE9759E2EBA541A873A
 |   |   |- Guid:9C965D054FD8433FEEAF4F8F9CD2DCB1 BaseClass: NativeClass:/Script/Engine.StaticMeshActor Name:StaticMeshActor_UAID_04421AEA3B5EB6C101_2053379000 Label:SM_Cube8 SpatiallyLoaded:1 Bounds:IsValid=true, Min=(X=600.000 Y=1650.000 Z=0.000), Max=(X=1200.000 Y=2250.000 Z=200.000) RuntimeGrid:None EditorOnly:0 RuntimeOnly:0 HLODRelevant:1 ListedInSceneOutliner:1 IsMainWorldOnly:0 FolderPath:Playground FolderGuid:C73F09FC4215536B1DCE2A9E0A830C70
 |   |   |- Guid:ADC081484E3D8335459E0EBD752B34F3 BaseClass: NativeClass:/Script/Engine.ExponentialHeightFog Name:ExponentialHeightFog_0 Label:ExponentialHeightFog SpatiallyLoaded:0 Bounds:IsValid=true, Min=(X=-5600.000 Y=-50.000 Z=-6850.000), Max=(X=-5600.000 Y=-50.000 Z=-6850.000) RuntimeGrid:None EditorOnly:0 RuntimeOnly:0 HLODRelevant:0 ListedInSceneOutliner:1 IsMainWorldOnly:0 FolderPath:Lighting FolderGuid:963EC3EB4002CCE9759E2EBA541A873A
 |   |   |- Guid:AE6361C44DCF546FACCB019AEECED899 BaseClass:/Game/Blueprints/EjercicioT2/BP_PiezaDePuzle.BP_PiezaDePuzle_C NativeClass:/Script/Engine.Actor Name:BP_PiezaDePuzle_C_UAID_04421AEA3B5EB4C101_1134823647 Label:BP_PiezaDePuzle2 SpatiallyLoaded:1 Bounds:IsValid=true, Min=(X=1160.600 Y=3115.600 Z=0.000), Max=(X=1429.400 Y=3384.400 Z=250.000) RuntimeGrid:None EditorOnly:0 RuntimeOnly:0 HLODRelevant:0 ListedInSceneOutliner:1 IsMainWorldOnly:0
 |   |   |- Guid:B0C9F02943C5B973B02F7384A618CF6D BaseClass: NativeClass:/Script/Engine.StaticMeshActor Name:StaticMeshActor_0 Label:SM_Cube5 SpatiallyLoaded:1 Bounds:IsValid=true, Min=(X=-0.000 Y=100.000 Z=0.000), Max=(X=100.000 Y=5800.000 Z=400.000) RuntimeGrid:None EditorOnly:0 RuntimeOnly:0 HLODRelevant:1 ListedInSceneOutliner:1 IsMainWorldOnly:0 FolderPath:Playground FolderGuid:C73F09FC4215536B1DCE2A9E0A830C70
 |   |   |- Guid:B5D9DC64467865A49571F3AEC8D1AE92 BaseClass:/Game/Blueprints/BP_Boton.BP_Boton_C NativeClass:/Script/Engine.Actor Name:BP_Boton_C_UAID_04421AEA3B5E7FBF01_1209838215 Label:BP_Boton4 SpatiallyLoaded:1 Bounds:IsValid=true, Min=(X=2150.000 Y=950.000 Z=-1.250), Max=(X=2250.000 Y=1050.000 Z=72.000) RuntimeGrid:None EditorOnly:0 RuntimeOnly:0 HLODRelevant:0 ListedInSceneOutliner:1 IsMainWorldOnly:0
 |   |   |- Guid:BBD870CF44A3C841B43B1EA5793B750E BaseClass:/Game/Blueprints/BP_BotonMano.BP_BotonMano_C NativeClass:/Script/Engine.Actor Name:BP_BotonMano_C_UAID_04421AEA3B5EB7C101_1226619179 Label:BP_BotonMano2 SpatiallyLoaded:1 Bounds:IsValid=true, Min=(X=1061.600 Y=1870.000 Z=120.000), Max=(X=1340.000 Y=2030.000 Z=303.000) RuntimeGrid:None EditorOnly:0 RuntimeOnly:0 HLODRelevant:0 ListedInSceneOutliner:1 IsMainWorldOnly:0
 |   |   |- Guid:BD9D773246E253079C645294FB07A53F BaseClass:/Game/Blueprints/BP_BotonTintado.BP_BotonTintado_C NativeClass:/Script/Engine.Actor Name:BP_BotonTintado_C_UAID_04421AEA3B5E7FBF01_1194292214 Label:BP_BotonTintado3 SpatiallyLoaded:1 Bounds:IsValid=true, Min=(X=830.000 Y=1780.000 Z=204.219), Max=(X=970.000 Y=1920.000 Z=272.000) RuntimeGrid:None EditorOnly:0 RuntimeOnly:0 HLODRelevant:0 ListedInSceneOutliner:1 IsMainWorldOnly:0
 |   |   |- Guid:C66B076C41D1F80E59EC92819017969A BaseClass: NativeClass:/Script/Engine.StaticMeshActor Name:StaticMeshActor_5 Label:SM_Cube2 SpatiallyLoaded:1 Bounds:IsValid=true, Min=(X=0.000 Y=0.000 Z=0.000), Max=(X=3000.000 Y=100.000 Z=400.000) RuntimeGrid:None EditorOnly:0 RuntimeOnly:0 HLODRelevant:1 ListedInSceneOutliner:1 IsMainWorldOnly:0 FolderPath:Playground FolderGuid:C73F09FC4215536B1DCE2A9E0A830C70
 |   |   |- Guid:D4EA3D4247B797C238880DBECCE47611 BaseClass:/Game/Blueprints/BP_BotonTintado.BP_BotonTintado_C NativeClass:/Script/Engine.Actor Name:BP_BotonTintado_C_UAID_04421AEA3B5E7FBF01_1190697213 Label:BP_BotonTintado2 SpatiallyLoaded:1 Bounds:IsValid=true, Min=(X=825.000 Y=1980.000 Z=204.219), Max=(X=965.000 Y=2120.000 Z=272.000) RuntimeGrid:None EditorOnly:0 RuntimeOnly:0 HLODRelevant:0 ListedInSceneOutliner:1 IsMainWorldOnly:0
 |   |   |- Guid:D7C8687A422BD1FBDDCA7DB492244784 BaseClass: NativeClass:/Script/Engine.PlayerStart Name:PlayerStart_0 Label:PlayerStart SpatiallyLoaded:0 Bounds:IsValid=true, Min=(X=910.000 Y=2400.000 Z=0.013), Max=(X=990.000 Y=2480.000 Z=184.013) RuntimeGrid:None EditorOnly:0 RuntimeOnly:0 HLODRelevant:0 ListedInSceneOutliner:1 IsMainWorldOnly:0
 |   |   |- Guid:DBB479E340C966C18C9B7487FA51CCCA BaseClass: NativeClass:/Script/Engine.SkyLight Name:SkyLight_1 Label:SkyLight SpatiallyLoaded:0 Bounds:IsValid=true, Min=(X=0.000 Y=0.000 Z=690.000), Max=(X=0.000 Y=0.000 Z=690.000) RuntimeGrid:None EditorOnly:0 RuntimeOnly:0 HLODRelevant:0 ListedInSceneOutliner:1 IsMainWorldOnly:0 FolderPath:Lighting FolderGuid:963EC3EB4002CCE9759E2EBA541A873A
 |   |   |- Guid:F325A08D4BAD73D7A73DCAA0B6EDCA65 BaseClass:/Game/Blueprints/BP_Puerta.BP_Puerta_C NativeClass:/Script/Engine.Actor Name:BP_Puerta_C_UAID_04421AEA3B5E7EBF01_2058048034 Label:BP_Puerta2 SpatiallyLoaded:1 Bounds:IsValid=true, Min=(X=1319.000 Y=-80.000 Z=-128.000), Max=(X=2169.000 Y=880.000 Z=528.000) RuntimeGrid:None EditorOnly:0 RuntimeOnly:0 HLODRelevant:0 ListedInSceneOutliner:1 IsMainWorldOnly:0
 |   |- [+] Clusters:
 |   |   |- [+] [  0]
 |   |   |   |- Guid:047AFB4B4732F2F4EF3E089C95E18E3C BaseClass: NativeClass:/Script/Engine.DirectionalLight Name:DirectionalLight_0 Label:DirectionalLight SpatiallyLoaded:0 Bounds:IsValid=true, Min=(X=-4398046511104.000 Y=-4398046511104.000 Z=-4398046511104.000), Max=(X=4398046511104.000 Y=4398046511104.000 Z=4398046511104.000) RuntimeGrid:None EditorOnly:0 RuntimeOnly:0 HLODRelevant:0 ListedInSceneOutliner:1 IsMainWorldOnly:0 FolderPath:Lighting FolderGuid:963EC3EB4002CCE9759E2EBA541A873A
 |   |   |- [+] [  1]
 |   |   |   |- Guid:06D1D3A34C5225FAEE8077AB948A3D26 BaseClass: NativeClass:/Script/Engine.SkyAtmosphere Name:SkyAtmosphere_0 Label:SkyAtmosphere SpatiallyLoaded:0 Bounds:IsValid=true, Min=(X=0.000 Y=0.000 Z=1020.000), Max=(X=0.000 Y=0.000 Z=1020.000) RuntimeGrid:None EditorOnly:0 RuntimeOnly:0 HLODRelevant:0 ListedInSceneOutliner:1 IsMainWorldOnly:0 FolderPath:Lighting FolderGuid:963EC3EB4002CCE9759E2EBA541A873A
 |   |   |- [+] [  2]
 |   |   |   |- Guid:140B16FE4298A7BB13BC7D813C32B7C7 BaseClass:/Game/Blueprints/BP_Puerta.BP_Puerta_C NativeClass:/Script/Engine.Actor Name:BP_Puerta_C_UAID_04421AEA3B5E7EB401_1956649418 Label:BP_Puerta SpatiallyLoaded:1 Bounds:IsValid=true, Min=(X=1320.000 Y=2634.000 Z=-128.000), Max=(X=2280.000 Y=3484.000 Z=528.000) RuntimeGrid:None EditorOnly:0 RuntimeOnly:0 HLODRelevant:0 ListedInSceneOutliner:1 IsMainWorldOnly:0
 |   |   |- [+] [  3]
 |   |   |   |- Guid:266477B948B811E503664EB0E27A5902 BaseClass:/Game/Blueprints/BP_Exit.BP_Exit_C NativeClass:/Script/Engine.Actor Name:BP_Exit_C_UAID_581122D05785F6C101_1524360263 Label:BP_Exit SpatiallyLoaded:1 Bounds:IsValid=true, Min=(X=1630.000 Y=4630.000 Z=-2.118), Max=(X=1770.000 Y=4770.000 Z=171.000) RuntimeGrid:None EditorOnly:0 RuntimeOnly:0 HLODRelevant:0 ListedInSceneOutliner:1 IsMainWorldOnly:0
 |   |   |- [+] [  4]
 |   |   |   |- Guid:287A72E94ED9BE93B759A3BBD082A0F3 BaseClass: NativeClass:/Script/Engine.StaticMeshActor Name:StaticMeshActor_UAID_04421AEA3B5E7EBF01_2038289032 Label:SM_Cube15 SpatiallyLoaded:1 Bounds:IsValid=true, Min=(X=-0.000 Y=5800.000 Z=0.000), Max=(X=3000.000 Y=5900.000 Z=400.000) RuntimeGrid:None EditorOnly:0 RuntimeOnly:0 HLODRelevant:1 ListedInSceneOutliner:1 IsMainWorldOnly:0 FolderPath:Playground FolderGuid:C73F09FC4215536B1DCE2A9E0A830C70
 |   |   |- [+] [  5]
 |   |   |   |- Guid:29A313414D8EAE4E85CD09B2CE11071D BaseClass: NativeClass:/Script/Engine.StaticMeshActor Name:StaticMeshActor_6 Label:SM_Cube3 SpatiallyLoaded:1 Bounds:IsValid=true, Min=(X=0.000 Y=3400.000 Z=0.000), Max=(X=1500.000 Y=3500.000 Z=400.000) RuntimeGrid:None EditorOnly:0 RuntimeOnly:0 HLODRelevant:1 ListedInSceneOutliner:1 IsMainWorldOnly:0 FolderPath:Playground FolderGuid:C73F09FC4215536B1DCE2A9E0A830C70
 |   |   |- [+] [  6]
 |   |   |   |- Guid:2CEE18894AA0B9DCF4C1BBB361D268EB BaseClass:/Game/Blueprints/BP_Teletransporte.BP_Teletransporte_C NativeClass:/Script/Engine.Actor Name:BP_Teletransporte_C_UAID_04421AEA3B5EB7C101_1401132180 Label:BP_Teletransporte SpatiallyLoaded:1 Bounds:IsValid=true, Min=(X=160.000 Y=120.000 Z=0.000), Max=(X=465.000 Y=280.000 Z=262.500) RuntimeGrid:None EditorOnly:0 RuntimeOnly:0 HLODRelevant:0 ListedInSceneOutliner:1 IsMainWorldOnly:0
 |   |   |- [+] [  7]
 |   |   |   |- Guid:36B54AE54F0826FE78E98092F48AB90C BaseClass: NativeClass:/Script/Engine.StaticMeshActor Name:StaticMeshActor_1 Label:SM_Cube SpatiallyLoaded:1 Bounds:IsValid=true, Min=(X=0.000 Y=0.000 Z=-50.000), Max=(X=3000.000 Y=5900.000 Z=0.000) RuntimeGrid:None EditorOnly:0 RuntimeOnly:0 HLODRelevant:1 ListedInSceneOutliner:1 IsMainWorldOnly:0 FolderPath:Playground FolderGuid:C73F09FC4215536B1DCE2A9E0A830C70
 |   |   |- [+] [  8]
 |   |   |   |- Guid:420D09E64144F50F976F4A93CF1E3D5F BaseClass:/Game/Blueprints/BP_Dispensador.BP_Dispensador_C NativeClass:/Script/Engine.Actor Name:BP_Dispensador_C_UAID_04421AEA3B5EB7C101_1191958178 Label:BP_Dispensador2 SpatiallyLoaded:1 Bounds:IsValid=true, Min=(X=2380.000 Y=3075.000 Z=280.000), Max=(X=2745.000 Y=3325.000 Z=440.000) RuntimeGrid:None EditorOnly:0 RuntimeOnly:0 HLODRelevant:0 ListedInSceneOutliner:1 IsMainWorldOnly:0
 |   |   |- [+] [  9]
 |   |   |   |- Guid:4D49EDE74D9CA8D735ABBC928EA431ED BaseClass: NativeClass:/Script/Engine.StaticMeshActor Name:StaticMeshActor_UAID_04421AEA3B5E16B001_1833886887 Label:SM_Cube14 SpatiallyLoaded:1 Bounds:IsValid=true, Min=(X=2100.000 Y=3400.000 Z=0.000), Max=(X=3000.000 Y=3500.000 Z=400.000) RuntimeGrid:None EditorOnly:0 RuntimeOnly:0 HLODRelevant:1 ListedInSceneOutliner:1 IsMainWorldOnly:0 FolderPath:Playground FolderGuid:C73F09FC4215536B1DCE2A9E0A830C70
 |   |   |- [+] [ 10]
 |   |   |   |- Guid:54846C8E4B5451E1A2C0CCB974493C96 BaseClass: NativeClass:/Script/Engine.WorldDataLayers Name:WorldDataLayers Label:WorldDataLayers SpatiallyLoaded:0 Bounds:Invalid RuntimeGrid:None EditorOnly:0 RuntimeOnly:0 HLODRelevant:0 ListedInSceneOutliner:1 IsMainWorldOnly:1
 |   |   |- [+] [ 11]
 |   |   |   |- Guid:5AC2E85C43EB41F109D52F8F6ABB4AB7 BaseClass: NativeClass:/Script/Engine.VolumetricCloud Name:VolumetricCloud_0 Label:VolumetricCloud SpatiallyLoaded:0 Bounds:IsValid=true, Min=(X=0.000 Y=0.000 Z=820.000), Max=(X=0.000 Y=0.000 Z=820.000) RuntimeGrid:None EditorOnly:0 RuntimeOnly:0 HLODRelevant:0 ListedInSceneOutliner:1 IsMainWorldOnly:0 FolderPath:Lighting FolderGuid:963EC3EB4002CCE9759E2EBA541A873A
 |   |   |- [+] [ 12]
 |   |   |   |- Guid:5C3C038D44E5CED3A898E4BCC12FE860 BaseClass: NativeClass:/Script/Engine.StaticMeshActor Name:StaticMeshActor_UAID_A4AE111137DC5EFB00_1110535423 Label:SM_SkySphere SpatiallyLoaded:0 Bounds:IsValid=true, Min=(X=-1638400.000 Y=-1638400.000 Z=-1638400.000), Max=(X=1638400.000 Y=1638400.000 Z=1638400.000) RuntimeGrid:None EditorOnly:0 RuntimeOnly:0 HLODRelevant:1 ListedInSceneOutliner:1 IsMainWorldOnly:0 FolderPath:Lighting FolderGuid:963EC3EB4002CCE9759E2EBA541A873A
 |   |   |- [+] [ 13]
 |   |   |   |- Guid:5FC4D6B941E71AC1B05C608729E6C08E BaseClass:/Game/Blueprints/EjercicioT2/BP_PiezaDePuzle.BP_PiezaDePuzle_C NativeClass:/Script/Engine.Actor Name:BP_PiezaDePuzle_C_UAID_04421AEA3B5E83BF01_1120116912 Label:BP_PiezaDePuzle SpatiallyLoaded:1 Bounds:IsValid=true, Min=(X=2365.600 Y=2645.600 Z=0.000), Max=(X=2634.400 Y=2914.400 Z=250.000) RuntimeGrid:None EditorOnly:0 RuntimeOnly:0 HLODRelevant:0 ListedInSceneOutliner:1 IsMainWorldOnly:0
 |   |   |- [+] [ 14]
 |   |   |   |- Guid:60E65E884A4DCD8AD41621B28F93F7BB BaseClass: NativeClass:/Script/Engine.StaticMeshActor Name:StaticMeshActor_4 Label:SM_Cube6 SpatiallyLoaded:1 Bounds:IsValid=true, Min=(X=2900.000 Y=100.000 Z=0.000), Max=(X=3000.000 Y=5900.000 Z=400.000) RuntimeGrid:None EditorOnly:0 RuntimeOnly:0 HLODRelevant:1 ListedInSceneOutliner:1 IsMainWorldOnly:0 FolderPath:Playground FolderGuid:C73F09FC4215536B1DCE2A9E0A830C70
 |   |   |- [+] [ 15]
 |   |   |   |- Guid:62B52CA542BECAC6BB4F09AD8E22D068 BaseClass: NativeClass:/Script/Engine.StaticMeshActor Name:StaticMeshActor_UAID_04421AEA3B5E7FBF01_1114921211 Label:SM_Cube16 SpatiallyLoaded:1 Bounds:IsValid=true, Min=(X=2100.000 Y=700.000 Z=0.000), Max=(X=3000.000 Y=800.000 Z=400.000) RuntimeGrid:None EditorOnly:0 RuntimeOnly:0 HLODRelevant:1 ListedInSceneOutliner:1 IsMainWorldOnly:0 FolderPath:Playground FolderGuid:C73F09FC4215536B1DCE2A9E0A830C70
 |   |   |- [+] [ 16]
 |   |   |   |- Guid:63D753114785B0159051C08C7C8812E9 BaseClass: NativeClass:/Script/Engine.TextRenderActor Name:TextRenderActor_1 Label:TextRenderActor SpatiallyLoaded:1 Bounds:IsValid=true, Min=(X=-0.100 Y=1100.000 Z=65.013), Max=(X=-0.100 Y=2392.308 Z=215.013) RuntimeGrid:None EditorOnly:0 RuntimeOnly:0 HLODRelevant:0 ListedInSceneOutliner:1 IsMainWorldOnly:0
 |   |   |- [+] [ 17]
 |   |   |   |- Guid:7C5CBA824F3E0F461290E4BA0561EEB9 BaseClass:/Game/Blueprints/BP_Boton.BP_Boton_C NativeClass:/Script/Engine.Actor Name:BP_Boton_C_UAID_04421AEA3B5EB7C101_1176264177 Label:BP_Boton SpatiallyLoaded:1 Bounds:IsValid=true, Min=(X=2455.000 Y=3150.000 Z=-1.250), Max=(X=2555.000 Y=3250.000 Z=72.000) RuntimeGrid:None EditorOnly:0 RuntimeOnly:0 HLODRelevant:0 ListedInSceneOutliner:1 IsMainWorldOnly:0
 |   |   |- [+] [ 18]
 |   |   |   |- Guid:82DC8D8041397C74B7D7479CCD59E603 BaseClass:/Game/Blueprints/BP_Tintator.BP_Tintator_C NativeClass:/Script/Engine.Actor Name:BP_Tintator_C_UAID_04421AEA3B5E4EBD01_2021016471 Label:BP_Tintator SpatiallyLoaded:1 Bounds:IsValid=true, Min=(X=2520.000 Y=320.000 Z=-2.500), Max=(X=2680.000 Y=480.000 Z=247.500) RuntimeGrid:None EditorOnly:0 RuntimeOnly:0 HLODRelevant:0 ListedInSceneOutliner:1 IsMainWorldOnly:0
 |   |   |- [+] [ 19]
 |   |   |   |- Guid:8EFB26F04C8797D54C35269BDA9624F9 BaseClass:/Game/Blueprints/BP_Tintator.BP_Tintator_C NativeClass:/Script/Engine.Actor Name:BP_Tintator_C_UAID_04421AEA3B5E7FBF01_1338490222 Label:BP_Tintator2 SpatiallyLoaded:1 Bounds:IsValid=true, Min=(X=2520.000 Y=1020.000 Z=-2.500), Max=(X=2680.000 Y=1180.000 Z=247.500) RuntimeGrid:None EditorOnly:0 RuntimeOnly:0 HLODRelevant:0 ListedInSceneOutliner:1 IsMainWorldOnly:0
 |   |   |- [+] [ 20]
 |   |   |   |- Guid:912F05EA4A97A221DF924B8D0E66F5A9 BaseClass:/Game/Blueprints/BP_Cubito.BP_Cubito_C NativeClass:/Script/Engine.StaticMeshActor Name:BP_Cubito_C_UAID_04421AEA3B5E81B401_1454935949 Label:BP_Cubito SpatiallyLoaded:1 Bounds:IsValid=true, Min=(X=1035.000 Y=4600.000 Z=0.013), Max=(X=1135.000 Y=4700.000 Z=100.013) RuntimeGrid:None EditorOnly:0 RuntimeOnly:0 HLODRelevant:0 ListedInSceneOutliner:1 IsMainWorldOnly:0
 |   |   |- [+] [ 21]
 |   |   |   |- Guid:94B91BE34AD7E4574CAEC1822397EDEE BaseClass: NativeClass:/Script/Engine.PostProcessVolume Name:PostProcessVolume_0 Label:PostProcessVolume SpatiallyLoaded:0 Bounds:IsValid=true, Min=(X=0.000 Y=0.000 Z=400.000), Max=(X=200.000 Y=200.000 Z=600.000) RuntimeGrid:None EditorOnly:0 RuntimeOnly:0 HLODRelevant:0 ListedInSceneOutliner:1 IsMainWorldOnly:0 FolderPath:Lighting FolderGuid:963EC3EB4002CCE9759E2EBA541A873A
 |   |   |- [+] [ 22]
 |   |   |   |- Guid:9C965D054FD8433FEEAF4F8F9CD2DCB1 BaseClass: NativeClass:/Script/Engine.StaticMeshActor Name:StaticMeshActor_UAID_04421AEA3B5EB6C101_2053379000 Label:SM_Cube8 SpatiallyLoaded:1 Bounds:IsValid=true, Min=(X=600.000 Y=1650.000 Z=0.000), Max=(X=1200.000 Y=2250.000 Z=200.000) RuntimeGrid:None EditorOnly:0 RuntimeOnly:0 HLODRelevant:1 ListedInSceneOutliner:1 IsMainWorldOnly:0 FolderPath:Playground FolderGuid:C73F09FC4215536B1DCE2A9E0A830C70
 |   |   |- [+] [ 23]
 |   |   |   |- Guid:ADC081484E3D8335459E0EBD752B34F3 BaseClass: NativeClass:/Script/Engine.ExponentialHeightFog Name:ExponentialHeightFog_0 Label:ExponentialHeightFog SpatiallyLoaded:0 Bounds:IsValid=true, Min=(X=-5600.000 Y=-50.000 Z=-6850.000), Max=(X=-5600.000 Y=-50.000 Z=-6850.000) RuntimeGrid:None EditorOnly:0 RuntimeOnly:0 HLODRelevant:0 ListedInSceneOutliner:1 IsMainWorldOnly:0 FolderPath:Lighting FolderGuid:963EC3EB4002CCE9759E2EBA541A873A
 |   |   |- [+] [ 24]
 |   |   |   |- Guid:AE6361C44DCF546FACCB019AEECED899 BaseClass:/Game/Blueprints/EjercicioT2/BP_PiezaDePuzle.BP_PiezaDePuzle_C NativeClass:/Script/Engine.Actor Name:BP_PiezaDePuzle_C_UAID_04421AEA3B5EB4C101_1134823647 Label:BP_PiezaDePuzle2 SpatiallyLoaded:1 Bounds:IsValid=true, Min=(X=1160.600 Y=3115.600 Z=0.000), Max=(X=1429.400 Y=3384.400 Z=250.000) RuntimeGrid:None EditorOnly:0 RuntimeOnly:0 HLODRelevant:0 ListedInSceneOutliner:1 IsMainWorldOnly:0
 |   |   |- [+] [ 25]
 |   |   |   |- Guid:B0C9F02943C5B973B02F7384A618CF6D BaseClass: NativeClass:/Script/Engine.StaticMeshActor Name:StaticMeshActor_0 Label:SM_Cube5 SpatiallyLoaded:1 Bounds:IsValid=true, Min=(X=-0.000 Y=100.000 Z=0.000), Max=(X=100.000 Y=5800.000 Z=400.000) RuntimeGrid:None EditorOnly:0 RuntimeOnly:0 HLODRelevant:1 ListedInSceneOutliner:1 IsMainWorldOnly:0 FolderPath:Playground FolderGuid:C73F09FC4215536B1DCE2A9E0A830C70
 |   |   |- [+] [ 26]
 |   |   |   |- Guid:B5D9DC64467865A49571F3AEC8D1AE92 BaseClass:/Game/Blueprints/BP_Boton.BP_Boton_C NativeClass:/Script/Engine.Actor Name:BP_Boton_C_UAID_04421AEA3B5E7FBF01_1209838215 Label:BP_Boton4 SpatiallyLoaded:1 Bounds:IsValid=true, Min=(X=2150.000 Y=950.000 Z=-1.250), Max=(X=2250.000 Y=1050.000 Z=72.000) RuntimeGrid:None EditorOnly:0 RuntimeOnly:0 HLODRelevant:0 ListedInSceneOutliner:1 IsMainWorldOnly:0
 |   |   |- [+] [ 27]
 |   |   |   |- Guid:BBD870CF44A3C841B43B1EA5793B750E BaseClass:/Game/Blueprints/BP_BotonMano.BP_BotonMano_C NativeClass:/Script/Engine.Actor Name:BP_BotonMano_C_UAID_04421AEA3B5EB7C101_1226619179 Label:BP_BotonMano2 SpatiallyLoaded:1 Bounds:IsValid=true, Min=(X=1061.600 Y=1870.000 Z=120.000), Max=(X=1340.000 Y=2030.000 Z=303.000) RuntimeGrid:None EditorOnly:0 RuntimeOnly:0 HLODRelevant:0 ListedInSceneOutliner:1 IsMainWorldOnly:0
 |   |   |- [+] [ 28]
 |   |   |   |- Guid:BD9D773246E253079C645294FB07A53F BaseClass:/Game/Blueprints/BP_BotonTintado.BP_BotonTintado_C NativeClass:/Script/Engine.Actor Name:BP_BotonTintado_C_UAID_04421AEA3B5E7FBF01_1194292214 Label:BP_BotonTintado3 SpatiallyLoaded:1 Bounds:IsValid=true, Min=(X=830.000 Y=1780.000 Z=204.219), Max=(X=970.000 Y=1920.000 Z=272.000) RuntimeGrid:None EditorOnly:0 RuntimeOnly:0 HLODRelevant:0 ListedInSceneOutliner:1 IsMainWorldOnly:0
 |   |   |- [+] [ 29]
 |   |   |   |- Guid:C66B076C41D1F80E59EC92819017969A BaseClass: NativeClass:/Script/Engine.StaticMeshActor Name:StaticMeshActor_5 Label:SM_Cube2 SpatiallyLoaded:1 Bounds:IsValid=true, Min=(X=0.000 Y=0.000 Z=0.000), Max=(X=3000.000 Y=100.000 Z=400.000) RuntimeGrid:None EditorOnly:0 RuntimeOnly:0 HLODRelevant:1 ListedInSceneOutliner:1 IsMainWorldOnly:0 FolderPath:Playground FolderGuid:C73F09FC4215536B1DCE2A9E0A830C70
 |   |   |- [+] [ 30]
 |   |   |   |- Guid:D4EA3D4247B797C238880DBECCE47611 BaseClass:/Game/Blueprints/BP_BotonTintado.BP_BotonTintado_C NativeClass:/Script/Engine.Actor Name:BP_BotonTintado_C_UAID_04421AEA3B5E7FBF01_1190697213 Label:BP_BotonTintado2 SpatiallyLoaded:1 Bounds:IsValid=true, Min=(X=825.000 Y=1980.000 Z=204.219), Max=(X=965.000 Y=2120.000 Z=272.000) RuntimeGrid:None EditorOnly:0 RuntimeOnly:0 HLODRelevant:0 ListedInSceneOutliner:1 IsMainWorldOnly:0
 |   |   |- [+] [ 31]
 |   |   |   |- Guid:D7C8687A422BD1FBDDCA7DB492244784 BaseClass: NativeClass:/Script/Engine.PlayerStart Name:PlayerStart_0 Label:PlayerStart SpatiallyLoaded:0 Bounds:IsValid=true, Min=(X=910.000 Y=2400.000 Z=0.013), Max=(X=990.000 Y=2480.000 Z=184.013) RuntimeGrid:None EditorOnly:0 RuntimeOnly:0 HLODRelevant:0 ListedInSceneOutliner:1 IsMainWorldOnly:0
 |   |   |- [+] [ 32]
 |   |   |   |- Guid:DBB479E340C966C18C9B7487FA51CCCA BaseClass: NativeClass:/Script/Engine.SkyLight Name:SkyLight_1 Label:SkyLight SpatiallyLoaded:0 Bounds:IsValid=true, Min=(X=0.000 Y=0.000 Z=690.000), Max=(X=0.000 Y=0.000 Z=690.000) RuntimeGrid:None EditorOnly:0 RuntimeOnly:0 HLODRelevant:0 ListedInSceneOutliner:1 IsMainWorldOnly:0 FolderPath:Lighting FolderGuid:963EC3EB4002CCE9759E2EBA541A873A
 |   |   |- [+] [ 33]
 |   |   |   |- Guid:F325A08D4BAD73D7A73DCAA0B6EDCA65 BaseClass:/Game/Blueprints/BP_Puerta.BP_Puerta_C NativeClass:/Script/Engine.Actor Name:BP_Puerta_C_UAID_04421AEA3B5E7EBF01_2058048034 Label:BP_Puerta2 SpatiallyLoaded:1 Bounds:IsValid=true, Min=(X=1319.000 Y=-80.000 Z=-128.000), Max=(X=2169.000 Y=880.000 Z=528.000) RuntimeGrid:None EditorOnly:0 RuntimeOnly:0 HLODRelevant:0 ListedInSceneOutliner:1 IsMainWorldOnly:0
 |- ContainerInstances:
 |- [+] MainContainer:
 |   |-        ID: 00000000000000000000000000000000
 |   |-  ParentID: 00000000000000000000000000000000
 |   |-    Bounds: IsValid=false, Min=(X=0.000 Y=0.000 Z=0.000), Max=(X=0.000 Y=0.000 Z=0.000)
 |   |- Transform: 0.000000,0.000000,0.000000|0.000000,0.000000,-0.000000|1.000000,1.000000,1.000000
 |   |- Container: /Game/Scenes/EjercicioT2
----------------------------------------------------------------------------------------------------------------
EjercicioT2 - Persistent Level
----------------------------------------------------------------------------------------------------------------
[+] Content of EjercicioT2 Persistent Level
 |- Always loaded Actor Count: 41 
 |- Actor Path: /Game/Scenes/EjercicioT2.EjercicioT2:PersistentLevel.AbstractNavData-Default
 |- Actor Package: /Game/Scenes/EjercicioT2
 |- Actor Path: /Game/Scenes/EjercicioT2.EjercicioT2:PersistentLevel.BP_Boton_C_UAID_04421AEA3B5E7FBF01_1209838215
 |- Actor Package: /Game/__ExternalActors__/Scenes/EjercicioT2/2/09/93HJPNEKKU6HYKHR1SWP9C
 |- Actor Path: /Game/Scenes/EjercicioT2.EjercicioT2:PersistentLevel.BP_Boton_C_UAID_04421AEA3B5EB7C101_1176264177
 |- Actor Package: /Game/__ExternalActors__/Scenes/EjercicioT2/E/55/RMDMPP5J1IZ5L544C51TFC
 |- Actor Path: /Game/Scenes/EjercicioT2.EjercicioT2:PersistentLevel.BP_BotonMano_C_UAID_04421AEA3B5EB7C101_1226619179
 |- Actor Package: /Game/__ExternalActors__/Scenes/EjercicioT2/7/YU/98JX3H9BW63X1DXHPS5T9S
 |- Actor Path: /Game/Scenes/EjercicioT2.EjercicioT2:PersistentLevel.BP_BotonTintado_C_UAID_04421AEA3B5E7FBF01_1190697213
 |- Actor Package: /Game/__ExternalActors__/Scenes/EjercicioT2/4/MZ/QZPGX0NYMILWO5VKN6ID4B
 |- Actor Path: /Game/Scenes/EjercicioT2.EjercicioT2:PersistentLevel.BP_BotonTintado_C_UAID_04421AEA3B5E7FBF01_1194292214
 |- Actor Package: /Game/__ExternalActors__/Scenes/EjercicioT2/D/9G/39X2PQUE5GTCAX5H98UBRP
 |- Actor Path: /Game/Scenes/EjercicioT2.EjercicioT2:PersistentLevel.BP_Cubito_C_UAID_04421AEA3B5E81B401_1454935949
 |- Actor Package: /Game/__ExternalActors__/Scenes/EjercicioT2/C/UM/R13DD2P4T8TUZQV99OBA46
 |- Actor Path: /Game/Scenes/EjercicioT2.EjercicioT2:PersistentLevel.BP_Dispensador_C_UAID_04421AEA3B5EB7C101_1191958178
 |- Actor Package: /Game/__ExternalActors__/Scenes/EjercicioT2/1/FU/QODWU5YSN6LT96BQ57DJNW
 |- Actor Path: /Game/Scenes/EjercicioT2.EjercicioT2:PersistentLevel.BP_Exit_C_UAID_581122D05785F6C101_1524360263
 |- Actor Package: /Game/__ExternalActors__/Scenes/EjercicioT2/9/4S/J8ZB7R7VH2E63HI5FV6SRK
 |- Actor Path: /Game/Scenes/EjercicioT2.EjercicioT2:PersistentLevel.BP_PiezaDePuzle_C_UAID_04421AEA3B5E83BF01_1120116912
 |- Actor Package: /Game/__ExternalActors__/Scenes/EjercicioT2/D/TM/NAYUCGWZCI5SGCW4OE5VHT
 |- Actor Path: /Game/Scenes/EjercicioT2.EjercicioT2:PersistentLevel.BP_PiezaDePuzle_C_UAID_04421AEA3B5EB4C101_1134823647
 |- Actor Package: /Game/__ExternalActors__/Scenes/EjercicioT2/3/XG/77441L0JPLHQALMGJUPAUU
 |- Actor Path: /Game/Scenes/EjercicioT2.EjercicioT2:PersistentLevel.BP_Puerta_C_UAID_04421AEA3B5E7EB401_1956649418
 |- Actor Package: /Game/__ExternalActors__/Scenes/EjercicioT2/2/ME/MWJF6RAJE2KBCWT0O0POYV
 |- Actor Path: /Game/Scenes/EjercicioT2.EjercicioT2:PersistentLevel.BP_Puerta_C_UAID_04421AEA3B5E7EBF01_2058048034
 |- Actor Package: /Game/__ExternalActors__/Scenes/EjercicioT2/C/L4/7QWPMC29QYS02SAKU6NHX5
 |- Actor Path: /Game/Scenes/EjercicioT2.EjercicioT2:PersistentLevel.BP_Teletransporte_C_UAID_04421AEA3B5EB7C101_1401132180
 |- Actor Package: /Game/__ExternalActors__/Scenes/EjercicioT2/3/OF/ZVZ5SRN3KZUGGJVRIBYMDY
 |- Actor Path: /Game/Scenes/EjercicioT2.EjercicioT2:PersistentLevel.BP_Tintator_C_UAID_04421AEA3B5E4EBD01_2021016471
 |- Actor Package: /Game/__ExternalActors__/Scenes/EjercicioT2/6/4S/7ZP39L58A1A22QP5BZKGNY
 |- Actor Path: /Game/Scenes/EjercicioT2.EjercicioT2:PersistentLevel.BP_Tintator_C_UAID_04421AEA3B5E7FBF01_1338490222
 |- Actor Package: /Game/__ExternalActors__/Scenes/EjercicioT2/4/95/2J1Q7GKIIWYFCGNLEXI3CI
 |- Actor Path: /Game/Scenes/EjercicioT2.EjercicioT2:PersistentLevel.Brush_0
 |- Actor Package: /Game/Scenes/EjercicioT2
 |- Actor Path: /Game/Scenes/EjercicioT2.EjercicioT2:PersistentLevel.DefaultPhysicsVolume_0
 |- Actor Package: /Game/Scenes/EjercicioT2
 |- Actor Path: /Game/Scenes/EjercicioT2.EjercicioT2:PersistentLevel.DirectionalLight_0
 |- Actor Package: /Game/__ExternalActors__/Scenes/EjercicioT2/1/L4/9F75N073D1878FA8RQBYUA
 |- Actor Path: /Game/Scenes/EjercicioT2.EjercicioT2:PersistentLevel.EjercicioT2_C_2
 |- Actor Package: /Game/Scenes/EjercicioT2
 |- Actor Path: /Game/Scenes/EjercicioT2.EjercicioT2:PersistentLevel.ExponentialHeightFog_0
 |- Actor Package: /Game/__ExternalActors__/Scenes/EjercicioT2/C/KO/OJ6Y6T1U45VDLOKUR7CZ9X
 |- Actor Path: /Game/Scenes/EjercicioT2.EjercicioT2:PersistentLevel.GameplayDebuggerPlayerManager_0
 |- Actor Package: /Game/Scenes/EjercicioT2
 |- Actor Path: /Game/Scenes/EjercicioT2.EjercicioT2:PersistentLevel.PlayerStart_0
 |- Actor Package: /Game/__ExternalActors__/Scenes/EjercicioT2/2/FR/130FT9AYDWMYWO36EB8071
 |- Actor Path: /Game/Scenes/EjercicioT2.EjercicioT2:PersistentLevel.PostProcessVolume_0
 |- Actor Package: /Game/__ExternalActors__/Scenes/EjercicioT2/4/RX/7TXMC224T7HS36DEXXSR3Y
 |- Actor Path: /Game/Scenes/EjercicioT2.EjercicioT2:PersistentLevel.SkyAtmosphere_0
 |- Actor Package: /Game/__ExternalActors__/Scenes/EjercicioT2/3/NU/XTT3XZOFI43FZ9NU8UN9PR
 |- Actor Path: /Game/Scenes/EjercicioT2.EjercicioT2:PersistentLevel.SkyLight_1
 |- Actor Package: /Game/__ExternalActors__/Scenes/EjercicioT2/3/G1/Q73AT6JQP7GLKQS8ZA069Z
 |- Actor Path: /Game/Scenes/EjercicioT2.EjercicioT2:PersistentLevel.StaticMeshActor_0
 |- Actor Package: /Game/__ExternalActors__/Scenes/EjercicioT2/C/K8/O51A8AFAFIRBETOCKI1N16
 |- Actor Path: /Game/Scenes/EjercicioT2.EjercicioT2:PersistentLevel.StaticMeshActor_1
 |- Actor Package: /Game/__ExternalActors__/Scenes/EjercicioT2/B/64/FXJ1N8QKUTGW1EF9DENMDC
 |- Actor Path: /Game/Scenes/EjercicioT2.EjercicioT2:PersistentLevel.StaticMeshActor_4
 |- Actor Package: /Game/__ExternalActors__/Scenes/EjercicioT2/9/IS/B6QODVK1JGUUZ97G3Q2XFP
 |- Actor Path: /Game/Scenes/EjercicioT2.EjercicioT2:PersistentLevel.StaticMeshActor_5
 |- Actor Package: /Game/__ExternalActors__/Scenes/EjercicioT2/3/SK/E5JKBSTCY3SWIBKK5QV7SH
 |- Actor Path: /Game/Scenes/EjercicioT2.EjercicioT2:PersistentLevel.StaticMeshActor_6
 |- Actor Package: /Game/__ExternalActors__/Scenes/EjercicioT2/B/4J/MLCMG1M6ANLHSIHA2QQXK4
 |- Actor Path: /Game/Scenes/EjercicioT2.EjercicioT2:PersistentLevel.StaticMeshActor_UAID_04421AEA3B5E16B001_1833886887
 |- Actor Package: /Game/__ExternalActors__/Scenes/EjercicioT2/7/VD/MZ6RBO8WF2TE2ZXPX7E1KP
 |- Actor Path: /Game/Scenes/EjercicioT2.EjercicioT2:PersistentLevel.StaticMeshActor_UAID_04421AEA3B5E7EBF01_2038289032
 |- Actor Package: /Game/__ExternalActors__/Scenes/EjercicioT2/4/VI/JIZ29TNIBAZLH35FIRP8S0
 |- Actor Path: /Game/Scenes/EjercicioT2.EjercicioT2:PersistentLevel.StaticMeshActor_UAID_04421AEA3B5E7FBF01_1114921211
 |- Actor Package: /Game/__ExternalActors__/Scenes/EjercicioT2/5/99/5DNXMYNUX2K2R8EMKZMCDS
 |- Actor Path: /Game/Scenes/EjercicioT2.EjercicioT2:PersistentLevel.StaticMeshActor_UAID_04421AEA3B5EB6C101_2053379000
 |- Actor Package: /Game/__ExternalActors__/Scenes/EjercicioT2/C/PK/M7VNR1KWYIVOW3ZZZHYQ1T
 |- Actor Path: /Game/Scenes/EjercicioT2.EjercicioT2:PersistentLevel.StaticMeshActor_UAID_A4AE111137DC5EFB00_1110535423
 |- Actor Package: /Game/__ExternalActors__/Scenes/EjercicioT2/3/V5/LEYQXCPS9EQAXKH9JDZX09
 |- Actor Path: /Game/Scenes/EjercicioT2.EjercicioT2:PersistentLevel.TextRenderActor_1
 |- Actor Package: /Game/__ExternalActors__/Scenes/EjercicioT2/7/I0/86L7ZKTQ9CC7UK12BUEPF9
 |- Actor Path: /Game/Scenes/EjercicioT2.EjercicioT2:PersistentLevel.VolumetricCloud_0
 |- Actor Package: /Game/__ExternalActors__/Scenes/EjercicioT2/8/GZ/AQW0YERI71RH68XGMKX6NP
 |- Actor Path: /Game/Scenes/EjercicioT2.EjercicioT2:PersistentLevel.WorldDataLayers
 |- Actor Package: /Game/__ExternalActors__/Scenes/EjercicioT2/E/4K/3I38BBO76TAX2X26KHN1WP
 |- Actor Path: /Game/Scenes/EjercicioT2.EjercicioT2:PersistentLevel.WorldInfo_0
 |- Actor Package: /Game/Scenes/EjercicioT2
 |- Actor Path: /Game/Scenes/EjercicioT2.EjercicioT2:PersistentLevel.WorldPartitionMiniMap_0
 |- Actor Package: /Game/__ExternalActors__/Scenes/EjercicioT2/6/DW/C8BHZYOX6PRYWN5GJBSQOP

----------------------------------------------------------------------------------------------------------------
EjercicioT2 - Runtime Spatial Hash - Streaming Grid - MainGrid
----------------------------------------------------------------------------------------------------------------
            Origin: X=0.000 Y=0.000 Z=0.000
         Cell Size: 12800
      World Bounds: IsValid=false, Min=(X=0.000 Y=0.000 Z=0.000), Max=(X=0.000 Y=0.000 Z=0.000)
     Loading Range: 25600.00
Block Slow Loading: No
 ClientOnlyVisible: No
            Origin: X=0.000 Y=0.000 Z=0.000

[+] Grid Levels: 1
 |- Level  0: Cell Count    0 | Cell Size   12800 | Actor Count    0 (0.0%)

[+] Content of Grid Level 0

